2014-05-19,186.610001,187.130005,186.039993,187.00,3270700,172.23507
2008-09-22,118.449997,120.139999,116.019997,116.209999,8844000,96.053064
2011-10-26,181.740005,182.279999,179.029999,181.970001,5387700,159.237298
2009-09-09,117.029999,117.669998,116.160004,116.760002,5248100,98.542259
2007-11-05,115.110001,115.110001,112.830002,113.400002,7155300,92.305129
2007-11-26,104.260002,105.150002,101.720001,101.970001,7340700,83.29577
2009-08-18,116.809998,118.00,116.730003,117.629997,4286200,99.276511
2011-10-07,182.320007,183.720001,181.639999,182.389999,6842600,159.604828
2012-11-28,190.979996,192.039993,189.270004,191.979996,3603600,171.511658
2013-06-05,205.160004,206.289993,202.399994,202.740005,4215400,182.739394
2013-06-27,196.050003,196.899994,195.289993,195.649994,3514200,176.348823
2007-08-03,113.239998,114.18,111.699997,111.889999,9571300,90.755133
2014-03-14,183.889999,184.289993,182.210007,182.210007,5490300,166.851824
2011-01-26,161.669998,161.899994,160.419998,161.039993,5353100,139.135419
2007-05-30,105.400002,107.099998,105.209999,106.93,7401000,86.732027
2013-09-04,183.580002,184.190002,182.309998,183.130005,2597900,165.8891
2010-02-05,123.040001,123.720001,121.830002,123.519997,8617000,104.715374
2007-06-29,105.959999,106.580002,104.099998,105.25,7018400,85.369361
2014-08-08,184.399994,186.669998,183.580002,186.630005,2781500,172.910868
2007-01-04,97.25,98.790001,96.879997,98.309998,10524500,79.192409
2013-06-13,201.009995,204.399994,200.339996,203.770004,2899500,183.667782
2008-06-10,124.879997,126.720001,124.629997,125.940002,5384200,103.691494
2011-10-24,181.509995,183.389999,180.619995,182.25,5890600,159.482318
2016-08-04,160.860001,161.699997,160.119995,161.550003,2489100,158.726723
2013-09-18,192.600006,194.889999,192.00,194.419998,3841800,176.116188
2009-11-04,121.459999,122.50,121.160004,121.290001,6353300,102.365455
2007-06-12,103.110001,103.18,102.150002,102.339996,5578400,83.009027
2008-09-09,117.779999,118.099998,115.00,115.040001,8106300,95.086005
2008-01-04,103.949997,103.949997,100.480003,101.129997,11034600,82.6096
2016-02-29,132.00,133.360001,130.899994,131.029999,4428000,127.509557
2010-01-14,130.550003,132.710007,129.910004,132.309998,7111800,112.167189
2015-09-28,144.419998,145.380005,142.470001,142.520004,4317300,136.0127
2010-06-28,127.650002,129.470001,127.220001,128.979996,6335100,110.396183
2008-01-08,100.050003,100.379997,97.169998,97.589996,9434400,79.717896
2014-08-28,191.470001,192.300003,190.660004,192.00,1503600,177.886116
2010-12-14,144.259995,146.009995,144.259995,145.820007,4800800,125.985647
2015-01-30,153.910004,155.240005,153.039993,153.309998,6563600,143.012362
2008-10-21,92.220001,92.459999,88.57,88.860001,9716400,73.446996
2014-06-11,183.610001,184.199997,182.009995,182.25,4061700,167.860115
2007-12-28,110.760002,110.760002,109.110001,110.089996,5834500,89.928714
2008-04-22,123.870003,124.349998,123.010002,123.669998,5417500,101.40799
2007-12-31,109.510002,110.00,107.260002,108.099998,5732300,88.303153
2012-07-27,195.100006,197.410004,193.949997,196.389999,4177300,173.944294
2012-09-12,203.520004,204.649994,202.960007,203.770004,3284000,181.251407
2016-11-16,158.460007,159.550003,158.029999,159.289993,2244100,159.289993
2010-12-02,144.330002,145.850006,144.300003,145.179993,5374000,125.432687
2011-08-05,172.100006,174.220001,166.520004,172.979996,11871800,150.714075
2013-07-23,194.210007,196.429993,194.100006,194.979996,2863800,175.744921
2008-04-11,117.309998,117.800003,115.510002,116.00,9556800,95.118679
2007-02-27,96.00,96.010002,92.879997,93.959999,11996700,75.916417
2015-03-13,157.460007,157.520004,153.399994,154.279999,6064100,144.926762
2009-11-13,126.410004,127.800003,126.269997,127.029999,4979700,107.691015
2015-05-14,173.50,174.399994,173.220001,174.050003,2439100,164.735538
2007-06-08,101.800003,103.209999,101.75,103.07,8216300,83.60114
2016-08-19,160.839996,160.910004,159.520004,160.039993,2815200,158.601159
2007-07-17,109.660004,111.470001,109.449997,110.769997,7619900,89.846687
2013-10-01,185.339996,186.649994,184.649994,186.380005,2681200,168.833126
2009-09-14,117.00,118.989998,116.940002,118.879997,4758600,100.331477
2015-07-15,168.479996,169.270004,168.00,168.529999,1998000,159.510942
2015-09-11,145.910004,147.50,145.669998,147.369995,3115100,140.641245
2009-03-04,88.970001,91.239998,87.599998,89.489998,15391700,74.785866
2013-07-02,190.779999,193.229996,190.259995,191.50,3657700,172.608232
2007-08-06,111.970001,113.889999,111.699997,113.889999,7245500,92.377354
2012-03-26,206.449997,207.919998,206.320007,207.770004,3418200,183.255949
2009-12-31,132.410004,132.850006,130.75,130.899994,4223400,110.971844
2008-05-01,121.059998,124.43,121.059998,123.610001,8230200,101.358792
2012-08-23,197.039993,197.369995,195.440002,195.699997,2757400,174.073215
2012-02-21,193.729996,194.240005,192.460007,193.389999,3293600,170.57259
2009-10-16,123.150002,123.699997,121.25,121.639999,19216900,102.660844
2012-11-14,189.139999,189.270004,185.279999,185.509995,4404400,165.731469
2016-09-09,158.029999,158.399994,155.649994,155.690002,5186000,154.290277
2015-03-27,160.789993,160.899994,159.229996,160.399994,3477900,150.675732
2011-05-04,172.360001,172.619995,169.589996,170.619995,6890300,147.996006
2007-05-15,105.400002,105.800003,104.699997,104.830002,6104200,85.028696
2007-07-03,105.50,107.080002,105.239998,106.580002,4217900,86.448139
2007-01-26,97.519997,97.830002,96.839996,97.449997,5771100,78.499646
2009-09-16,119.50,122.00,119.300003,121.82,11236700,102.812759
2009-02-27,88.120003,93.279999,88.010002,92.029999,21311200,76.908519
2011-09-01,172.710007,173.679993,170.119995,170.330002,5463900,149.051432
2007-11-13,102.730003,105.739998,102.50,105.269997,10777900,85.991423
2014-01-10,188.309998,188.570007,186.279999,187.259995,4022400,170.541231
2008-10-17,91.75,95.910004,87.709999,90.779999,15230700,75.033965
2012-10-02,210.960007,211.470001,208.50,209.839996,3321000,186.650605
2011-11-01,181.550003,183.259995,180.740005,181.350006,5881200,158.694756
2008-01-23,99.629997,106.339996,98.50,106.099998,19588100,86.669422
2013-01-31,203.320007,204.470001,202.960007,203.070007,3091400,181.419286
2008-01-31,104.209999,107.970001,103.699997,107.110001,9054600,87.494458
2013-07-19,197.910004,197.990005,193.240005,193.539993,6997600,174.446977
2016-08-22,160.00,160.570007,159.130005,160.00,2039300,158.561525
2011-02-02,163.399994,163.600006,162.610001,163.300003,3904000,141.088023
2011-07-29,180.259995,183.429993,179.729996,181.850006,6665600,158.442341
2008-07-25,129.00,129.899994,128.00,128.529999,7565500,105.823943
2009-03-23,93.699997,98.709999,93.699997,98.709999,12407200,82.490926
2015-01-16,153.820007,157.630005,153.820007,157.139999,5756000,146.585108
2014-01-09,189.020004,189.50,186.550003,187.380005,4321300,170.650526
2009-01-07,87.830002,88.800003,87.120003,87.790001,8455100,72.968239
2016-11-08,154.559998,155.929993,153.059998,155.169998,3921900,155.169998
2008-10-09,95.290001,95.309998,88.230003,89.00,21293600,73.562712
2009-02-18,91.169998,92.25,90.440002,91.510002,8492600,76.473963
2014-09-16,191.25,193.570007,190.820007,192.960007,2561500,178.775553
2016-05-04,143.360001,145.00,143.309998,144.25,2577100,140.37437
2012-06-15,196.080002,199.270004,195.399994,199.100006,6389000,176.34457
2016-01-19,130.110001,132.100006,128.059998,128.110001,9979600,123.407469
2014-02-11,176.809998,180.389999,176.800003,179.699997,4647300,164.553379
2015-07-22,162.729996,163.070007,159.699997,160.350006,7181800,151.76871
2012-03-23,205.889999,205.960007,204.559998,205.479996,3036200,181.23613
2010-03-18,127.459999,128.75,127.449997,128.380005,4954400,109.322274
2014-01-24,181.25,182.809998,179.639999,179.639999,6890600,163.601557
2010-11-22,144.00,145.429993,143.559998,145.389999,3730700,125.614129
2007-11-20,102.589996,104.970001,101.379997,103.419998,8393400,84.480223
2008-04-07,116.370003,117.370003,115.82,116.309998,6181200,95.372873
2010-01-22,128.669998,128.889999,125.370003,125.50,10088600,106.393943
2012-10-23,193.529999,194.00,190.940002,191.25,4427400,170.114987
2010-04-06,128.679993,129.300003,128.050003,128.929993,3926300,109.790617
2008-12-11,81.50,82.860001,79.769997,80.580002,10682400,66.975519
2011-05-31,168.440002,169.889999,167.820007,168.929993,9123400,147.185387
2014-10-01,189.910004,190.399994,186.789993,187.169998,3723200,173.411167
2010-04-12,128.570007,128.960007,128.240005,128.360001,3992300,109.305239
2014-06-30,181.330002,181.929993,180.259995,181.270004,4223800,166.957497
2015-09-03,146.050003,148.029999,145.770004,146.779999,3603500,140.078187
2012-12-05,189.009995,189.460007,186.940002,188.649994,4202100,168.536691
2014-04-30,194.380005,196.860001,194.350006,196.470001,4206800,179.909867
2008-11-13,79.620003,84.389999,75.400002,84.209999,15103600,69.992656
2011-01-05,147.339996,147.479996,146.729996,147.050003,4657400,127.04834
2011-01-18,149.820007,151.460007,149.380005,150.649994,9176900,130.158662
2011-07-08,175.490005,176.490005,175.009995,176.490005,4399900,153.772278
2007-10-15,117.949997,118.370003,116.75,118.029999,6267300,96.073845
2016-07-22,160.779999,162.169998,160.479996,162.070007,2520100,159.237639
2016-04-21,146.580002,150.119995,146.460007,149.300003,6017700,145.288693
2016-08-09,162.220001,162.770004,161.649994,161.770004,2737500,160.315616
2013-05-22,208.50,210.149994,206.119995,206.990005,5186800,186.570125
2011-08-04,176.50,177.919998,171.179993,171.479996,11022300,149.407154
2013-03-15,215.380005,215.899994,213.410004,214.919998,7930300,192.814063
2014-11-12,162.279999,163.00,161.759995,161.919998,3378200,151.04404
2012-06-05,187.919998,189.850006,187.559998,189.199997,3556500,167.576048
2008-11-24,75.739998,82.089996,75.00,79.889999,15023200,66.402011
2013-10-09,179.369995,181.669998,179.100006,181.320007,4423500,164.249506
2010-05-14,131.059998,131.669998,129.410004,131.190002,9920100,112.287766
2016-01-28,121.260002,122.830002,121.010002,122.220001,3942500,117.733674
2009-09-02,116.339996,117.239998,116.00,116.089996,5178800,97.976793
2011-11-29,182.020004,183.309998,180.839996,180.940002,3661600,158.972474
2011-09-30,176.009995,178.270004,174.75,174.869995,7807400,153.024264
2010-05-25,121.470001,124.949997,121.470001,124.519997,9494800,106.578794
2011-02-23,161.809998,162.679993,160.139999,160.179993,5998100,138.940334
2010-03-09,126.269997,126.290001,125.199997,125.550003,7528800,106.91238
2007-02-12,98.800003,99.199997,98.220001,98.580002,5331000,79.649219
2009-06-26,106.50,106.50,105.050003,105.68,5127900,88.776967
2007-06-06,105.50,105.510002,102.389999,102.410004,30770700,83.065811
2015-08-26,144.089996,146.979996,142.139999,146.699997,6221800,140.001838
2015-05-26,172.110001,172.119995,169.130005,170.130005,3854200,161.025322
2009-10-06,120.389999,121.589996,120.220001,121.349998,6659100,102.416091
2009-11-10,125.300003,127.050003,125.169998,126.910004,6444500,107.589288
2012-09-05,194.410004,195.850006,193.889999,195.039993,3312500,173.486149
2015-11-25,138.369995,138.429993,137.380005,138.00,3238200,132.934436
2013-03-14,212.149994,215.860001,212.149994,215.800003,5505500,193.603554
2016-11-04,152.399994,153.639999,151.869995,152.429993,2470400,151.059576
2008-09-08,118.00,118.279999,115.139999,117.290001,10452800,96.945736
2015-12-15,137.399994,138.970001,137.279999,137.789993,4238500,132.732138
2012-07-12,184.25,184.389999,181.850006,183.089996,4931300,162.164368
2012-07-19,193.399994,196.850006,192.970001,195.339996,10395400,173.014297
2007-12-24,111.199997,112.00,110.550003,111.650002,2342400,91.203028
2012-06-25,192.479996,193.389999,191.679993,192.860001,3211600,170.817744
2013-04-16,210.839996,212.00,209.199997,212.00,2859500,190.194406
2009-05-20,105.510002,105.980003,103.809998,104.050003,7083100,87.407681
2013-12-31,186.490005,187.789993,186.300003,187.570007,3619700,170.823565
2007-04-18,94.800003,95.910004,94.400002,94.800003,15871700,76.595111
2009-07-15,104.75,107.220001,104.599998,107.220001,8699100,90.070652
2010-04-26,129.759995,131.039993,129.539993,130.729996,5285400,111.323414
2010-11-17,142.490005,142.490005,141.389999,141.949997,4785900,122.642034
2006-12-13,94.779999,95.330002,94.50,94.769997,6441300,76.340805
2008-03-18,116.599998,118.43,113.809998,118.410004,9966500,97.094854
2009-03-06,87.470001,88.25,83.809998,85.809998,15186000,71.710528
2016-01-08,133.179993,133.820007,131.320007,131.630005,4762700,126.798264
2011-07-27,182.009995,182.910004,180.929993,181.350006,5806800,158.006701
2008-06-19,123.669998,125.620003,122.360001,125.019997,7570200,102.934016
2012-01-31,193.089996,193.100006,191.00,192.600006,4826800,169.216862
2012-08-01,196.960007,197.850006,194.720001,195.179993,2559300,172.872581
2010-12-15,145.130005,145.720001,144.309998,144.720001,4447400,125.035264
2015-09-25,145.550003,146.270004,144.529999,145.419998,3474400,138.780283
2010-08-19,128.669998,129.589996,128.020004,128.899994,5402400,110.87438
2008-05-19,127.68,128.210007,126.050003,126.489998,6385200,104.144327
2008-11-25,81.370003,82.400002,78.220001,80.650002,12519700,67.0337
2014-05-23,185.839996,186.139999,185.309998,185.940002,2562900,171.258767
2013-08-28,182.679993,183.470001,181.100006,182.160004,3979200,165.01042
2010-02-17,125.50,126.529999,125.209999,126.330002,5827400,107.57659
2010-11-03,144.240005,144.460007,142.630005,144.169998,5182100,124.008998
2015-02-05,157.289993,158.589996,157.149994,157.910004,5253600,147.303392
2008-05-21,125.050003,126.400002,123.019997,123.620003,8333900,101.781344
2009-09-17,121.139999,122.779999,121.050003,121.879997,8392600,102.863396
2014-02-12,179.520004,181.25,179.259995,180.240005,3983000,165.047871
2007-09-24,116.900002,117.43,115.849998,116.25,5734300,94.624965
2013-03-01,200.649994,202.940002,199.360001,202.910004,3308300,182.039375
2008-08-21,121.580002,123.43,121.550003,122.989998,6315000,101.657054
2012-11-12,190.029999,190.770004,187.410004,189.25,3067400,169.072726
2009-10-20,123.360001,123.50,121.50,122.82,8780700,103.656732
2013-05-29,206.220001,208.419998,206.039993,207.919998,3439400,187.408373
2010-11-19,144.380005,145.350006,143.990005,145.050003,5015900,125.320379
2007-07-11,108.300003,109.599998,108.25,109.099998,5887800,88.492134
2010-05-13,130.929993,133.100006,130.850006,131.479996,10497800,112.535976
2012-04-11,203.990005,204.320007,202.460007,202.580002,3366200,178.678296
2012-10-01,208.009995,211.75,207.940002,210.470001,5456900,187.210988
2013-03-07,208.289993,209.600006,208.240005,209.419998,3884400,187.879774
2013-02-27,198.889999,202.75,198.600006,202.330002,4185100,181.519031
2014-10-06,189.690002,190.889999,188.710007,189.039993,2099500,175.143699
2016-02-04,125.080002,128.50,125.00,127.650002,5266500,122.964355
2012-03-01,197.229996,198.470001,196.929993,197.529999,3560300,174.224126
2016-03-30,149.949997,150.410004,148.320007,148.410004,3331200,144.422605
2014-01-22,181.279999,183.50,179.669998,182.25,13796100,165.978534
2014-05-21,185.850006,187.160004,184.949997,186.389999,2988000,171.673234
2009-08-25,119.25,120.150002,118.709999,118.830002,4652200,100.289283
2016-10-26,150.710007,152.940002,150.259995,151.809998,2811700,150.445155
2013-12-13,173.520004,174.380005,172.729996,172.800003,4184400,157.372242
2011-02-28,162.360001,162.990005,161.240005,161.880005,4773000,140.414927
2007-03-22,95.099998,95.440002,94.650002,95.190002,5700400,76.910217
2009-03-10,85.110001,87.25,83.639999,87.25,15914800,72.913923
2014-03-31,191.639999,193.770004,191.399994,192.490005,8537300,176.265339
2009-06-03,106.529999,106.599998,105.110001,106.489998,7688000,89.45741
2015-07-06,163.830002,165.229996,163.520004,164.729996,3079800,155.9143
2011-03-11,162.399994,163.240005,160.839996,162.429993,4271000,140.891987
2010-03-04,127.07,127.07,125.470001,126.720001,6032300,107.908694
2014-08-27,193.029999,194.130005,191.559998,192.25,2190200,178.117739
2015-08-04,158.399994,158.820007,156.869995,157.600006,5260600,149.165879
2007-08-30,113.620003,116.00,113.620003,115.370003,7756100,93.908667
2013-10-03,184.699997,184.960007,183.00,183.860001,3211800,166.550369
2012-06-29,194.550003,195.809998,192.410004,195.580002,5259600,173.226872
2008-06-04,127.870003,128.50,126.449997,127.550003,6432300,105.017073
2013-08-05,195.160004,195.880005,194.350006,195.50,2490900,176.213626
2016-03-22,148.059998,149.279999,147.839996,148.100006,4081900,144.120937
2016-08-25,159.00,159.539993,158.419998,158.630005,2575000,157.203847
2008-06-13,124.419998,126.57,124.150002,126.150002,6379600,103.864395
2014-02-25,183.520004,184.600006,182.880005,183.229996,3902300,167.78584
2016-02-02,123.669998,124.139999,122.639999,122.940002,3287300,118.427246
2011-12-02,189.919998,191.330002,189.449997,189.660004,4962200,166.633799
2011-06-30,171.110001,172.449997,170.75,171.550003,5105200,149.468151
2015-03-23,162.770004,165.350006,162.729996,164.630005,5930100,154.649298
2014-09-26,188.929993,190.330002,188.610001,190.059998,2493900,176.088723
2015-04-09,161.699997,162.470001,160.720001,162.339996,2263500,152.498122
2008-04-25,124.50,124.50,122.059998,123.080002,6313400,100.924199
2007-02-26,97.860001,97.860001,96.459999,96.910004,5922100,78.299918
2015-09-22,144.619995,145.059998,143.770004,144.429993,3564100,137.83548
2012-06-14,193.00,195.830002,192.740005,195.100006,3585000,172.801736
2010-01-19,131.630005,134.25,131.559998,134.139999,13916200,113.718593
2009-02-13,94.790001,95.18,93.57,93.839996,6742400,78.421115
2016-08-10,162.190002,162.660004,161.960007,162.080002,2466700,160.622827
2010-10-04,135.229996,135.919998,134.389999,135.25,4059900,116.336389
2014-08-01,190.50,191.50,188.860001,189.149994,5181100,174.215308
2007-06-27,104.75,105.470001,104.400002,105.43,5403800,85.515361
2015-04-13,162.369995,164.00,162.360001,162.380005,3868900,152.535705
2011-10-27,184.990005,187.00,183.179993,185.880005,7057800,162.658842
2009-03-26,98.470001,99.199997,97.75,98.779999,11434600,82.549424
2011-04-14,163.839996,165.360001,163.160004,164.970001,4699100,143.095194
2011-02-24,159.630005,161.270004,159.029999,160.770004,5707500,139.452111
2009-07-28,116.629997,117.519997,116.339996,117.279999,5782900,98.521599
2008-05-09,124.370003,124.650002,123.629997,124.059998,5502900,102.14361
2008-06-16,125.459999,127.139999,124.650002,126.709999,6280200,104.325463
2016-10-17,154.449997,155.889999,154.339996,154.770004,5890400,153.37855
2007-02-08,98.900002,99.739998,98.650002,99.620003,6152200,80.489503
2007-11-08,105.650002,110.32,103.989998,106.110001,23092200,86.677593
2012-09-13,204.380005,206.809998,203.460007,206.360001,3879600,183.555183
2011-08-18,166.320007,166.460007,160.160004,163.830002,15082600,143.363448
2008-07-21,129.830002,129.899994,127.639999,128.660004,7779600,105.930981
2007-08-20,110.900002,111.099998,109.129997,109.220001,9839800,88.902699
2010-07-02,123.290001,123.290001,120.610001,121.860001,6454500,104.302058
2016-02-26,134.509995,134.919998,131.949997,132.029999,4386200,128.482689
2007-10-22,110.970001,113.879997,110.959999,113.370003,7576900,92.28071
2012-02-03,192.929993,194.130005,192.539993,193.639999,4521700,170.130592
2008-01-03,104.830002,105.57,103.980003,104.900002,7528900,85.689186
2013-05-13,204.179993,204.470001,202.220001,202.470001,3648400,182.496026
2014-03-04,185.809998,187.160004,185.679993,186.440002,4733000,170.725281
2015-02-26,163.740005,164.139999,159.770004,160.869995,7110800,151.117239
2012-11-06,195.259995,196.75,194.679993,195.070007,3281000,173.512846
2008-09-12,118.660004,119.279999,116.82,118.970001,6635100,98.334336
2008-07-30,128.119995,129.00,127.089996,128.860001,5826100,106.095647
2008-09-29,117.440002,118.43,109.949997,114.459999,9586700,94.606606
2014-04-16,198.050003,198.710007,195.00,196.399994,8527300,179.845761
2007-04-03,95.449997,96.230003,95.330002,96.099998,5730800,77.645462
2008-02-26,109.519997,114.989998,109.050003,114.379997,18651500,93.790295
2011-11-22,182.220001,182.979996,180.289993,181.309998,4178600,159.297548
2011-05-16,169.809998,170.639999,168.309998,168.860001,4662200,147.124404
2011-06-17,164.240005,165.100006,163.580002,164.440002,7149700,143.273347
2007-04-11,96.510002,96.699997,94.949997,95.160004,5936900,76.885979
2011-02-14,164.179993,164.380005,162.850006,163.220001,4129800,141.577242
2014-09-15,191.419998,192.490005,190.580002,191.809998,2456400,177.710081
2015-09-08,145.860001,147.339996,145.660004,147.229996,3933300,140.507638
2016-06-07,153.309998,153.929993,152.660004,153.330002,4465000,150.650376
2010-02-01,123.230003,124.949997,122.779999,124.669998,7242900,105.6903
2010-02-10,122.940002,123.650002,122.209999,122.809998,5219100,104.579122
2012-12-18,193.850006,195.919998,193.839996,195.690002,4125900,174.826115
2007-03-01,90.25,93.050003,88.769997,92.269997,12865700,74.550954
2012-07-23,189.779999,191.300003,188.199997,190.830002,3904500,169.019757
2008-07-31,128.100006,129.50,127.739998,127.980003,5857300,105.371109
2009-03-18,89.459999,92.900002,89.410004,91.949997,17954300,76.841662
2009-03-24,97.690002,99.550003,97.519997,98.300003,9346700,82.148297
2014-02-05,172.190002,174.970001,172.190002,174.240005,4712300,158.68368
2010-07-12,127.370003,128.830002,127.160004,128.669998,4206900,110.130851
2014-06-10,186.199997,186.220001,183.820007,184.289993,4154900,169.739037
2016-02-09,126.120003,126.93,123.769997,124.07,5957200,120.736555
2015-07-01,163.970001,165.610001,163.600006,164.490005,3214500,155.687153
2016-10-31,152.759995,154.330002,152.759995,153.690002,3553200,152.308258
2011-08-16,172.190002,172.190002,169.00,171.240005,5585400,149.847753
2010-10-22,140.149994,140.75,139.460007,139.669998,4105300,120.138287
2009-11-02,120.769997,121.93,119.50,120.559998,7049400,101.749352
2016-09-13,157.630005,157.929993,155.50,155.809998,3636700,154.409193
2011-11-25,178.009995,179.559998,177.059998,177.059998,2232800,155.563532
2014-04-15,195.979996,197.410004,195.419998,197.020004,5351300,180.413511
2015-05-11,172.649994,172.990005,170.860001,171.119995,2661000,161.962332
2009-04-16,99.739998,101.919998,99.18,101.43,9259500,84.764003
2016-03-08,139.710007,140.350006,137.419998,139.070007,5579100,135.333551
2012-10-03,209.940002,211.300003,209.300003,210.509995,3192300,187.246562
2010-12-31,146.729996,147.070007,145.960007,146.759995,2969800,126.797778
2011-12-16,188.009995,188.009995,181.910004,183.570007,11849400,161.283175
2011-06-16,162.059998,163.630005,161.779999,162.669998,4861100,141.731177
2011-11-16,187.820007,189.899994,186.300003,186.619995,4616800,163.962871
2012-05-04,206.470001,207.110001,204.399994,204.990005,4023600,180.803952
2008-01-11,99.199997,99.459999,97.040001,97.669998,8959900,79.783246
2007-04-25,98.739998,101.699997,98.730003,101.459999,14827300,81.976156
2009-02-04,93.739998,94.910004,91.82,92.830002,10189800,77.157327
2009-12-23,129.699997,130.00,129.300003,130.00,4127600,110.208865
2008-07-01,117.50,119.360001,116.599998,119.269997,10069400,98.199809
2012-02-06,192.479996,193.759995,192.00,192.820007,3639800,169.410153
2007-11-29,107.239998,107.870003,106.25,107.50,7813800,87.813035
2012-11-15,185.830002,187.199997,184.779999,185.850006,3411700,166.03523
2007-10-23,113.779999,114.800003,113.50,114.68,5562900,93.34702
2015-05-01,173.199997,174.00,172.419998,173.669998,3312100,163.141241
2014-12-05,163.610001,164.50,162.910004,163.270004,3013500,152.303368
2015-06-08,167.169998,167.279999,165.020004,165.339996,3758700,156.491656
2015-04-29,173.399994,175.130005,172.800003,174.399994,4518400,163.826981
2015-08-12,154.259995,156.520004,153.949997,156.160004,3560300,149.029912
2009-04-23,102.650002,102.779999,99.800003,101.419998,9440400,84.755644
2015-03-02,161.940002,161.940002,159.809998,160.479996,5917900,150.750884
2015-02-12,158.720001,159.50,158.089996,158.520004,3333100,148.909717
2008-10-03,105.160004,110.949997,103.029999,103.440002,9637900,85.498057
2010-09-10,126.989998,128.289993,126.260002,127.989998,4418700,110.091639
2015-03-05,159.860001,161.50,159.699997,161.179993,3791700,151.408443
2008-01-29,105.50,106.800003,104.599998,106.099998,6616200,86.669422
2010-06-23,129.25,131.470001,129.089996,130.110001,6855800,111.363374
2008-10-14,96.419998,99.00,92.00,93.599998,15114200,77.364828
2009-07-16,106.839996,110.970001,106.790001,110.639999,14997900,92.943637
2009-05-01,103.779999,104.860001,102.940002,104.610001,6234200,87.421496
2010-03-23,127.940002,129.429993,127.639999,129.369995,5978500,110.165302
2015-04-30,173.770004,174.279999,170.300003,171.289993,5062900,160.905524
2014-09-02,192.679993,192.970001,190.929993,191.559998,2679700,177.478458
2016-07-14,158.809998,161.399994,158.580002,160.279999,4637600,157.478913
2007-10-01,117.610001,119.50,117.50,119.029999,6777300,96.887824
2007-12-03,105.550003,107.139999,104.580002,105.830002,7918800,86.448871
2007-01-29,97.699997,98.660004,97.449997,98.540001,7294800,79.377686
2011-08-19,162.169998,163.940002,157.130005,157.539993,14068600,137.859222
2011-11-08,187.479996,187.880005,185.509995,187.25,4330600,164.516388
2012-07-20,194.089996,194.899994,192.169998,192.449997,4789700,170.4546
2013-12-24,181.960007,183.50,181.910004,183.220001,1613600,166.861932
2008-02-13,107.129997,108.93,106.800003,108.419998,6608200,88.903163
2011-11-09,184.199997,185.240005,181.160004,182.240005,5494800,160.114646
2011-03-23,158.00,160.080002,157.529999,159.529999,4782500,138.376529
2010-05-10,126.269997,126.669998,125.059998,126.269997,8463900,108.076649
2007-07-27,116.620003,117.949997,115.620003,115.620003,18138700,93.780577
2014-01-15,185.820007,188.649994,185.490005,187.740005,4816500,170.978386
2012-07-11,186.220001,187.360001,183.509995,185.25,5456100,164.077502
2015-08-10,156.770004,157.470001,156.119995,156.75,4613400,149.59297
2009-04-30,104.550003,106.050003,102.849998,103.209999,10654500,86.251529
2007-04-16,94.989998,96.300003,94.720001,96.18,6865100,77.710101
2014-04-17,187.25,190.699997,187.009995,190.009995,11249600,173.994364
2015-12-28,137.740005,138.039993,136.539993,137.610001,3143400,132.558753
2007-04-05,95.980003,96.75,95.75,96.519997,3307100,77.984806
2011-11-02,184.00,185.25,183.029999,183.919998,4136600,160.943691
2010-06-30,124.830002,125.220001,123.00,123.480003,8018000,105.688646
2014-10-17,181.240005,182.839996,180.220001,182.050003,4350200,168.667541
2011-09-27,176.820007,179.619995,176.429993,177.710007,7638800,155.509486
2010-07-13,128.970001,130.979996,128.690002,130.479996,6687700,111.680059
2015-10-06,149.059998,150.149994,148.490005,148.779999,3018100,141.98687
2009-11-12,126.610001,127.650002,126.110001,126.260002,5345400,107.038242
2016-09-06,159.880005,160.860001,159.110001,160.350006,2994100,158.908385
2013-11-18,183.520004,184.990005,183.270004,184.470001,5344900,168.000331
2013-06-18,203.020004,206.089996,202.869995,204.869995,3277800,184.659257
2009-01-30,92.230003,93.480003,91.25,91.650002,9617000,76.176548
2010-11-09,146.699997,147.529999,145.630005,146.139999,5700600,126.262114
2006-12-06,94.480003,94.870003,94.010002,94.120003,5947300,75.817211
2016-07-25,162.00,162.880005,161.75,162.649994,2804600,159.80749
2007-11-14,106.120003,106.419998,102.839996,103.440002,8453600,84.496564
2007-06-14,103.099998,104.239998,102.809998,103.849998,5165600,84.233805
2008-08-18,126.489998,127.00,123.68,124.589996,5970000,102.979528
2013-06-21,198.50,198.520004,193.539993,195.460007,8914800,176.177578
2010-10-11,138.789993,139.940002,138.639999,139.660004,4004300,120.12969
2008-06-02,128.490005,129.369995,126.699997,127.360001,7599300,104.860636
2012-08-02,194.160004,196.600006,193.020004,194.449997,2812600,172.226017
2009-06-29,105.989998,106.18,105.160004,105.830002,4681800,88.902977
2009-12-28,130.990005,132.309998,130.720001,132.309998,5800400,112.167189
2010-12-09,145.940002,145.940002,143.520004,144.300003,4405300,124.672393
2008-08-11,128.429993,128.429993,125.75,126.599998,7490400,104.64089
2012-03-30,208.740005,209.119995,208.009995,208.649994,3215200,184.032111
2016-06-15,151.460007,151.789993,150.600006,150.679993,2260400,148.046679
2015-06-17,167.00,167.850006,166.100006,167.169998,2863000,158.223723
2016-01-06,134.380005,135.580002,133.619995,135.169998,4310900,130.208315
2008-07-10,120.660004,123.540001,120.660004,123.18,10053600,101.419073
2012-01-17,180.360001,182.00,179.320007,180.00,6003400,158.146595
2015-02-18,161.860001,162.470001,160.639999,162.190002,4358400,152.357221
2010-12-28,145.309998,146.149994,145.059998,145.710007,2699600,125.890609
2009-10-30,122.629997,123.25,120.480003,120.610001,7711700,101.791553
2011-12-07,191.990005,194.899994,191.279999,194.050003,5081700,170.490818
2013-04-08,209.070007,209.320007,207.330002,209.320007,2351200,187.790068
2015-06-30,163.990005,164.00,162.119995,162.660004,3597300,153.955086
2016-04-15,151.039993,152.100006,150.960007,151.720001,3657600,147.643672
2010-08-30,125.080002,125.269997,123.400002,123.400002,3604000,106.143516
2016-01-05,136.759995,136.889999,134.850006,135.850006,3924800,130.863362
2008-03-28,115.860001,116.75,114.209999,114.57,6600900,93.946095
2009-04-21,98.410004,102.480003,98.199997,102.309998,15226700,85.499407
2012-03-20,204.740005,205.00,203.699997,204.25,3695100,180.151257
2008-03-04,113.400002,115.720001,112.75,115.709999,8593300,94.880881
2011-08-23,160.649994,164.589996,159.529999,164.320007,6923300,143.792239
2009-06-12,108.400002,109.279999,107.75,108.209999,7250900,90.902304
2007-05-31,107.260002,107.669998,106.00,106.599998,5097700,86.464359
2014-12-12,160.25,160.50,155.330002,155.380005,8611700,144.94333
2014-09-25,192.050003,192.50,188.970001,189.009995,4151400,175.115905
2016-06-23,153.449997,155.479996,152.600006,155.350006,3969400,152.635078
2007-10-10,118.00,118.800003,117.68,118.620003,5913800,96.554096
2016-01-12,133.649994,133.779999,131.130005,132.899994,5078700,128.021636
2011-03-22,158.559998,158.610001,157.520004,158.00,4311400,137.049406
2016-03-29,147.589996,149.759995,147.50,149.330002,3138500,145.317886
2008-04-14,116.199997,117.940002,115.949997,117.279999,7745600,96.168263
2012-04-26,203.399994,206.210007,203.399994,205.580002,3302700,181.324337
2009-09-28,120.519997,122.00,118.940002,119.330002,8248600,100.711269
2015-08-25,146.940002,147.110001,140.619995,140.960007,7073200,134.52393
2013-01-11,194.149994,195.00,192.899994,194.449997,3880400,173.718315
2006-11-29,91.349998,91.660004,91.010002,91.519997,4623000,73.722808
2013-02-01,204.649994,205.350006,203.839996,205.179993,3370700,183.304311
2014-06-27,179.770004,182.460007,179.660004,181.710007,4575500,167.362758
2016-06-24,149.970001,150.610001,146.179993,146.589996,9082800,144.02816
2009-05-19,104.330002,106.120003,104.00,105.510002,7079200,88.63416
2007-02-02,99.099998,99.730003,98.879997,99.169998,6656300,79.885172
2009-11-20,127.169998,127.690002,126.459999,126.959999,5354200,107.631672
2014-07-29,195.300003,195.889999,194.539993,194.570007,3264100,179.207374
2009-03-27,95.989998,96.00,92.75,94.150002,15745200,78.680183
2008-11-17,79.400002,79.739998,77.160004,77.480003,10315300,64.398899
2009-04-22,101.169998,103.860001,101.059998,102.550003,12120000,85.699978
2009-06-11,108.75,110.639999,108.559998,109.400002,9134300,91.901971
2011-06-10,164.570007,164.839996,162.869995,163.179993,4683300,142.175525
2016-06-30,148.860001,151.910004,148.669998,151.779999,3967100,149.127461
2012-08-08,198.270004,199.690002,198.160004,199.029999,2068300,177.035219
2008-04-18,123.919998,125.00,123.150002,124.400002,12490800,102.006584
2012-09-21,207.360001,207.940002,205.919998,205.979996,12771500,183.217173
2015-10-13,150.779999,150.779999,149.179993,149.619995,3915700,142.788513
2014-03-03,183.330002,184.639999,182.820007,184.259995,3950100,168.729022
2014-01-27,179.610001,179.649994,177.660004,177.899994,5208600,162.016901
2015-06-23,168.380005,169.970001,167.570007,168.619995,3701600,159.596122
2015-10-19,149.850006,149.970001,148.380005,149.220001,7954700,142.406782
2007-07-23,114.879997,116.43,114.849998,116.379997,8040900,94.397017
2012-01-04,185.570007,186.330002,184.940002,185.539993,4346700,163.01399
2006-12-19,95.099998,96.389999,94.910004,96.00,4933200,77.331619
2007-04-10,96.400002,96.800003,96.160004,96.459999,3596400,77.93633
2012-09-26,205.050003,205.979996,203.899994,204.00,3423300,181.455986
2015-09-30,143.690002,145.710007,143.660004,144.970001,3946200,138.350832
2013-06-11,203.169998,205.949997,202.509995,203.979996,2814400,183.857057
2014-05-01,196.309998,196.740005,193.149994,193.529999,3674000,177.217673
2009-08-24,119.919998,120.879997,119.099998,119.32,6363400,100.702827
2015-03-04,160.539993,160.559998,158.720001,159.419998,3633600,149.755149
2012-05-22,198.039993,198.259995,196.059998,196.820007,3567100,174.325156
2015-04-17,161.75,161.860001,160.029999,160.669998,4314400,150.929367
2016-11-07,153.990005,156.110001,153.839996,155.720001,3804900,154.320006
2011-05-17,167.850006,171.410004,166.529999,170.50,8773200,148.553303
2008-07-17,126.389999,126.959999,124.00,126.519997,12298200,104.169027
2007-10-11,118.989998,121.459999,117.370003,118.050003,13018800,96.090128
2009-05-22,102.669998,103.309998,101.75,101.889999,5596200,85.59316
2015-07-07,164.940002,165.350006,162.229996,165.00,3549900,156.169855
2012-11-01,194.679993,197.889999,194.550003,197.149994,3758800,175.362973
2007-06-22,105.959999,106.440002,104.440002,104.440002,10808500,84.712364
2009-04-15,98.230003,99.059998,96.440002,98.849998,8164200,82.607922
2014-06-17,181.899994,182.809998,181.559998,182.259995,2460900,167.869321
2009-07-02,103.800003,103.910004,101.730003,101.730003,7026700,85.458754
2013-07-15,192.419998,194.889999,191.679993,194.00,5674700,174.861603
2011-08-17,171.570007,172.990005,169.889999,171.479996,5129700,150.057762
2012-03-12,200.929993,201.570007,200.229996,201.00,3119700,177.284713
2009-09-01,117.669998,118.93,116.50,116.690002,6303800,98.483181
2016-02-23,133.139999,133.410004,132.009995,132.399994,3439700,128.842744
2014-08-19,190.039993,190.25,189.360001,190.070007,2040100,176.097997
2014-04-23,191.789993,192.410004,190.110001,191.729996,4736400,175.569389
2015-08-03,161.699997,161.850006,157.899994,158.710007,4615700,150.216477
2015-05-20,173.330002,174.440002,172.460007,173.759995,2300300,164.461049
2015-12-14,135.309998,136.139999,134.020004,135.929993,5143800,130.940413
2009-06-10,109.199997,109.279999,107.050003,108.349998,7578100,91.019912
2007-03-15,93.400002,93.970001,93.099998,93.449997,5910000,75.504353
2015-04-06,159.690002,162.800003,158.699997,162.039993,3465700,152.216306
2016-09-20,155.869995,156.570007,154.449997,154.449997,2159100,153.061419
2016-11-11,159.970001,161.339996,159.330002,161.270004,4436400,161.270004
2016-01-27,122.730003,123.370003,120.650002,120.959999,5026400,116.519922
2011-02-18,164.460007,164.839996,164.100006,164.839996,4245000,142.982427
2014-03-11,187.410004,188.449997,186.039993,186.759995,4229500,171.018301
2014-05-28,184.479996,184.880005,182.940002,183.080002,3721600,168.624583
2010-07-15,129.869995,130.919998,129.550003,130.720001,6186800,111.885484
2012-06-08,193.710007,195.139999,192.699997,195.139999,2479200,172.837158
2011-04-13,163.970001,164.929993,163.660004,163.949997,4181900,142.210441
2014-08-05,188.75,189.199997,186.440002,187.100006,3307900,172.32718
2009-04-07,100.169998,100.50,98.519997,98.75,8768400,82.524354
2013-04-03,214.320007,214.889999,212.630005,212.660004,3128800,190.786524
2009-10-05,118.900002,120.18,118.129997,119.75,5673300,101.065736
2016-05-26,151.550003,152.509995,151.050003,152.440002,3062900,149.77593
2016-04-29,146.490005,147.339996,144.190002,145.940002,4225800,142.018967
2014-12-19,157.490005,160.410004,157.490005,158.509995,8864900,147.863082
2008-08-08,128.50,129.880005,127.629997,128.809998,8561800,106.467559
2015-06-18,167.050003,168.720001,167.050003,168.25,3330900,159.245928
2007-04-27,100.300003,101.169998,100.059998,101.169998,6141400,81.741846
2013-01-24,203.910004,205.059998,203.080002,204.419998,4447200,182.625344
2016-04-13,150.75,151.229996,149.630005,151.229996,3168400,147.166831
2014-07-01,181.699997,187.270004,181.699997,186.350006,6643100,171.636398
2011-08-26,164.850006,169.330002,163.279999,169.139999,6438200,148.010091
2007-12-11,109.339996,110.400002,106.459999,106.989998,8439700,87.396432
2016-06-09,152.919998,153.759995,152.729996,153.419998,2021800,150.738799
2016-10-04,157.669998,158.529999,155.820007,156.460007,2884100,155.053358
2014-03-06,187.369995,188.389999,186.899994,187.639999,3817300,171.824132
2007-05-11,104.690002,105.989998,104.669998,105.980003,6026100,85.961474
2006-12-27,96.300003,97.230003,96.269997,97.199997,4571600,78.298262
2014-04-21,189.800003,192.809998,189.740005,192.270004,5419700,176.063881
2010-01-06,130.679993,131.490005,129.809998,130.00,5605300,110.208865
2010-02-25,126.050003,127.239998,125.57,127.07,5658700,108.206736
2008-02-01,107.160004,109.400002,105.860001,109.080002,8047100,89.103684
2014-10-29,164.330002,164.619995,162.759995,163.460007,4739300,151.444092
2013-11-22,183.50,184.990005,179.919998,181.300003,7610200,165.113353
2014-05-12,191.119995,193.020004,190.940002,192.570007,3777400,177.365288
2008-10-20,92.209999,93.309998,89.330002,92.510002,9747100,76.463895
2010-05-19,129.369995,130.50,127.82,128.860001,8669300,110.293478
2010-10-19,137.300003,139.339996,136.699997,138.029999,14159100,118.727628
2009-04-02,99.150002,101.989998,98.379997,100.82,16219000,84.254232
2007-08-23,110.400002,111.68,110.010002,111.449997,8271000,90.717867
2013-05-10,203.369995,204.529999,202.820007,204.470001,3279200,184.298723
2012-04-30,206.710007,207.960007,206.320007,207.080002,2773200,182.647357
2012-12-21,193.100006,194.50,191.570007,193.419998,8225300,172.798132
2008-10-31,90.900002,94.190002,89.029999,92.970001,10506300,76.844106
2010-04-22,128.639999,129.360001,127.769997,129.130005,6018500,109.960938
2011-12-22,182.710007,182.800003,181.00,182.039993,5052000,159.938917
2014-01-16,187.529999,188.990005,186.800003,188.759995,4770300,171.907309
2015-01-21,153.029999,154.50,151.070007,152.089996,11897100,141.874307
2012-06-20,198.699997,199.740005,197.50,198.779999,3378200,176.061137
2010-09-07,126.989998,127.360001,125.879997,125.949997,4353300,108.336916
2008-09-19,119.589996,124.00,117.50,118.849998,14432600,98.235148
2010-06-04,126.370003,127.099998,124.669998,125.279999,9669200,107.229293
2009-09-03,116.550003,116.730003,115.150002,116.330002,4936200,98.179351
2009-05-13,102.879997,103.099998,101.349998,102.260002,8202100,85.903982
2010-06-08,124.260002,124.459999,122.82,123.720001,8399200,105.894064
2008-05-30,129.220001,129.990005,128.800003,129.429993,8652900,106.564944
2013-05-23,205.479996,208.610001,205.130005,206.160004,5179100,185.822004
2007-07-25,116.190002,118.379997,115.239998,118.099998,11340000,95.792127
2013-06-20,200.669998,201.699997,197.279999,197.350006,4514800,177.881126
2016-03-21,147.300003,148.710007,146.720001,148.630005,3721600,144.636696
2013-11-20,185.220001,186.240005,184.649994,185.190002,3645800,168.65605
2009-11-23,127.699997,128.940002,127.650002,128.199997,7003500,108.682893
2007-11-12,101.889999,104.190002,100.699997,101.449997,13553600,82.870997
2014-05-27,184.800003,185.649994,183.929993,184.779999,4793800,170.190354
2007-12-27,110.529999,111.300003,109.489998,109.599998,4513600,89.528451
2010-02-26,127.010002,128.00,126.739998,127.160004,4784200,108.283379
2013-08-06,192.259995,192.509995,190.270004,190.990005,5938500,172.14855
2011-01-25,159.210007,164.350006,159.00,161.440002,8260800,139.481019
2012-01-11,180.729996,182.809998,180.50,182.320007,4110800,160.184935
2012-12-24,193.050003,193.830002,192.020004,192.399994,1631200,171.886877
2010-10-08,138.399994,139.089996,138.059998,138.850006,4540800,119.432964
2011-12-20,185.50,187.330002,184.759995,187.240005,4740100,164.507607
2010-01-26,125.919998,127.75,125.410004,125.75,7135300,106.605883
2016-10-07,157.139999,157.699997,154.860001,155.669998,2671900,154.270452
2015-09-01,144.910004,144.979996,141.850006,142.679993,5272000,136.165383
2009-05-11,101.089996,103.879997,100.949997,102.900002,8253000,86.441617
2015-05-04,174.470001,176.300003,173.699997,173.970001,4028000,163.423057
2010-01-25,126.330002,126.889999,125.709999,126.120003,5738500,106.919556
2010-08-05,130.729996,131.979996,130.529999,131.830002,4520600,112.835552
2014-09-19,194.539993,195.00,193.190002,194.00,8852000,179.739096
2007-11-07,113.559998,113.639999,110.900002,111.080002,7087000,90.737415
2013-08-19,185.300003,186.50,183.979996,184.229996,3248900,166.885531
2015-10-26,144.75,145.00,143.210007,143.660004,3489400,137.100648
2015-08-21,151.50,153.190002,148.699997,148.850006,7362100,142.053681
2011-10-06,176.809998,181.990005,175.660004,181.690002,7180900,158.992278
2010-10-12,138.399994,139.990005,138.270004,139.850006,5637300,120.293122
2007-12-19,106.540001,108.379997,105.870003,107.139999,7031100,87.518963
2016-07-18,159.300003,160.75,158.729996,159.860001,6729700,157.066255
2013-09-12,190.960007,191.320007,189.850006,190.729996,3354800,172.773584
2012-01-27,190.009995,191.770004,189.809998,190.460007,3360400,167.336675
2016-11-18,159.800003,160.720001,159.210007,160.389999,2958700,160.389999
2007-02-05,99.169998,100.440002,98.900002,100.379997,8184800,80.859872
2014-02-24,182.820007,185.160004,182.820007,183.449997,4595300,167.987298
2015-05-19,172.970001,173.75,171.929993,173.479996,2523000,164.196035
2016-06-28,144.779999,145.729996,144.220001,145.699997,3997700,143.153715
2013-10-15,185.740005,185.940002,184.220001,184.660004,3365100,167.275056
2007-03-14,92.650002,94.029999,92.099998,93.760002,8713900,75.754826
2009-02-06,92.510002,97.099998,91.650002,96.139999,13055900,80.343204
2010-03-19,127.709999,128.929993,126.779999,127.709999,10744300,108.751729
2016-08-12,163.190002,163.460007,161.520004,161.949997,2543100,160.493991
2012-08-30,194.770004,195.470001,193.179993,193.369995,2740900,172.000702
2010-05-04,128.889999,128.929993,126.57,128.119995,8285000,109.100862
2013-05-09,204.690002,205.00,202.720001,203.240005,3542300,183.190068
2015-01-02,161.309998,163.309998,161.00,162.059998,5525500,151.174636
2011-03-18,156.50,156.949997,154.320007,155.889999,11450000,135.219188
2014-08-21,190.899994,192.070007,190.50,191.229996,2496500,177.172715
2016-08-01,160.649994,161.649994,159.839996,161.449997,2823600,158.628464
2008-03-25,119.099998,119.099998,117.150002,117.970001,8443600,96.734057
2013-07-18,198.270004,200.940002,195.990005,197.990005,8393400,178.457989
2008-03-06,115.059998,115.150002,112.25,112.519997,8018400,92.265115
2015-06-05,168.25,168.910004,167.199997,167.399994,3100500,158.441411
2013-11-05,179.539993,179.800003,177.710007,177.850006,6096800,161.10619
2007-08-08,114.300003,114.599998,112.260002,112.980003,7681400,91.963259
2007-04-04,95.800003,96.449997,95.57,96.209999,4276200,77.734339
2007-12-10,109.379997,110.260002,109.00,109.389999,4442200,89.35691
2012-03-06,199.139999,199.639999,196.809998,197.259995,5214700,173.985978
2011-11-14,189.169998,189.839996,186.850006,187.350006,6038600,164.604253
2015-03-03,160.270004,161.75,160.00,161.029999,3234400,151.267543
2009-03-13,90.400002,90.650002,89.290001,90.360001,9111900,75.512919
2014-03-28,189.940002,192.619995,189.110001,190.449997,5194400,174.397279
2013-09-10,187.199997,187.649994,186.369995,186.600006,3149600,169.032415
2007-12-06,108.00,110.00,107.93,109.699997,5315500,89.610137
2011-07-15,175.080002,175.940002,174.070007,175.539993,5347100,152.944551
2013-10-18,174.800003,175.00,173.25,173.779999,10548000,157.419357
2012-03-15,204.940002,206.179993,204.740005,206.00,3621100,181.694781
2007-07-16,108.57,110.040001,108.419998,109.660004,8864200,88.94636
2008-01-24,106.379997,107.510002,104.68,106.910004,13025700,87.331088
2013-03-25,212.539993,212.809998,210.050003,210.740005,3242500,189.06401
2012-07-06,193.919998,193.940002,189.740005,191.410004,4952900,169.533469
2014-02-20,182.960007,184.860001,182.789993,184.259995,4968200,168.729022
2007-04-13,95.75,95.75,94.589996,94.93,6027800,76.700144
2015-04-08,161.720001,163.550003,161.009995,161.850006,2524300,152.037837
2007-11-23,103.099998,104.139999,102.32,104.050003,2827700,84.994852
2015-05-22,173.039993,173.389999,172.190002,172.220001,2849700,163.00347
2009-05-06,105.230003,105.50,103.709999,104.620003,7530900,87.886512
2011-05-20,170.399994,171.149994,169.380005,170.160004,4869900,148.257071
2010-05-12,127.160004,132.850006,127.010002,132.679993,16626900,113.563074
2010-05-05,127.120003,128.229996,126.870003,127.459999,6072800,108.538841
2010-07-16,129.960007,130.149994,127.849998,128.029999,7002900,109.583065
2016-09-23,155.619995,156.039993,154.710007,154.979996,2702200,153.586653
2015-12-24,138.429993,138.880005,138.110001,138.25,1495200,133.175259
2010-04-20,129.199997,130.330002,128.259995,129.690002,15216500,110.437805
2010-08-10,131.179993,132.490005,130.770004,131.839996,5471700,113.403247
2016-02-05,127.220001,128.639999,125.849998,128.570007,7177700,123.85059
2013-05-14,202.089996,203.669998,202.080002,203.210007,3699700,183.163029
2014-12-24,162.880005,162.990005,161.610001,161.820007,1868100,150.950766
2009-08-31,117.099998,118.059998,116.919998,118.050003,5439400,99.630985
2013-12-10,176.899994,177.669998,176.059998,177.119995,4127800,161.306541
2012-08-06,198.759995,199.940002,198.520004,198.759995,2337800,176.043419
2011-10-13,184.970001,187.50,184.50,186.820007,4399200,163.481414
2007-08-07,113.019997,114.169998,112.25,113.529999,8021400,92.085353
2015-07-08,164.00,164.940002,162.679993,163.160004,2776300,154.428328
2008-10-24,79.269997,84.309998,78.82,82.07,12287300,67.834739
2015-04-21,166.070007,167.380005,164.050003,164.259995,9683600,154.30172
2010-05-06,126.290001,127.93,116.00,123.919998,13168800,106.065245
2011-02-22,163.570007,164.259995,161.779999,161.949997,5209300,140.475638
2014-07-17,192.360001,195.949997,192.00,192.490005,8872300,177.291602
2016-03-10,141.240005,141.470001,138.089996,140.190002,4020600,136.423455
2015-06-24,168.710007,168.839996,166.830002,166.970001,3548100,158.03443
2013-10-17,173.839996,177.00,172.570007,174.830002,22368900,158.370506
2014-12-03,162.470001,164.520004,162.00,164.520004,6429100,153.469407
2007-12-13,108.00,108.639999,106.940002,108.18,6252800,88.368504
2009-01-21,86.290001,91.599998,86.00,91.419998,24905000,75.985377
2015-01-12,159.00,159.25,155.759995,156.440002,4187600,145.932129
2010-09-13,128.630005,130.00,128.520004,129.610001,5271300,111.485098
2013-02-22,199.229996,201.089996,198.839996,201.089996,3107900,180.406568
2007-12-14,107.309998,107.559998,104.099998,105.769997,9711200,86.399855
2012-08-09,198.619995,199.460007,197.889999,198.419998,2160100,176.492629
2014-05-30,183.380005,184.570007,182.490005,184.360001,4620500,169.803517
2007-10-09,117.849998,118.50,116.419998,118.300003,5670600,96.293623
2010-03-10,125.989998,126.360001,125.209999,125.620003,6916200,106.971988
2014-01-03,185.830002,187.350006,185.300003,186.639999,4063200,169.976589
2008-11-21,72.739998,76.980003,69.50,74.879997,19804500,62.237857
2008-01-22,98.550003,103.089996,98.550003,101.220001,15129500,82.683121
2011-07-13,174.899994,176.320007,174.00,174.320007,4074800,151.881601
2014-11-03,164.25,164.539993,163.380005,164.360001,4688200,152.277928
2009-04-08,99.449997,101.550003,99.00,101.190002,7285200,84.563439
2010-01-13,130.389999,131.119995,129.160004,130.229996,6455400,110.403846
2007-06-11,102.870003,104.00,102.50,103.220001,7903100,83.722808
2007-05-16,105.099998,105.889999,104.529999,105.870003,5613500,85.872252
2016-07-01,151.779999,152.970001,151.399994,152.350006,2658300,149.687507
2008-08-05,128.199997,128.899994,127.080002,128.869995,6969900,106.103875
2010-06-16,128.339996,130.679993,128.339996,130.350006,6401000,111.568799
2013-01-17,193.850006,194.460007,193.240005,193.649994,3881600,173.003606
2013-06-10,206.970001,206.979996,204.899994,205.020004,2652300,184.794468
2013-09-19,194.179993,194.889999,193.220001,193.389999,3178100,175.18316
2015-08-19,155.149994,155.669998,153.410004,153.940002,4177100,146.911273
2010-07-07,123.470001,127.120003,123.470001,127.00,7090300,108.701471
2010-05-27,125.050003,126.389999,124.769997,126.389999,7725900,108.179361
2008-04-15,117.099998,117.669998,115.540001,117.169998,8642000,96.078064
2013-01-25,204.449997,205.179993,204.130005,204.970001,3358900,183.116708
2009-06-24,105.389999,106.480003,103.720001,104.150002,6395200,87.491685
2007-06-19,104.93,106.660004,104.900002,106.50,5754000,86.383249
2009-12-16,128.740005,129.600006,128.350006,128.710007,6372500,109.115259
2008-02-06,105.050003,106.489998,103.580002,103.589996,8265700,84.942617
2009-12-08,126.970001,127.349998,126.160004,126.800003,5351400,107.496034
2015-02-27,160.869995,162.289993,160.160004,161.940002,4410000,152.122377
2014-09-18,192.789993,194.130005,192.710007,193.75,2963300,179.507474
2016-03-23,148.00,148.029999,145.130005,145.399994,4764200,141.493467
2016-06-13,151.630005,152.50,150.279999,151.279999,3610400,148.636199
2011-09-14,164.009995,169.660004,161.990005,167.240005,6980700,146.347455
2008-12-26,80.93,81.800003,80.550003,81.330002,3101300,67.598895
2008-07-16,122.809998,126.889999,122.25,125.940002,9898800,103.691494
2012-03-07,198.089996,198.570007,197.309998,197.770004,3346900,174.435814
2009-07-09,101.120003,102.779999,100.849998,102.080002,6153200,85.752772
2012-04-18,202.429993,204.070007,200.00,200.130005,10153500,176.517366
2013-07-30,196.990005,197.830002,195.809998,196.009995,2663200,176.673309
2014-04-28,191.139999,193.990005,190.580002,193.139999,5638300,176.860546
2012-02-27,196.779999,198.710007,196.100006,197.529999,3758400,174.224126
2009-12-04,128.399994,128.899994,126.00,127.25,7068500,107.877523
2015-09-17,148.100006,149.679993,147.300003,148.139999,4003000,141.376092
2010-02-19,127.349998,128.059998,126.870003,127.190002,6303100,108.308925
2007-05-03,101.75,103.00,101.349998,102.800003,7302200,83.058833
2010-06-18,131.020004,131.25,130.130005,130.149994,9581400,111.397605
2008-12-15,82.510002,83.540001,80.00,82.769997,8848200,68.795772
2010-05-28,125.959999,126.279999,124.290001,125.260002,7421900,107.212177
2013-12-17,177.360001,177.490005,175.119995,175.759995,5471900,160.067962
2010-10-20,138.279999,139.869995,138.130005,139.070007,6945500,119.6222
2009-06-15,107.629997,108.830002,107.239998,107.620003,8567600,90.406675
2010-11-23,144.240005,144.529999,142.330002,143.179993,4570300,123.704726
2009-08-07,118.110001,119.910004,118.110001,119.330002,5763200,100.711269
2007-07-18,110.25,111.879997,110.040001,111.080002,10154100,90.098136
2008-05-12,123.82,125.989998,123.559998,125.239998,8666800,103.115152
2013-07-11,193.779999,194.110001,192.610001,192.800003,4177500,173.779988
2015-10-15,150.910004,151.240005,148.580002,150.089996,3476200,143.237054
2015-07-14,169.429993,169.539993,168.240005,168.610001,3025300,159.586663
2012-08-13,198.880005,199.979996,197.789993,199.009995,2418300,177.017425
2013-06-28,191.729996,192.660004,188.410004,191.110001,10055800,172.256707
2013-11-19,184.630005,186.199997,184.149994,185.25,4577000,168.710691
2012-03-14,203.779999,205.149994,203.639999,204.720001,4602300,180.565805
2007-01-22,96.419998,97.230003,96.120003,97.110001,13539300,78.225767
2010-09-22,131.610001,132.580002,131.399994,132.570007,4922400,114.031172
2014-11-28,162.75,163.369995,161.440002,162.169998,2405500,151.277248
2007-04-12,95.029999,95.82,94.529999,95.669998,7085300,77.298037
2015-12-21,135.830002,135.830002,134.020004,135.50,5617500,130.526204
2011-09-08,167.00,169.580002,165.100006,165.25,6027200,144.606052
2011-10-28,185.570007,188.070007,185.279999,187.449997,5009800,164.032702
2014-11-21,161.830002,161.949997,160.75,160.919998,4076900,150.111209
2013-11-21,185.539993,185.75,183.410004,184.130005,4459500,167.69069
2008-05-20,126.050003,126.050003,124.449997,125.18,7017700,103.065754
2008-12-18,85.769997,86.639999,82.959999,84.00,8029500,69.818112
2013-02-12,200.009995,200.740005,199.020004,200.039993,2461800,179.464564
2016-06-27,146.179993,146.600006,142.50,143.50,5017900,140.992165
2010-11-02,143.850006,144.710007,143.710007,143.839996,4626400,123.725144
2012-06-07,195.279999,195.830002,193.940002,194.440002,3701100,172.217165
2014-09-11,191.080002,192.779999,190.119995,191.720001,2298500,177.6267
2011-06-09,165.009995,165.960007,164.759995,164.839996,4299800,143.621853
2011-02-08,164.820007,166.25,164.320007,166.050003,5612600,144.031989
2009-02-20,88.050003,89.900002,87.339996,88.790001,12400700,74.200886
2008-09-17,114.790001,115.50,110.610001,111.470001,12298000,92.135231
2013-11-14,180.479996,183.199997,179.660004,182.210007,6321500,165.942111
2009-06-05,107.330002,108.400002,106.75,107.239998,7665000,90.08745
2011-08-29,170.580002,172.720001,170.360001,172.619995,5293400,151.055347
2015-02-06,157.339996,158.080002,156.229996,156.720001,3256500,147.218839
2011-09-20,173.570007,177.429993,172.699997,174.720001,6209600,152.893008
2014-03-24,187.429993,189.440002,187.369995,188.25,5738500,172.382716
2015-03-06,160.190002,161.440002,158.059998,158.50,4540200,148.890925
2009-04-13,100.279999,101.650002,99.040001,99.949997,7797200,83.527179
2008-08-15,127.07,127.190002,125.349998,126.360001,5566200,104.44252
2010-09-23,131.419998,132.779999,131.220001,131.669998,3898800,113.257021
2007-05-02,102.800003,103.139999,102.129997,102.220001,6820300,82.590212
2014-09-12,191.470001,191.600006,190.570007,191.279999,2901000,177.219042
2007-03-08,94.50,94.82,92.519997,93.00,7403900,75.140771
2007-05-21,107.669998,108.00,106.870003,107.040001,7512200,86.821249
2011-08-03,177.669998,179.229996,175.410004,178.830002,6722000,155.811071
2012-09-04,196.610001,197.169998,193.25,194.539993,4514400,173.041403
2011-01-21,156.399994,156.779999,154.960007,155.50,7009000,134.348973
2008-11-28,81.00,81.900002,80.099998,81.599998,3908300,67.823307
2014-07-22,191.589996,194.720001,191.559998,194.089996,4853000,178.765263
2012-02-23,193.869995,199.229996,193.279999,197.610001,8032700,174.294688
2011-08-30,172.059998,173.509995,170.880005,172.509995,4477700,150.959088
2016-05-05,145.949997,147.300003,145.449997,146.470001,6501200,142.534726
2011-11-11,185.270004,187.830002,185.139999,187.380005,3665300,164.630609
2016-03-03,137.220001,137.960007,136.070007,137.800003,5156400,134.097668
2010-03-08,127.059998,127.50,126.360001,126.410004,6199300,107.644715
2016-07-15,159.899994,159.979996,158.50,159.779999,4476800,156.987651
2014-01-31,176.110001,177.839996,175.339996,176.679993,5193400,160.905822
2014-07-24,193.949997,195.619995,193.75,195.240005,3612700,179.824471
2007-04-02,94.510002,95.50,94.059998,95.209999,5883700,76.926373
2011-04-21,165.630005,168.449997,164.860001,168.279999,6158400,145.96629
2010-11-16,142.929993,143.380005,141.179993,142.240005,6342100,122.892596
2007-10-16,118.019997,119.940002,117.50,119.599998,11527300,97.351791
2010-08-26,125.779999,125.779999,122.779999,122.779999,7746600,105.610216
2014-06-18,182.039993,183.610001,181.789993,183.600006,3931800,169.103529
2013-02-26,198.630005,199.899994,197.839996,199.139999,3391600,178.657141
2010-03-11,125.709999,127.809998,125.709999,127.599998,7922200,108.658058
2015-07-10,165.660004,167.399994,165.520004,166.949997,4538300,158.015496
2015-09-14,147.369995,147.369995,145.410004,145.649994,3226700,138.999777
2009-03-25,98.470001,99.860001,96.089996,97.949997,12017000,81.8558
2007-01-09,99.080002,100.330002,99.07,100.07,11108200,80.610157
2007-05-17,105.610001,106.230003,104.730003,105.309998,7706400,85.418026
2010-01-05,131.679993,131.850006,130.100006,130.850006,6841400,110.929466
2009-01-29,93.580002,94.580002,92.019997,92.510002,9233500,76.891353
2010-11-04,144.820007,146.839996,144.710007,146.789993,6622500,126.262608
2006-12-20,96.099998,96.50,95.699997,96.00,3654600,77.331619
2010-07-30,127.43,128.979996,127.040001,128.399994,6021000,109.89975
2008-11-20,75.00,78.389999,70.510002,71.739998,17634700,59.62799
2015-10-02,141.050003,144.589996,140.559998,144.580002,3054400,137.97864
2012-01-30,189.389999,192.729996,188.220001,192.50,4359000,169.128997
2012-07-31,196.50,197.580002,195.880005,195.979996,3507000,173.58115
2013-03-22,212.210007,213.169998,211.619995,212.080002,3031500,190.266179
2012-04-02,208.960007,209.690002,208.089996,209.470001,3387900,184.755369
2011-08-22,161.350006,161.679993,157.619995,158.979996,7249100,139.119332
2009-04-27,99.610001,101.690002,99.290001,99.949997,8611400,83.527179
2009-09-08,117.940002,118.169998,116.629997,117.160004,5797500,98.87985
2009-11-25,127.879997,128.220001,127.080002,127.279999,3967700,107.902955
2016-09-27,154.320007,156.770004,153.809998,156.770004,2987200,155.360569
2014-09-24,191.00,192.449997,189.880005,192.309998,3082600,178.173326
2012-10-16,209.940002,211.00,209.470001,211.00,5632100,187.682417
2011-07-28,181.059998,183.270004,180.880005,181.800003,4478800,158.398774
2015-01-07,157.199997,157.199997,154.029999,155.050003,4701800,144.635494
2015-07-09,165.339996,165.509995,163.699997,163.850006,4138500,155.081404
2013-01-02,194.089996,196.350006,193.800003,196.350006,4234100,175.415751
2009-03-12,88.589996,90.599998,87.489998,90.400002,11829200,75.546347
2010-07-19,128.669998,130.380005,128.369995,129.789993,8388600,111.089474
2014-07-23,194.110001,194.899994,193.570007,193.630005,3584200,178.341591
2010-01-27,125.82,126.959999,125.040001,126.330002,8719200,107.097585
2009-03-19,92.839996,93.349998,91.510002,92.660004,9899300,77.435007
2011-07-06,175.190002,177.770004,175.089996,177.710007,5885900,154.835241
2016-05-06,144.860001,147.970001,144.470001,147.289993,4880300,144.715924
2009-11-16,127.169998,128.240005,127.029999,128.210007,7822500,108.691379
2009-06-17,107.459999,107.879997,106.879997,107.00,7366200,89.885839
2007-12-17,105.370003,105.989998,104.00,104.529999,7131100,85.386944
2014-03-07,188.350006,188.919998,187.179993,187.679993,4117800,171.860754
2010-03-05,127.169998,127.550003,127.040001,127.25,6140200,108.360016
2010-12-10,144.880005,144.949997,143.729996,144.820007,3503800,125.121667
2015-11-24,137.649994,139.339996,137.309998,138.600006,3407700,133.512418
2016-04-07,149.070007,149.600006,148.00,148.25,3663000,144.266901
2015-11-02,140.50,140.520004,139.570007,140.369995,3822200,133.960857
2007-05-23,106.800003,107.00,105.25,105.580002,4396900,85.637029
2015-03-20,160.949997,163.00,160.350006,162.880005,9006400,153.005392
2011-07-26,182.940002,184.050003,182.649994,182.929993,4356200,159.383312
2015-09-23,144.210007,144.570007,142.75,143.660004,2674200,137.100648
2007-10-30,114.50,114.900002,113.75,114.120003,4015500,92.891194
2009-07-13,101.279999,103.650002,100.190002,103.620003,9494300,87.046457
2014-03-12,186.009995,187.449997,185.889999,186.220001,4833000,170.523823
2010-12-23,145.889999,146.330002,145.330002,145.889999,2424500,126.046119
2013-03-18,212.899994,214.50,212.639999,213.210007,3006000,191.279955
2011-09-19,169.50,173.869995,169.429993,173.130005,4755600,151.501643
2014-11-25,162.649994,163.50,161.559998,161.759995,4062400,150.894784
2016-03-18,147.399994,147.509995,145.509995,147.089996,12089700,143.138063
2011-02-17,163.300003,164.669998,162.850006,164.240005,3230500,142.461995
2014-09-08,190.75,191.199997,189.509995,190.139999,2524200,176.162844
2011-01-31,159.179993,162.00,158.679993,162.00,7197200,139.964846
2013-06-25,195.309998,195.589996,193.149994,194.979996,3846200,175.744921
2015-10-08,149.690002,153.020004,149.289993,152.279999,4794400,145.327064
2010-08-13,127.959999,128.460007,127.330002,127.870003,4669400,109.988424
2015-08-06,157.130005,157.539993,156.179993,156.320007,3004800,149.18261
2013-05-07,202.809998,203.729996,201.649994,203.630005,3451000,182.68532
2014-07-02,186.339996,188.990005,186.169998,188.389999,5093000,173.51532
2007-08-14,112.830002,113.150002,111.739998,112.050003,5615600,91.206259
2007-11-19,104.339996,105.389999,101.339996,102.220001,9502200,83.499987
2014-10-31,165.479996,165.589996,163.619995,164.399994,5818000,152.314981
2016-11-09,152.960007,155.559998,151.00,154.809998,5386600,154.809998
2011-07-12,174.929993,175.369995,173.889999,174.050003,5036800,151.646351
2008-11-26,79.519997,81.790001,78.610001,81.669998,8240600,67.881489
2009-02-11,93.480003,95.769997,93.00,95.160004,10765700,79.524231
2010-01-20,130.460007,131.149994,128.949997,130.25,15197500,110.420805
2009-10-21,122.18,124.110001,120.860001,120.870003,7171000,102.010988
2007-04-26,101.00,101.50,100.209999,100.900002,8608500,81.523698
2007-07-12,109.349998,109.650002,108.220001,109.279999,9544100,88.638135
2014-07-16,192.240005,193.360001,190.759995,192.360001,7812600,177.171862
2015-03-26,159.270004,161.25,158.910004,160.589996,4396000,150.854216
2013-10-11,185.25,186.229996,184.119995,186.160004,3232600,168.633837
2008-06-03,127.470001,129.00,127.459999,127.839996,7238200,105.255836
2009-05-07,104.650002,104.800003,101.830002,102.589996,8521400,86.181195
2011-03-15,157.350006,159.639999,156.880005,159.020004,6475800,137.934159
2011-03-28,161.539993,162.580002,161.119995,161.369995,3972800,139.972544
2016-04-04,152.339996,153.520004,151.910004,152.070007,3931200,147.984274
2009-05-26,101.32,105.629997,101.019997,105.019997,7211200,88.222528
2016-02-18,130.00,134.00,129.75,132.449997,9951600,128.891403
2013-07-22,193.399994,195.789993,193.279999,194.089996,3398000,174.942722
2012-03-05,198.360001,201.190002,198.300003,200.660004,6938000,176.984832
2015-01-05,161.270004,161.270004,159.190002,159.509995,4880400,148.795914
2013-08-01,196.649994,197.169998,195.410004,195.809998,2877700,176.493042
2013-05-30,206.970001,210.990005,206.970001,209.360001,4399700,188.706317
2011-04-19,165.710007,166.380005,164.440002,165.399994,6547100,143.46817
2011-04-11,163.440002,164.00,163.110001,163.949997,4139000,142.210441
2010-06-21,131.419998,131.940002,130.220001,130.649994,6857800,111.825563
2012-09-20,205.850006,206.990005,205.300003,206.179993,3739100,183.395068
2007-09-19,116.900002,117.190002,115.779999,116.669998,10311200,94.966835
2011-12-05,191.179993,193.610001,190.380005,190.839996,5699400,167.670531
2011-11-04,186.270004,187.139999,184.740005,186.380005,3237600,163.09638
2012-06-19,198.830002,199.990005,198.800003,198.929993,3297600,176.193988
2008-07-22,127.50,130.00,127.260002,130.00,11428600,107.034254
2015-02-23,164.229996,164.399994,162.50,162.910004,2714400,153.033572
2014-03-18,185.990005,187.899994,185.539993,186.809998,3961300,171.064089
2016-08-26,158.880005,160.440002,157.850006,158.320007,2498900,156.896637
2016-09-28,156.990005,158.630005,156.229996,158.289993,3310000,156.866892
2006-12-12,93.599998,94.849998,93.300003,94.120003,7783800,75.817211
2015-12-11,135.229996,135.440002,133.910004,134.570007,5333800,129.630348
2009-01-02,83.889999,87.589996,83.889999,87.370003,7558200,72.61915
2008-01-30,105.849998,107.650002,104.860001,105.650002,7431100,86.301835
2013-11-11,180.190002,183.389999,180.039993,182.880005,5222300,166.552291
2011-05-26,167.460007,167.50,165.899994,167.179993,5771300,145.660646
2006-12-01,91.900002,91.910004,90.550003,91.25,5445400,73.505315
2013-12-04,175.369995,177.50,175.160004,175.740005,5267400,160.049758
2009-02-26,86.849998,90.199997,86.330002,88.970001,17423200,74.35131
2010-07-20,122.970001,126.559998,122.93,126.550003,16337400,108.316311
2014-02-19,182.740005,185.649994,182.410004,182.949997,4671500,167.529442
2010-12-20,145.389999,145.539993,144.389999,144.509995,3995000,124.853822
2010-06-14,128.50,129.970001,128.490005,128.50,6753000,109.985347
2013-09-11,186.830002,190.869995,186.820007,190.699997,4962900,172.746409
2012-03-02,197.100006,198.889999,197.059998,198.809998,3727400,175.353102
2008-11-05,92.93,93.400002,89.699997,89.940002,8706200,74.339668
2010-03-26,128.929993,129.779999,128.720001,129.259995,5550800,110.071631
2014-04-03,193.199997,193.380005,192.350006,192.690002,4091100,176.448478
2007-12-05,107.830002,108.519997,106.980003,108.160004,6090400,88.352169
2012-06-21,199.070007,199.449997,193.190002,193.389999,4316600,171.287168
2012-08-14,198.880005,199.330002,197.720001,198.289993,2562300,176.376991
2015-09-04,144.570007,145.399994,143.320007,143.699997,4201100,137.138815
2007-10-17,118.010002,118.010002,114.150002,115.779999,18100500,94.242394
2015-11-10,135.360001,135.740005,134.119995,135.470001,4520800,130.497306
2012-04-20,199.830002,200.119995,199.089996,199.600006,4758200,176.0499
2016-08-11,162.25,164.949997,162.179993,163.529999,8768600,162.059788
2008-05-27,124.010002,127.379997,124.00,127.32,6989200,104.827702
2009-01-28,92.699997,94.940002,91.910004,94.82,13407200,78.811349
2010-03-12,127.910004,128.369995,127.510002,127.940002,5169500,108.947589
2011-06-21,165.199997,166.75,164.00,166.220001,5387300,144.824225
2007-06-01,106.620003,107.239998,106.019997,106.540001,5289200,86.415694
2016-01-07,133.699997,135.020004,132.429993,132.860001,7025800,127.983111
2014-12-08,163.289993,163.289993,161.539993,161.860001,2851000,150.988073
2012-03-28,207.440002,208.690002,206.270004,207.289993,3265700,182.832572
2011-10-04,171.539993,175.070007,168.880005,174.740005,9200000,152.910514
2008-04-23,123.690002,124.779999,122.639999,123.599998,7593300,101.350591
2014-03-10,187.550003,188.369995,185.850006,186.389999,4591200,170.679492
2014-03-27,191.910004,192.669998,189.320007,189.830002,6767700,173.829543
2010-08-20,128.720001,128.979996,126.959999,127.50,6246300,109.670164
2012-04-03,209.309998,210.690002,208.539993,209.50,4091500,184.781828
2008-04-10,116.93,119.220001,116.879997,118.779999,9149300,97.398246
2008-07-14,123.510002,124.25,121.239998,121.540001,8317400,100.068795
2011-03-16,156.520004,156.979996,151.710007,153.00,12195300,132.712399
2009-07-21,115.870003,117.040001,115.379997,117.040001,8301700,98.319988
2007-12-07,109.68,110.00,107.949997,108.860001,5985500,88.923973
2016-09-08,160.550003,161.210007,158.759995,159.00,3963200,157.570516
2013-12-05,176.149994,176.860001,175.279999,176.080002,4384900,160.359399
2007-06-13,102.849998,103.260002,102.099998,103.120003,6437600,83.641698
2014-01-28,178.050003,178.449997,176.160004,176.850006,5333300,161.060657
2007-08-21,108.900002,110.110001,108.080002,109.040001,8458500,88.756183
2011-02-01,162.110001,163.940002,162.00,163.559998,5831300,141.312654
2009-01-20,84.760002,84.919998,81.760002,81.980003,13800100,68.139155
2007-10-04,116.199997,116.75,115.00,115.690002,6177500,94.169139
2009-02-03,91.07,93.730003,90.160004,93.480003,8864500,77.697587
2013-03-19,214.130005,215.119995,211.830002,213.440002,3198600,191.486295
2010-03-15,127.400002,128.339996,127.279999,127.830002,4497700,108.853918
2011-02-04,163.479996,164.139999,163.220001,164.00,3755200,141.692807
2011-07-01,171.610001,174.649994,171.490005,174.539993,5181700,152.07327
2007-02-14,98.50,99.43,98.25,99.199997,5644800,80.150153
2010-10-07,137.919998,138.880005,137.520004,138.720001,6440800,119.321139
2015-04-27,170.889999,171.490005,170.300003,170.729996,3168600,160.379477
2007-04-23,95.160004,95.730003,95.050003,95.209999,7247400,76.926373
2011-04-12,163.360001,163.770004,162.300003,163.25,3860600,141.603263
2010-04-16,130.679993,132.169998,130.25,130.630005,9546200,111.238267
2007-07-09,108.730003,109.349998,108.199997,108.970001,6046300,88.386692
2016-10-13,153.699997,154.220001,152.270004,153.720001,2909900,152.337987
2013-10-21,174.419998,174.75,172.630005,172.860001,7098700,156.585972
2008-08-01,128.520004,129.300003,126.279999,126.639999,4939700,104.26783
2013-02-25,201.669998,202.490005,197.509995,197.509995,3844800,177.194793
2016-06-20,152.600006,154.669998,152.520004,153.610001,3572100,150.925481
2013-02-20,200.619995,201.720001,198.860001,199.309998,3715400,178.809654
2010-06-24,129.570007,129.729996,127.699997,128.190002,5565500,109.720015
2012-07-03,195.460007,196.339996,194.910004,195.929993,1450400,173.536862
2011-03-29,161.339996,163.089996,161.149994,162.880005,3456700,141.282328
2015-12-17,139.350006,139.50,136.309998,136.75,4089500,131.73032
2016-06-14,151.279999,151.789993,150.399994,151.059998,2865800,148.420043
2009-02-24,84.629997,87.080002,84.099998,86.400002,12915300,72.203588
2007-01-16,99.400002,100.839996,99.300003,100.82,9602200,81.214311
2010-12-06,144.539993,145.869995,144.520004,144.990005,3321800,125.268542
2013-03-28,209.830002,213.440002,209.740005,213.300003,3749900,191.360695
2008-01-10,97.389999,100.860001,97.150002,99.919998,10634700,81.621194
2016-06-29,146.50,148.479996,146.449997,148.460007,3367700,145.86549
2016-01-14,131.929993,133.789993,131.220001,132.910004,5709600,128.031278
2013-04-01,212.800003,213.50,211.25,212.380005,2144500,190.535325
2010-10-21,139.809998,140.490005,138.399994,139.830002,6221200,120.275915
2007-10-25,113.32,114.400002,111.690002,112.809998,6519900,91.824878
2010-12-03,144.25,145.679993,144.25,145.380005,3710600,125.605494
2014-04-08,193.889999,194.169998,192.690002,193.289993,5125000,176.997897
2009-11-03,119.529999,121.190002,119.529999,121.160004,5706800,102.255741
2009-07-24,116.68,118.150002,116.629997,117.639999,6261000,98.824019
2015-01-22,151.940002,155.720001,151.759995,155.389999,6120100,144.952653
2011-10-11,184.589996,186.00,184.110001,185.00,5330500,161.888773
2011-07-25,183.889999,184.960007,183.279999,183.699997,4987000,160.054202
2007-05-22,106.949997,107.25,106.010002,106.699997,5313300,86.545468
2009-05-05,106.00,106.82,105.510002,105.849998,6750000,88.45775
2014-05-05,191.050003,191.490005,189.800003,191.259995,2222100,175.139003
2014-08-13,188.00,188.479996,187.369995,187.949997,1795000,174.133828
2008-11-03,92.639999,94.669998,92.169998,92.68,7686300,76.604406
2008-08-29,123.709999,123.989998,121.629997,121.730003,7156000,100.615609
2011-08-10,168.179993,169.229996,161.850006,162.539993,13993600,142.234595
2010-09-08,126.019997,126.519997,125.389999,126.080002,4477500,108.448741
2008-09-04,117.989998,118.900002,114.900002,115.00,10133800,95.052942
2008-03-13,115.690002,116.779999,113.639999,115.910004,9548900,95.044883
2007-03-12,93.290001,94.169998,92.970001,94.110001,5531300,76.037613
2008-08-26,122.580002,122.849998,121.50,122.50,6218200,101.252047
2011-09-06,163.059998,165.550003,162.199997,165.110001,5761200,144.483542
2015-10-20,142.490005,142.880005,140.270004,140.639999,15928800,134.218534
2008-11-11,83.25,84.290001,80.25,82.739998,10013600,68.770838
2008-02-22,107.139999,108.480003,105.709999,108.07,7917200,88.616169
2009-06-01,106.940002,108.669998,106.669998,108.370003,7725000,91.036716
2010-11-24,143.949997,146.440002,143.820007,145.809998,4874100,125.976999
2011-08-08,168.830002,172.610001,166.00,166.220001,15804900,145.454876
2013-08-30,182.75,182.990005,181.509995,182.270004,2731000,165.110064
2014-01-30,177.169998,177.860001,176.360001,177.360001,4853700,161.525118
2010-08-02,129.25,131.199997,129.25,130.759995,6437500,111.919715
2009-01-09,87.050003,87.50,84.25,84.699997,7440300,70.399927
2011-09-15,168.639999,170.160004,167.229996,170.089996,5464400,148.841409
2016-04-05,151.429993,151.600006,149.649994,150.00,3337000,145.969883
2016-01-29,123.279999,124.790001,122.959999,124.790001,8248100,120.209336
2009-02-05,92.129997,93.199997,91.220001,92.410004,11622900,76.808238
2009-12-03,127.599998,128.470001,127.25,127.550003,5760000,108.131854
2009-05-14,101.720001,102.709999,100.769997,101.050003,9445100,84.887517
2007-04-20,95.019997,95.150002,93.910004,94.580002,9340300,76.417358
2012-05-15,199.440002,201.470001,198.759995,199.039993,2987400,176.291416
2009-12-22,129.300003,129.979996,129.190002,129.929993,5535500,110.149515
2009-12-15,129.460007,129.860001,127.940002,128.490005,7862600,108.928751
2008-02-28,115.599998,115.900002,114.559998,115.239998,7227200,94.495485
2009-10-13,126.220001,127.389999,126.199997,127.019997,7581300,107.201415
2012-01-25,191.330002,192.240005,189.610001,191.729996,4359700,168.452477
2016-06-22,153.75,154.710007,152.270004,152.919998,2833700,150.247538
2011-06-07,165.110001,165.240005,163.610001,163.690002,4187000,142.619886
2016-06-10,152.789993,153.330002,151.860001,152.369995,3120600,149.707146
2012-03-29,206.089996,208.50,206.020004,208.270004,3403700,183.696955
2015-01-26,158.259995,159.460007,155.770004,156.360001,7888100,145.857501
2013-02-14,199.729996,200.320007,199.259995,199.649994,3294200,179.114679
2007-10-03,117.650002,117.839996,116.279999,116.400002,7914100,94.747063
2011-12-12,193.639999,193.899994,191.220001,192.179993,3796100,168.847841
2016-04-12,149.610001,150.110001,148.580002,149.630005,3595800,145.609828
2010-11-11,144.699997,145.50,143.350006,145.429993,4752200,125.648682
2016-11-17,159.220001,159.929993,158.850006,159.800003,2256400,159.800003
2012-01-20,185.770004,188.970001,184.75,188.520004,12849700,165.632204
2009-03-05,88.129997,90.160004,87.019997,87.480003,14930100,73.106135
2008-02-11,103.050003,105.550003,102.870003,105.139999,6098300,86.213602
2010-11-01,143.639999,144.259995,142.320007,143.320007,5674600,123.277872
2008-11-10,87.989998,88.099998,82.739998,83.870003,9685100,69.710062
2012-01-03,186.729996,188.710007,186.00,186.300003,5646000,163.681728
2013-09-20,193.960007,194.429993,190.020004,190.020004,8525900,172.130435
2013-09-30,185.559998,186.740005,184.339996,185.179993,3978200,167.74609
2010-02-23,126.480003,127.660004,126.00,126.459999,4591900,107.687289
2010-08-06,130.410004,130.479996,128.759995,130.139999,6136200,111.940981
2014-02-06,173.970001,174.850006,173.789993,174.669998,4292200,159.947351
2016-08-31,159.660004,159.660004,158.259995,158.880005,2323600,157.4516
2010-03-24,128.630005,129.949997,128.470001,128.529999,6669300,109.450002
2014-12-29,162.00,162.339996,159.449997,160.509995,3331800,149.728745
2011-08-24,164.130005,166.830002,163.350006,166.759995,6427000,145.92741
2015-04-15,162.630005,164.960007,162.50,164.130005,3498800,154.179611
2008-04-16,118.150002,120.470001,117.169998,120.470001,19317700,98.784029
2014-10-20,166.850006,170.330002,166.690002,169.100006,23416500,156.669496
2007-04-19,94.50,94.870003,94.00,94.290001,9445600,76.183047
2008-06-26,123.43,123.82,120.760002,121.129997,9710600,99.731222
2008-07-29,126.540001,128.169998,126.25,127.660004,5979400,105.107641
2016-09-07,160.190002,161.759995,160.00,161.639999,2867300,160.18678
2016-10-20,151.279999,152.899994,151.020004,151.520004,4023100,150.157769
2015-11-17,134.220001,134.820007,133.309998,133.820007,2815100,128.907878
2007-03-19,93.949997,94.32,93.389999,93.989998,4568100,75.940655
2016-07-28,161.380005,161.809998,160.710007,161.369995,2340400,158.549861
2007-05-10,103.82,105.110001,103.709999,104.68,8959800,84.907028
2012-04-09,204.399994,206.169998,203.369995,204.940002,3326900,180.759849
2007-02-16,99.120003,99.25,98.629997,98.989998,4800700,79.980481
2009-06-08,106.639999,107.980003,105.50,107.489998,6363800,90.297464
2011-02-10,163.899994,165.00,163.179993,164.089996,5737800,142.331876
2013-05-08,202.940002,204.850006,202.509995,204.820007,3601700,184.614201
2010-07-06,123.580002,124.629997,122.169998,123.459999,6348700,105.671524
2013-01-03,195.669998,196.289993,194.440002,195.270004,3644700,174.450896
2010-04-21,129.869995,130.270004,128.50,128.990005,7559200,109.841721
2016-07-05,151.190002,152.00,150.759995,151.679993,2465200,149.029203
2011-12-08,192.479996,193.800003,191.070007,191.580002,4369000,168.320694
2013-12-27,185.839996,186.50,184.559998,185.080002,3381600,168.55587
2015-03-17,156.199997,157.289993,155.369995,156.960007,3311700,147.444294
2009-02-09,95.93,96.980003,94.720001,96.82,8165800,80.911473
2015-08-28,147.75,148.199997,147.179993,147.979996,4076300,141.223394
2011-06-13,164.440002,164.460007,162.729996,163.169998,5099200,142.166817
2010-07-29,129.059998,129.50,127.139999,128.020004,8994200,109.57451
2007-04-09,96.43,96.940002,96.120003,96.620003,4850600,78.065607
2014-10-09,189.119995,189.50,186.089996,186.419998,2625400,172.716299
2007-03-28,93.900002,95.019997,93.800003,94.260002,8128000,76.158809
2011-09-07,167.279999,167.899994,166.160004,167.309998,6796600,146.408703
2008-10-16,89.379997,92.00,84.349998,91.519997,16271300,75.645608
2008-12-03,78.620003,81.00,76.989998,80.669998,9757800,67.050321
2010-05-11,125.209999,128.419998,125.150002,126.889999,6498900,108.60732
2010-06-17,130.070007,131.029999,129.860001,130.979996,5571000,112.108018
2009-10-26,120.610001,122.440002,119.550003,120.110001,6538500,101.369567
2013-03-12,209.399994,210.729996,209.089996,210.550003,3591600,188.893551
2012-02-14,191.759995,192.600006,190.830002,192.220001,3398100,169.540636
2014-11-24,161.539993,163.860001,161.059998,162.149994,6619000,151.258588
2008-01-09,97.760002,99.150002,97.160004,98.309998,10922100,80.30604
2009-10-27,120.18,122.139999,119.150002,120.650002,9445400,101.825313
2011-03-02,159.429993,161.110001,159.410004,160.160004,3413000,138.922996
2007-02-22,98.800003,99.50,97.769997,98.50,5900100,79.58458
2015-04-22,164.389999,166.00,162.889999,165.360001,4024800,155.335038
2008-02-21,108.099998,109.599998,106.43,106.93,8328000,87.681382
2012-08-28,195.559998,196.110001,194.50,194.869995,2539200,173.334937
2007-02-06,100.00,100.400002,99.540001,99.849998,6532800,80.432938
2009-04-17,101.18,102.040001,99.690002,101.269997,10214200,84.630289
2007-10-24,114.199997,114.449997,111.68,112.949997,8072600,91.938835
2012-08-17,201.080002,202.00,200.660004,201.220001,2551800,178.983205
2008-06-06,127.769997,128.139999,124.739998,124.940002,7886200,102.868154
2015-02-03,154.75,158.600006,154.75,158.470001,5539400,147.825775
2015-02-13,158.779999,160.800003,158.639999,160.399994,3706900,150.675732
2010-03-22,127.110001,128.389999,126.57,127.980003,5651900,108.981652
2008-12-08,82.57,85.879997,81.730003,84.860001,11177600,70.532917
2014-05-06,190.929993,190.949997,189.25,190.029999,3188700,174.012682
2015-12-16,139.119995,139.649994,137.789993,139.289993,4345500,134.177078
2013-07-03,190.979996,194.220001,190.509995,193.25,1872600,174.185592
2015-09-29,141.990005,142.660004,141.149994,142.470001,4763500,135.96498
2016-05-02,146.559998,147.00,144.429993,145.270004,3502400,141.36697
2013-01-10,192.649994,192.960007,191.279999,192.880005,3608100,172.315711
2015-02-24,162.490005,164.990005,161.509995,164.830002,4701600,154.83717
2013-05-28,207.440002,208.589996,207.160004,207.779999,4011500,187.282184
2008-11-07,85.779999,86.709999,84.25,86.269997,7927800,71.70486
2015-06-22,167.649994,168.339996,167.199997,167.729996,2335800,158.753752
2008-02-07,102.889999,104.00,100.599998,102.339996,11255800,83.917631
2010-09-17,129.919998,130.600006,129.699997,130.190002,10397400,111.983991
2015-03-25,163.080002,163.080002,159.199997,159.199997,5428900,149.548485
2015-02-11,157.759995,159.089996,157.169998,158.199997,3626700,148.60911
2015-08-27,148.50,148.970001,145.660004,148.539993,4976600,141.757823
2009-10-14,127.709999,128.610001,126.599998,128.350006,9545500,108.323907
2016-04-11,150.259995,151.949997,149.220001,149.25,3846100,145.240033
2015-08-31,147.380005,148.399994,146.259995,147.889999,4093100,141.137507
2009-08-27,118.730003,119.589996,117.849998,119.43,4356900,100.795665
2013-03-26,211.770004,212.50,211.50,212.360001,2300300,190.517378
2016-11-14,161.25,161.860001,157.580002,158.210007,5180400,158.210007
2015-05-12,170.550003,171.490005,168.839996,170.550003,2962400,161.422844
2013-11-29,179.210007,180.759995,179.00,179.679993,2870500,163.637979
2016-09-21,154.910004,155.679993,153.869995,155.529999,2473900,154.131712
2016-11-21,160.690002,163.00,160.369995,162.770004,4601900,162.770004
2013-11-13,182.270004,183.550003,181.589996,183.550003,4704400,167.162471
2007-07-19,115.00,116.480003,114.650002,115.860001,17281600,93.975242
2009-06-22,105.18,105.879997,104.230003,104.519997,7295400,87.802501
2013-11-06,177.910004,179.75,177.779999,179.190002,4560700,163.191736
2008-01-15,102.029999,104.639999,101.230003,101.830002,11629500,83.18141
2013-01-18,194.029999,195.00,193.800003,194.470001,4559600,173.736187
2011-12-13,193.460007,194.300003,190.639999,191.149994,5008400,167.942892
2008-06-25,123.669998,125.830002,123.199997,124.580002,7131500,102.571751
2013-08-26,185.270004,187.00,184.679993,184.740005,2170400,167.347526
2015-10-22,141.740005,145.070007,141.619995,144.089996,5583200,137.511008
2015-03-19,159.699997,160.919998,158.809998,159.809998,3878600,150.121504
2014-08-06,185.360001,186.880005,184.440002,185.970001,3847000,172.299381
2013-05-16,204.00,206.589996,204.00,204.690002,4507000,184.497021
2015-09-02,144.740005,145.080002,143.179993,145.050003,4252000,138.427181
2009-12-09,126.699997,128.389999,126.110001,128.389999,6071900,108.84397
2009-07-23,115.059998,118.00,115.059998,117.059998,8461400,98.336786
2015-04-28,170.830002,174.690002,170.020004,173.919998,5816700,163.376085
2007-09-18,115.00,116.779999,114.830002,116.629997,7839500,94.934275
2012-03-13,201.720001,203.899994,201.610001,203.779999,4866000,179.73671
2016-10-14,154.470001,155.529999,154.089996,154.449997,4358200,153.061419
2016-08-08,162.729996,163.270004,161.580002,162.039993,3039300,160.583178
2009-02-19,91.059998,92.160004,88.449997,88.93,12622700,74.317882
2007-10-29,113.900002,115.010002,113.849998,114.800003,5103200,93.444699
2010-04-14,129.729996,131.419998,129.460007,131.25,8545800,111.766225
2008-07-24,129.059998,130.929993,128.800003,130.00,8946300,107.034254
2007-06-07,102.459999,103.169998,101.559998,101.800003,14384600,82.571033
2010-11-18,143.039993,144.990005,142.75,144.360001,4236200,124.72423
2010-08-17,128.830002,129.850006,127.900002,128.449997,4298300,110.487311
2012-10-08,210.020004,210.639999,209.210007,209.820007,1982600,186.632825
2008-12-01,80.949997,81.360001,76.790001,76.900002,10265000,63.91682
2015-08-18,155.509995,156.520004,155.25,156.009995,2018300,148.886752
2009-01-26,89.769997,92.669998,89.519997,91.599998,9840800,76.134987
2008-06-18,124.550003,125.43,123.699997,124.160004,6614700,102.225949
2008-12-05,76.779999,81.50,75.309998,80.589996,11212000,66.983826
2008-06-12,123.849998,125.089996,123.129997,123.849998,6748600,101.970709
2015-10-23,144.610001,145.490005,143.699997,144.679993,5370400,138.074065
2014-12-18,153.580002,157.679993,153.300003,157.679993,7302400,147.088831
2007-08-15,111.00,112.849998,109.910004,111.230003,11640200,90.538797
2007-02-15,99.059998,99.519997,98.480003,98.919998,5568600,79.923924
2014-06-13,182.00,183.00,181.520004,182.559998,2773600,168.145637
2010-07-14,129.320007,131.600006,129.139999,130.720001,6607200,111.885484
2016-09-02,159.880005,160.570007,159.149994,159.550003,2315400,158.115574
2009-01-27,91.769997,91.970001,90.50,91.660004,8720800,76.184862
2007-09-06,117.919998,118.75,116.239998,117.620003,6778600,95.740118
2007-08-24,111.449997,113.25,110.809998,113.239998,7058700,92.174889
2008-02-19,106.940002,107.620003,104.639999,105.00,7376400,86.098804
2011-12-09,192.910004,194.869995,192.399994,194.559998,4847900,170.938895
2006-12-15,95.610001,95.800003,95.050003,95.300003,8086500,76.767745
2014-07-09,187.679993,188.899994,186.889999,188.419998,3309600,173.54295
2008-04-01,115.199997,118.370003,114.970001,116.489998,11875400,95.520471
2012-11-02,197.529999,198.00,193.289993,193.429993,4260100,172.054069
2010-07-23,127.300003,128.800003,127.00,128.380005,5078000,109.882641
2009-06-30,105.690002,106.029999,103.809998,104.419998,7512600,87.718497
2007-02-07,99.800003,100.360001,99.120003,99.540001,7698200,80.424865
2013-10-28,177.039993,177.889999,176.199997,177.350006,3712700,160.653263
2016-07-06,151.850006,152.410004,149.919998,152.369995,2569400,149.707146
2015-06-11,169.259995,170.440002,168.539993,168.779999,3464000,159.747563
2008-06-05,127.410004,129.039993,127.199997,128.470001,6153300,105.774544
2015-11-16,131.789993,134.089996,131.789993,133.710007,4190800,128.801916
2008-08-12,126.010002,126.50,124.400002,125.220001,6996800,103.500257
2007-03-09,93.480003,94.00,92.82,93.279999,6333000,75.367
2014-03-25,188.759995,195.399994,188.699997,195.039993,10912700,178.600392
2010-03-30,128.899994,129.130005,128.25,128.770004,3426600,109.654379
2013-05-06,203.789993,203.990005,201.520004,202.779999,4826500,181.922742
2011-10-10,183.00,186.630005,182.899994,186.619995,5784800,163.306389
2009-06-02,107.510002,108.800003,106.660004,106.830002,7045800,89.743031
2012-08-15,198.899994,199.330002,197.919998,198.399994,2111800,176.474836
2010-07-08,127.370003,128.149994,126.739998,127.970001,5439300,109.531712
2014-10-28,162.00,163.600006,161.800003,163.600006,7895300,151.5738
2014-08-25,191.389999,191.809998,190.710007,191.160004,1723600,177.107868
2015-07-16,169.470001,171.089996,169.160004,171.00,3529900,161.848759
2016-06-01,153.00,153.270004,151.539993,152.509995,2663400,149.844699
2010-04-27,129.899994,132.00,128.710007,128.820007,10916700,109.696959
2007-03-16,94.449997,94.449997,93.019997,93.25,8728700,75.342762
2013-08-12,186.970001,189.559998,186.889999,189.089996,3026500,171.287983
2007-05-09,103.93,104.75,103.699997,104.379997,8408100,84.663693
2008-01-25,107.790001,107.790001,104.099998,104.519997,10025400,85.378773
2008-02-04,108.669998,109.00,107.230003,107.93,5985500,88.164288
2015-12-02,140.929993,141.210007,139.50,139.699997,3725400,134.572031
2007-08-31,115.989998,117.349998,115.550003,116.690002,6883600,94.983118
2011-03-08,159.699997,163.429993,159.210007,162.279999,5384800,140.761882
2008-05-06,121.50,123.339996,120.779999,122.82,5910400,100.711001
2013-12-18,176.449997,178.740005,174.850006,178.699997,5697700,162.745478
2008-05-23,124.349998,124.910004,123.769997,124.199997,4701500,102.258877
2010-08-23,127.57,128.029999,126.440002,126.470001,4034400,108.784202
2008-11-14,82.629997,85.400002,79.50,80.330002,12023700,66.767727
2015-01-09,158.419998,160.339996,157.25,159.110001,4488300,148.422787
2012-04-17,204.570007,207.639999,204.149994,207.449997,6065500,182.973698
2013-04-19,195.740005,196.50,189.759995,190.00,18847000,170.45725
2016-07-20,159.970001,161.710007,159.600006,161.360001,4376300,158.540041
2009-07-08,100.290001,101.169998,99.50,100.68,7380800,84.576695
2016-06-17,150.960007,152.720001,150.600006,151.990005,4663900,149.333798
2013-06-06,203.00,204.199997,201.470001,203.800003,3679400,183.694821
2008-10-15,92.769997,95.290001,87.709999,88.290001,11330800,72.975864
2007-01-12,98.989998,99.690002,98.50,99.339996,6636500,80.022112
2008-05-22,123.550003,125.349998,123.550003,124.699997,5031300,102.670547
2015-06-10,166.490005,169.389999,166.059998,168.919998,4680500,159.88007
2011-08-31,173.289993,173.720001,170.710007,171.910004,6074200,150.434051
2010-09-02,126.029999,126.230003,124.650002,125.040001,5103300,107.554175
2015-12-31,139.070007,139.100006,137.570007,137.619995,3443300,132.56838
2015-07-24,161.289993,161.929993,159.410004,159.75,3778200,151.200814
2016-07-13,157.75,158.339996,157.059998,158.020004,2746400,155.258415
2012-03-27,208.460007,208.660004,207.00,207.179993,2704500,182.73555
2015-09-21,145.389999,146.979996,144.919998,146.479996,3825000,139.791882
2014-03-05,186.570007,187.949997,186.399994,187.139999,3485200,171.366276
2016-05-03,144.649994,144.899994,142.899994,144.130005,3553500,140.257599
2007-01-30,98.57,99.449997,98.50,99.370003,7177900,80.046284
2007-07-10,108.550003,109.150002,108.25,108.629997,6209300,88.110912
2009-07-31,117.559998,118.989998,117.559998,117.93,5329600,99.067636
2016-09-16,155.039993,155.399994,153.470001,153.839996,6463600,152.456903
2016-05-16,147.649994,149.990005,147.440002,149.460007,3069100,146.848014
2009-10-15,127.559998,128.00,126.32,127.980003,11904600,108.011634
2012-11-29,192.75,192.899994,190.199997,191.529999,4077900,171.109638
2007-05-18,105.839996,108.050003,105.599998,107.989998,9857500,87.591801
2013-06-07,204.850006,206.350006,204.110001,206.350006,2953400,185.993263
2009-05-08,103.580002,103.75,99.830002,101.489998,11575500,85.257137
2008-01-14,105.010002,105.589996,101.330002,102.93,18009400,84.07996
2013-04-09,209.559998,210.00,208.610001,209.220001,2577300,187.700348
2011-10-31,185.589996,186.910004,184.630005,184.630005,4710000,161.564999
2014-07-31,192.839996,194.289993,191.539993,191.669998,4207500,176.53634
2010-09-24,132.419998,134.149994,132.339996,134.110001,7122400,115.355809
2016-09-12,155.259995,158.529999,154.839996,158.289993,4367500,156.866892
2007-11-28,104.82,108.269997,104.360001,107.370003,9397700,87.706845
2013-05-31,208.589996,211.979996,208.020004,208.020004,4949000,187.498513
2010-03-16,128.00,128.880005,127.449997,128.669998,6134900,109.569219
2008-04-17,122.389999,123.720001,120.699997,123.080002,18999100,100.924199
2007-09-12,116.949997,117.400002,115.690002,116.00,6287200,94.421471
2014-04-07,191.720001,195.309998,191.570007,194.520004,6740500,178.124232
2013-09-09,183.679993,185.490005,183.309998,184.979996,3017200,167.564922
2013-07-09,191.880005,192.800003,190.779999,191.300003,5204200,172.427965
2008-01-18,106.720001,106.720001,102.50,103.400002,23871700,84.463888
2011-01-12,147.990005,149.289993,147.669998,149.100006,4091500,128.819503
2011-12-29,184.070007,186.229996,184.009995,186.179993,2941600,163.576288
2012-06-18,197.570007,199.639999,197.169998,198.289993,3378900,175.627135
