2007-08-30,132.670006,138.25,132.299997,136.249994,358895600,17.729022
2011-09-15,391.43,393.660011,389.900005,392.959995,104454700,51.132452
2012-07-02,584.730019,593.469978,583.600006,592.519997,100023000,77.099452
2011-09-29,401.919987,402.210007,386.209988,390.570007,162771700,50.821463
2007-06-21,121.699995,124.290001,120.719999,123.900005,216761300,16.122025
2012-03-22,597.779984,604.499977,595.529999,599.340019,155967700,77.986882
2010-08-27,241.749992,242.610012,235.559998,241.620003,137097800,31.4399
2008-09-10,152.320002,154.989996,148.800001,151.609999,243285700,19.727685
2015-06-09,126.699997,128.080002,125.620003,127.419998,56075400,123.556162
2015-03-12,122.309998,124.900002,121.629997,124.449997,48362700,120.174245
2009-03-23,102.710001,108.159999,101.749999,107.660001,166599300,14.008856
2010-09-22,282.709995,287.979996,282.409988,287.750004,146322400,37.442395
2016-10-05,113.400002,113.660004,112.690002,113.050003,21453100,112.472544
2013-12-31,554.170013,561.279976,554.000023,561.019997,55771100,75.499047
2016-08-17,109.099998,109.370003,108.339996,109.220001,25356000,108.662106
2016-06-10,98.529999,99.349998,98.480003,98.830002,31712900,97.795402
2008-07-21,166.900002,167.500002,161.120003,166.290001,340117400,21.637865
2009-07-07,138.480005,139.680006,135.179996,135.400002,115399200,17.618419
2013-02-22,449.250015,451.599976,446.599995,450.809998,82663700,59.525803
2012-01-19,430.150005,431.370007,426.510002,427.750004,65434600,55.659372
2012-10-17,648.870018,652.790001,644.00,644.610001,97259400,84.237601
2012-09-10,680.45002,683.289978,662.100014,662.739975,121999500,86.606825
2007-09-11,137.900005,138.300001,133.750004,135.490004,242971400,17.630131
2008-02-04,134.210001,135.90,131.420004,131.649996,224808500,17.130464
2007-05-01,99.590003,100.35,98.549999,99.47,133130900,12.943162
2010-08-03,261.010006,263.259991,259.42001,261.93,104413400,34.082663
2013-04-05,424.499996,424.949993,419.679993,423.199993,95923800,55.880126
2007-12-05,182.889994,185.999998,182.409996,185.50,223100500,24.137495
2009-01-08,90.43,93.150002,90.039998,92.699999,168375200,12.062241
2014-04-09,522.639999,530.490005,522.020012,530.320015,51542400,71.794798
2013-07-15,425.009995,431.459995,424.800003,427.44001,60479300,56.813561
2009-07-21,153.289997,153.43,149.749996,151.509996,218695400,19.714672
2011-01-10,338.829998,343.229992,337.169987,342.450001,112140000,44.560027
2015-02-05,120.019997,120.230003,119.25,119.940002,42246200,115.819201
2014-07-30,98.440002,98.699997,97.669998,98.150002,33010000,93.532436
2010-11-15,308.460011,310.540005,306.27,307.040005,100901500,39.952434
2007-07-23,143.309996,145.219999,140.929995,143.700005,259122500,18.698426
2007-07-05,128.799997,132.969999,128.689995,132.749994,363262900,17.273597
2016-02-24,93.980003,96.379997,93.32,96.099998,36255700,94.518507
2016-06-29,93.970001,94.550003,93.629997,94.400002,36531000,93.411777
2011-07-27,400.589996,402.640003,392.14999,392.59,164831100,51.084308
2015-03-16,123.879997,124.949997,122.870003,124.949997,35874300,120.657066
2013-09-19,470.700012,475.830009,469.249992,472.299995,101135300,63.190657
2008-06-27,166.510006,170.570005,164.150005,170.089994,260562400,22.132325
2014-08-06,94.75,95.480003,94.709999,94.959999,38558000,90.49251
2013-11-06,524.149994,524.860023,518.200005,520.920013,55843900,70.102607
2016-11-01,113.459999,113.769997,110.529999,111.489998,43825800,110.920507
2015-04-13,128.369995,128.570007,126.610001,126.849998,36365100,122.491789
2013-10-01,478.449989,489.140007,478.379974,487.960007,88470900,65.285864
2015-02-26,128.789993,130.869995,126.610001,130.419998,91287500,125.939133
2013-07-25,440.699993,441.400009,435.810001,438.499996,57373400,58.283609
2011-04-13,335.020004,336.140003,332.52,336.12999,86555000,43.73766
2010-04-19,247.030006,247.889999,241.769993,247.070007,141731100,32.149062
2010-02-17,204.190001,204.310003,200.860004,202.550003,109099200,26.356063
2011-05-18,336.469997,341.049995,336.00,339.869995,83694100,44.224314
2010-01-12,209.189995,209.769995,206.419998,207.720001,148614900,27.028789
2011-04-04,344.30999,344.60001,338.400002,341.189999,115021200,44.396074
2011-06-16,326.900005,328.679993,318.330009,325.159992,127647800,42.31023
2007-05-14,109.619999,110.000001,108.250001,109.36,162986600,14.230062
2011-04-26,353.620003,354.989994,349.349998,350.42001,84700000,45.597095
2014-07-29,99.330002,99.440002,98.25,98.379997,43143000,93.751611
2014-10-23,104.080002,105.050003,103.629997,104.830002,71074700,100.395069
2008-03-10,121.980001,123.459995,119.369995,119.690002,249897200,15.574215
2007-01-19,88.629999,89.650002,88.120001,88.500003,341118400,11.515732
2014-09-12,101.209999,102.190002,101.080002,101.660004,62626100,97.359181
2013-03-04,427.799992,428.200001,419.000004,420.049988,145688900,55.464194
2014-05-06,601.799995,604.409988,594.410027,594.410027,93641100,80.471313
2007-06-27,120.609997,122.040003,119.260006,121.889999,243674200,15.860481
2016-06-13,98.690002,99.120003,97.099998,97.339996,38020500,96.320994
2008-12-31,85.969998,87.739999,85.339997,85.349998,151885300,11.10585
2010-12-08,319.630013,321.020004,317.110008,321.009991,80483900,41.770226
2009-01-29,93.090001,94.340003,92.600003,92.999999,148182300,12.101278
2016-06-09,98.50,99.989998,98.459999,99.650002,26601400,98.606817
2012-08-03,613.630013,617.980019,611.560005,615.70002,86230200,80.115666
2007-06-14,117.199999,119.449997,116.419994,118.749994,243316500,15.451899
2014-10-21,103.019997,103.019997,101.269997,102.470001,94623900,98.134911
2010-12-02,317.529991,319.000011,314.890011,318.150005,115709300,41.398081
2009-06-26,139.789995,143.560001,139.739994,142.440002,109846100,18.534473
2016-09-27,113.00,113.18,112.339996,113.089996,24607400,112.512333
2014-04-14,521.900009,522.159988,517.210022,521.679977,51418500,70.625109
2010-09-29,287.229992,289.809998,286.000004,287.369995,117411000,37.392947
2013-05-23,435.950005,446.160011,435.790001,442.139999,88255300,58.767423
2007-03-28,94.880002,95.400001,93.150002,93.239998,235584300,12.132506
2008-10-23,96.509999,99.250002,91.900001,98.229999,418857600,12.781812
2013-09-13,469.339981,471.830025,464.699982,464.899986,74708900,62.200584
2008-10-29,100.859999,109.539997,99.939998,104.550003,487744600,13.604179
2014-04-28,572.800026,595.749977,572.54998,594.090019,167371400,80.42799
2015-04-21,128.100006,128.199997,126.669998,126.910004,32435100,122.549733
2012-02-02,455.899994,457.169983,453.980003,455.120003,46699100,59.220791
2009-07-29,158.900005,160.450001,158.250004,160.030005,95539500,20.823307
2009-05-26,124.759998,130.830004,124.549994,130.780003,159231800,17.017259
2008-04-18,159.119997,162.260002,158.379993,161.040001,256691400,20.954729
2007-10-31,187.629995,190.119999,184.950001,189.949995,208327700,24.716534
2015-06-30,125.57,126.120003,124.860001,125.43,44370700,121.626508
2016-03-28,106.00,106.190002,105.059998,105.190002,19411400,103.45892
2016-04-21,106.93,106.93,105.519997,105.970001,31552500,104.226082
2007-12-03,181.859997,184.139996,177.699995,178.859995,240367400,23.273489
2016-04-19,107.879997,108.00,106.230003,106.910004,32384900,105.150615
2010-12-31,322.950008,323.480007,321.309998,322.560013,48377000,41.971917
2015-02-04,118.50,120.510002,118.309998,119.559998,70149700,114.998404
2010-08-18,252.360008,254.669994,251.57999,253.070011,84924000,32.92979
2016-03-10,101.410004,102.239998,100.150002,101.169998,33513600,99.505072
2007-08-15,122.740005,124.860001,119.650002,119.899994,248213000,15.601539
2016-01-15,96.199997,97.709999,95.360001,97.129997,79010000,95.015969
2008-04-03,147.060001,153.630005,147.00,151.609999,262892000,19.727685
2013-01-07,521.999985,529.300018,515.199989,523.900002,121039100,68.775922
2010-05-24,247.279999,250.900002,246.260002,246.759987,188559700,32.108722
2016-11-18,109.720001,110.540001,109.660004,110.059998,27404300,110.059998
2015-07-29,123.150002,123.50,122.269997,122.989998,37011700,119.260495
2016-10-26,114.309998,115.699997,113.309998,115.589996,66134200,114.999563
2008-02-27,118.229996,123.049999,118.090006,122.959997,368784500,15.99971
2015-05-07,124.769997,126.080002,124.019997,125.260002,43940900,121.461665
2010-07-19,249.880005,249.880005,239.60001,245.580013,256119500,31.955182
2008-03-04,121.990002,124.880001,120.400005,124.619995,446345900,16.215711
2008-12-05,90.349998,94.49,88.859998,94.000002,260948800,12.231399
2010-12-13,324.369987,325.05999,321.000004,321.670006,109953900,41.856108
2008-12-22,90.019998,90.029998,84.690002,85.74,211185100,11.156597
2014-06-13,92.199997,92.440002,90.879997,91.279999,54525000,86.985639
2013-12-20,545.43,551.610008,544.82,549.019989,109103400,73.88415
2012-09-19,700.259979,703.989998,699.569977,702.100021,81718700,91.750394
2008-10-02,108.010002,108.79,99.999999,100.100001,402341100,13.025139
2011-03-22,342.55999,342.619991,339.139992,341.200012,81480700,44.397377
2015-07-31,122.599998,122.639999,120.910004,121.300003,42885000,117.621747
2011-01-19,348.350002,348.599995,336.879993,338.840012,283903200,44.090291
2011-03-21,335.990013,339.740005,335.26001,339.299995,102350500,44.150145
2010-04-20,248.540001,249.250004,242.960007,244.590004,184581600,31.826361
2014-08-13,96.150002,97.239998,96.040001,97.239998,31916000,93.126168
2010-12-17,321.630005,321.790009,320.23,320.610008,96732300,41.71818
2008-09-18,130.569998,135.430002,120.679998,134.089998,419063400,17.44796
2014-03-14,528.789993,530.890015,523.000008,524.68998,59299800,71.032603
2008-09-02,172.399994,173.500006,164.999998,166.189999,195190800,21.624853
2009-10-29,195.000004,196.810005,192.140005,196.349995,142567600,25.54931
2012-11-07,573.839996,574.539986,555.750023,558.000008,198412200,73.252462
2010-06-15,255.640003,259.850006,255.50,259.690002,146268500,33.791192
2015-04-16,126.279999,127.099998,126.110001,126.169998,28369000,121.835152
2012-07-06,607.089996,608.439987,601.580017,605.879982,104732600,78.83787
2008-02-22,122.48,122.51,115.869995,119.459997,382469500,15.544286
2007-05-25,112.00,113.780001,111.500002,113.619997,158239900,14.784378
2007-06-13,121.149996,121.189997,115.399998,117.500006,430338300,15.289249
2009-04-22,122.630003,125.349998,121.199997,121.510004,234691800,15.811035
2013-12-05,572.650009,575.139999,566.410027,567.899994,111895000,76.42492
2010-04-09,241.430012,241.889996,240.460003,241.789993,83545700,31.46202
2014-08-19,99.410004,100.68,99.32,100.529999,69399000,96.276982
2010-08-02,260.440006,262.589989,259.619987,261.849998,107013900,34.072253
2010-07-30,255.889996,259.699989,254.900013,257.25,112052500,33.473695
2011-02-07,347.889992,353.250008,347.639999,351.87999,121255400,45.787069
2014-06-03,628.459991,638.740013,628.25,637.539986,73177300,86.792325
2016-03-30,108.650002,110.419998,108.599998,109.559998,45601100,107.756999
2014-05-09,584.540001,586.25,580.330025,585.540024,72899400,79.713243
2011-05-27,334.799999,337.629997,334.310001,337.409992,50899800,43.904215
2011-11-16,389.250004,391.140007,384.320011,384.770008,87302600,50.06676
2015-07-30,122.32,122.57,121.709999,122.370003,33628300,118.659301
2013-07-19,433.100006,433.98,424.350006,424.949993,67180400,56.482599
2015-11-19,117.639999,119.75,116.760002,118.779999,43295800,116.19476
2010-02-18,201.629995,203.889994,200.920006,202.929998,105706300,26.405508
2007-06-29,121.970001,123.999994,121.089994,122.040003,284460400,15.88
2009-04-15,117.199999,118.249996,115.760006,117.639996,103220600,15.307465
2014-11-11,108.699997,109.75,108.400002,109.699997,27442300,105.514594
2008-08-13,177.980001,179.999994,175.899994,179.300005,210586600,23.330743
2016-11-17,109.809998,110.349998,108.830002,109.949997,26964600,109.949997
2009-07-01,143.50,144.66,142.520004,142.829998,103544700,18.58522
2015-04-01,124.82,125.120003,123.099998,124.25,40621400,119.981119
2011-09-02,374.740005,378.00,371.830006,374.050003,109734800,48.67186
2007-11-09,171.150005,175.120003,165.210003,165.370007,381595200,21.518154
2014-01-27,550.07,554.799988,545.750008,550.500023,138719700,74.083325
2008-03-17,122.550001,128.590006,122.550001,126.730003,268149700,16.490268
2014-01-08,538.809982,545.55999,538.68998,543.460022,64632400,73.13592
2015-01-09,112.669998,113.25,110.209999,112.010002,53699500,107.736465
2016-05-17,94.550003,94.699997,93.010002,93.489998,46916900,92.511299
2007-05-30,114.299999,118.879997,113.529995,118.769995,369611200,15.454502
2013-04-10,428.099998,437.05999,426.009991,435.689999,93982000,57.52933
2014-05-02,592.340019,594.199982,589.709999,592.580025,47878600,80.223567
2007-02-08,85.429999,86.509997,85.409999,86.180003,169757700,11.213851
2007-08-31,139.490002,139.650005,137.409994,138.480005,219221800,18.019193
2007-10-02,156.550005,158.589998,155.890003,158.449995,198017400,20.617714
2011-06-09,333.250004,333.669987,330.75,331.48999,68772200,43.133897
2016-05-02,93.970001,94.080002,92.400002,93.639999,48160100,92.098992
2007-02-16,85.250002,85.409999,84.660002,84.829999,99967000,11.038187
2012-01-10,425.909988,426.000004,421.500008,423.239994,64549100,55.072523
2016-10-17,117.330002,117.839996,116.779999,117.550003,23624900,116.949558
2009-10-26,203.670002,206.750006,200.10,202.480001,121084600,26.346954
2016-03-21,105.93,107.650002,105.139999,105.910004,35502700,104.167072
2010-03-10,223.829996,225.480007,223.199995,224.839993,149054500,29.256464
2010-03-24,227.640003,230.200008,227.509987,229.370003,149445100,29.845915
2010-10-15,307.439987,315.00,304.909996,314.739994,230548500,40.954366
2013-06-19,431.399994,431.66,422.999989,422.999989,77735000,56.223412
2009-01-14,86.239998,87.250001,84.720003,85.329997,255416000,11.103247
2016-09-02,107.699997,108.00,106.82,107.730003,26802500,107.179719
2016-01-13,100.32,101.190002,97.300003,97.389999,62439600,95.270312
2012-03-30,608.769981,610.559982,597.939987,599.550011,182759500,78.014206
2016-05-31,99.599998,100.400002,98.82,99.860001,42307200,98.814618
2016-02-08,93.129997,95.699997,93.040001,95.010002,54021400,93.446449
2011-09-09,383.929989,385.999996,375.020012,377.479988,141203300,49.118174
2014-07-02,93.870003,94.059998,93.089996,93.480003,28465000,89.082143
2010-03-29,232.999992,233.869999,231.619987,232.389992,135186100,30.23888
2012-06-26,571.329979,574.489998,567.329994,572.030022,69134100,74.43327
2008-08-11,170.069994,176.499994,169.669998,173.559994,222826100,22.583846
2016-08-19,108.769997,109.690002,108.360001,109.360001,25368100,108.80139
2016-02-04,95.860001,97.330002,95.190002,96.599998,46471700,95.010279
2015-12-24,109.00,109.00,107.949997,108.029999,13570400,105.678733
2011-02-10,357.389996,359.999989,348.000008,354.539997,232137500,46.133193
2016-08-08,107.519997,108.370003,107.160004,108.370003,28037200,107.816449
2014-02-13,534.659981,544.850014,534.199997,544.429977,76849500,73.705007
2010-10-19,303.400002,313.770012,300.020004,309.489994,308196000,40.27123
2016-02-09,94.290001,95.940002,93.93,94.989998,44331200,93.426774
2015-11-16,111.379997,114.239998,111.00,114.18,38106700,111.69488
2011-01-25,336.329994,341.439991,334.570007,341.39999,136717000,44.423399
2015-05-05,128.149994,128.449997,125.779999,125.800003,49271400,121.477868
2013-03-19,459.500023,460.970016,448.499985,454.489975,131693800,60.011715
2014-02-20,532.989983,537.000008,528.999985,531.149994,76464500,71.907161
2012-08-06,617.290016,624.870003,615.26001,622.550003,75525800,81.006994
2010-12-06,318.640003,322.329994,318.419998,320.149998,112120400,41.658323
2013-04-11,433.719994,437.989998,431.199989,434.329994,82091100,57.349753
2015-11-27,118.290001,118.410004,117.599998,117.809998,13046400,115.245871
2016-02-05,96.519997,96.919998,93.690002,94.019997,46418100,92.472736
2011-12-21,396.689987,397.299988,392.009987,396.450008,65737000,51.586577
2007-06-26,123.979994,123.999994,118.719994,119.650002,336251300,15.56901
2014-10-24,105.18,105.489998,104.529999,105.220001,47053900,100.768569
2015-03-11,124.75,124.769997,122.110001,122.239998,68939000,118.040175
2012-07-20,613.029999,614.440018,603.700012,604.300026,99367800,78.632284
2014-10-08,98.760002,101.110001,98.309998,100.800003,57404700,96.535564
2016-09-08,107.25,107.269997,105.239998,105.519997,53002000,104.981001
2012-05-18,533.959991,543.409981,522.180016,530.37999,183073100,69.013715
2007-10-11,169.489994,171.879995,153.209995,162.230001,410998000,21.109573
2015-10-02,108.010002,111.010002,107.550003,110.379997,58019800,107.517352
2010-03-17,224.899994,226.449989,223.269997,224.120003,112739200,29.162778
2009-07-08,135.92,138.039995,134.420006,137.220003,143982300,17.85524
2015-11-04,123.129997,123.82,121.620003,122.00,44886100,118.835996
2008-08-06,159.970003,167.40,157.999998,164.190006,197852200,21.364611
2012-05-30,569.199997,579.98999,566.55999,579.169998,132357400,75.362333
2015-08-04,117.419998,117.699997,113.25,114.639999,124138600,111.163699
2011-08-02,397.650009,397.900002,388.35001,388.909996,159884900,50.605461
2013-10-16,500.789993,502.530006,499.230011,501.110001,62775300,67.045247
2012-04-02,601.830009,618.769997,600.37999,618.63002,149587900,80.496921
2016-05-13,90.00,91.669998,90.00,90.519997,44392800,89.57239
2014-11-24,116.849998,118.769997,116.620003,118.629997,47450800,114.103887
2007-12-11,194.749998,196.830006,187.390003,188.540003,277731300,24.533064
2008-06-24,172.370007,175.780005,171.630003,173.25,155486800,22.543509
2014-01-06,537.450005,546.800018,533.599983,543.929993,103152700,73.199166
2016-01-21,97.059998,97.879997,94.940002,96.300003,52161500,94.20404
2015-01-16,107.029999,107.580002,105.199997,105.989998,78513300,101.946143
2008-06-19,178.550001,182.339994,176.800001,180.900002,197987300,23.538937
2011-10-04,374.569988,381.800007,354.23999,372.500008,308419300,48.470172
2014-06-12,94.040001,94.120003,91.900002,92.290001,54749000,87.948125
2014-02-11,530.610008,537.749985,529.500023,535.959984,70564200,72.558338
2009-06-19,138.069996,139.500002,136.899996,139.480001,180464200,18.149314
2014-12-30,113.639999,113.919998,112.110001,112.519997,29881500,108.227002
2012-10-02,661.81002,666.349991,650.649979,661.309982,156998100,86.419954
2016-08-31,105.660004,106.57,105.639999,106.099998,29662400,105.55804
2012-05-02,580.239983,587.399986,578.859978,585.97998,106847300,76.248456
2014-03-26,546.520012,549.000015,538.860023,539.779991,74942000,73.075491
2013-01-15,498.300003,498.990005,483.379982,485.920013,219193100,63.79003
2006-11-28,90.359999,91.970002,89.910002,91.809999,259043400,11.946433
2006-12-08,87.23,89.390003,87.000002,88.259997,196069300,11.484503
2007-02-20,84.650002,86.160003,84.159997,85.899997,154425600,11.177416
2010-07-09,256.889992,259.899994,255.159992,259.619987,108330600,33.782081
2009-06-02,138.990004,141.340004,138.350002,139.490002,114055900,18.150615
2014-11-10,109.019997,109.330002,108.669998,108.830002,27195500,104.677792
2013-03-15,437.929996,444.230007,437.250008,443.660007,160990200,58.581705
2010-03-12,227.37001,227.729992,225.75,226.600006,104080900,29.485479
2015-08-28,112.169998,113.309998,111.540001,113.290001,53164400,110.351886
2008-02-11,128.010006,129.979998,127.200001,129.449999,300358100,16.844198
2012-02-16,491.500008,504.890007,486.62999,502.209999,236138000,65.3482
2016-05-25,98.669998,99.739998,98.110001,99.620003,38168800,98.577132
2008-05-12,185.209993,188.869997,182.850006,188.159994,204640800,24.483616
2012-12-26,519.000023,519.460007,511.120003,512.999992,75609100,67.345003
2013-03-05,421.480007,435.189987,420.750004,431.139988,159608400,56.928538
2010-06-01,259.690002,265.939999,258.959999,260.830002,219118200,33.93953
2009-12-17,194.26,195.000004,191.000006,191.859999,97209700,24.965066
2008-04-30,176.190001,179.999994,172.920006,173.950003,284881100,22.634594
2007-08-20,123.959993,124.500006,120.499994,122.219994,200829300,15.90342
2010-02-03,195.169994,200.200003,194.420004,199.229994,153832000,25.924059
2013-12-13,562.849998,562.880013,553.669975,554.429993,83205500,74.6122
2014-12-18,111.870003,112.650002,110.660004,112.650002,59006200,108.352047
2009-04-07,116.529997,116.67,114.189997,115.000002,134145200,14.963946
2014-01-28,508.760002,514.999985,502.070023,506.499977,266380800,68.162036
2015-08-31,112.029999,114.529999,112.00,112.760002,56229300,109.835633
2014-05-27,615.879997,625.859985,615.630005,625.63002,87216500,85.170947
2016-04-04,110.419998,112.190002,110.269997,111.120003,37356200,109.291332
2015-03-02,129.25,130.279999,128.300003,129.089996,48096700,124.654827
2014-02-05,506.560005,515.279991,506.249985,512.589996,82086200,68.981598
2014-01-03,552.860023,553.699989,540.429993,540.980019,98116900,72.802175
2015-03-06,128.399994,129.369995,126.260002,126.599998,72842100,122.250378
2008-02-25,118.590004,120.17,116.66,119.740004,314193600,15.580721
2014-06-19,92.290001,92.300003,91.339996,91.860001,35528000,87.538354
2015-05-11,127.389999,127.559998,125.629997,126.32,42035800,122.489519
2011-04-07,338.099995,340.430008,336.029987,338.079994,93361800,43.991397
2009-03-04,90.180001,92.77,89.449998,91.169997,185350900,11.863155
2009-06-24,135.420002,137.499996,134.860003,136.219994,121381400,17.725118
2012-04-20,591.379997,594.620018,570.419998,572.980003,257746300,74.556883
2008-05-30,187.450005,189.539999,187.380003,188.749994,152546100,24.560388
2014-06-27,90.82,92.00,90.769997,91.980003,64029000,87.652712
2012-01-30,445.709988,453.900002,445.390007,453.009995,94835300,58.946234
2011-08-26,371.169991,383.799999,370.799995,383.579994,160369300,49.911914
2011-02-14,356.790009,359.480003,356.710007,359.179996,77604100,46.736956
2014-06-10,94.730003,95.050003,93.57,94.25,62777000,89.815914
2010-09-08,259.779991,264.390003,259.100002,262.92001,131637800,34.211484
2008-08-15,179.039999,179.750002,175.050001,175.740004,177062900,22.867512
2007-04-26,101.580002,102.500003,98.30,98.839999,434444500,12.861186
2011-08-01,397.779999,399.500011,392.369995,396.749989,153209000,51.62561
2007-01-24,86.680001,87.149999,86.080001,86.700002,231953400,11.281514
2012-02-14,504.659988,509.56002,502.000008,509.459991,115099600,66.291579
2013-03-27,456.460007,456.799988,450.729996,452.079987,82809300,59.693495
2009-03-31,105.449997,107.450003,105.00,105.120003,142520000,13.678348
2015-07-23,126.199997,127.089996,125.059998,125.160004,50999500,121.364699
2008-07-29,155.410006,159.450005,153.650005,157.080004,171017700,20.439449
2016-01-14,97.959999,100.480003,95.739998,99.519997,63170100,97.35395
2014-09-08,99.300003,99.309998,98.050003,98.360001,46356700,94.198788
2011-01-06,334.719997,335.249996,332.900009,333.729988,75107200,43.425368
2014-01-15,553.520012,560.200005,551.659996,557.359993,97909700,75.006503
2011-05-02,349.739994,350.469997,345.500004,346.279995,110678400,45.058391
2016-03-04,102.370003,103.75,101.370003,103.010002,46055100,101.314795
2016-08-10,108.709999,108.900002,107.760002,108.00,24008500,107.448336
2008-10-06,91.960002,98.779998,87.540001,98.140003,526854300,12.770101
2015-07-28,123.379997,123.910004,122.550003,123.379997,33618100,119.638669
2008-12-10,97.869997,99.490001,96.499999,98.209998,234511900,12.779209
2010-09-15,268.17001,270.379993,267.839989,270.21999,107342200,35.161367
2007-04-19,90.190001,91.249999,89.83,90.270003,106478400,11.746047
2010-09-10,263.190002,264.499992,261.400002,263.410007,96885600,34.275243
2010-07-23,257.089996,260.380005,256.279991,259.939995,133347200,33.823721
2011-01-11,344.87999,344.959991,339.470013,341.639996,111027000,44.454628
2016-11-15,106.57,107.68,106.160004,107.110001,32216900,107.110001
2009-12-28,211.719999,213.949997,209.610004,211.609997,161141400,27.53496
2013-08-30,491.999992,492.949974,486.50,487.220016,68074300,65.186858
2007-10-24,185.809994,187.209999,179.240004,185.929996,322120400,24.193446
2016-03-09,101.309998,101.580002,100.269997,101.120003,27201700,99.455899
2011-09-12,372.999992,380.880013,371.899994,379.939991,116958100,49.438272
2010-05-10,250.25,254.649994,248.529987,253.990005,246076600,33.049501
2014-09-30,100.809998,101.540001,100.529999,100.75,55264100,96.487676
2016-02-22,96.309998,96.900002,95.919998,96.879997,34280800,95.28567
2009-06-09,143.809994,144.559998,140.549999,142.719995,169241100,18.570906
2009-08-28,172.270004,172.489996,168.529999,170.049994,113425200,22.12712
2006-11-30,92.210001,92.679998,91.060001,91.660002,217621600,11.926915
2012-05-08,569.579979,571.500023,558.730011,568.18,124313000,73.9323
2013-07-24,438.929993,444.589989,435.260002,440.510002,147984200,58.550771
2012-03-29,612.780006,616.560013,607.230026,609.859993,152059600,79.355754
2016-07-12,97.169998,97.699997,97.120003,97.419998,24167500,96.400159
2011-09-20,415.250011,422.860012,411.189999,413.449997,193938500,53.798637
2008-12-03,89.399997,96.23,88.800003,95.899999,334670000,12.478629
2008-07-31,157.540001,162.200001,156.980001,158.950006,159374600,20.682776
2008-08-19,174.540003,177.069994,171.809994,173.530006,154051100,22.579944
2016-08-18,109.230003,109.599998,109.019997,109.080002,21984700,108.522821
2016-02-10,95.919998,96.349998,94.099998,94.269997,42343600,92.718621
2009-08-07,165.489996,166.599995,164.799994,165.509996,96838700,21.53637
2008-10-24,90.329998,97.899998,90.11,96.380003,397514600,12.541088
2013-04-19,387.970001,399.599987,385.100002,390.530006,152318600,51.56632
2008-10-10,85.699999,99.999999,85.000003,96.799999,554824900,12.595738
2016-10-18,118.18,118.209999,117.449997,117.470001,24553500,116.869965
2014-11-28,119.269997,119.400002,118.050003,118.93,24814400,114.392444
2014-04-15,520.270012,521.639977,511.329994,517.959999,66622500,70.121497
2011-08-23,360.299995,373.640007,357.00,373.600006,164208800,48.613305
2010-09-01,247.46999,251.459988,246.280003,250.330002,174259400,32.573257
2012-10-01,671.159981,676.750015,656.499992,659.389992,135898700,86.16905
2011-09-01,385.819992,387.34,380.720009,381.030003,85931300,49.580106
2013-07-02,409.960011,421.629997,409.470013,418.490005,117466300,55.623964
2008-02-29,129.289995,130.210003,124.799999,125.020004,313870200,16.267761
2008-08-25,176.15,176.230001,171.660004,172.549997,121106300,22.452424
2016-09-30,112.459999,113.370003,111.800003,113.050003,36379100,112.472544
2008-09-08,164.570002,164.889996,151.459995,157.919996,261494800,20.54875
2010-03-25,230.919998,230.970013,226.250011,226.649994,135571100,29.491984
2009-03-02,88.120001,91.199998,87.669997,87.939997,192732400,11.442864
2014-01-24,554.000023,555.61998,544.749985,546.070015,107338700,73.487159
2010-07-26,259.999996,260.099998,257.710011,259.280006,105137900,33.737842
2014-07-21,94.989998,95.00,93.720001,93.940002,39079000,89.520501
2011-01-26,342.959999,345.600006,341.499992,343.850006,126718900,44.742198
2009-05-14,119.780005,123.529997,119.700003,122.949997,111956600,15.998409
2009-12-11,197.780001,198.000006,193.429995,194.669996,107443700,25.330706
2008-09-09,156.859999,159.960003,149.789997,151.68,311256400,19.736794
2011-03-15,342.100006,347.840004,340.099987,345.429989,180270300,44.947787
2007-09-24,146.729994,149.849998,146.650005,148.280003,263040400,19.294382
2009-08-03,165.210003,166.639996,164.869995,166.430004,98560000,21.656083
2012-06-27,575.000023,576.739983,571.920006,574.499985,50749300,74.754665
2011-04-05,336.990009,342.249996,336.00,338.889999,120682800,44.096795
2011-06-13,327.200012,328.309998,325.070004,326.599998,82368300,42.497605
2014-03-06,532.789978,534.440002,528.099991,530.749985,46372200,71.853007
2010-12-22,324.360001,325.720005,323.549995,325.159992,66480400,42.31023
2011-01-20,336.429996,338.299999,330.119999,332.680004,191197300,43.288743
2007-01-16,95.68,97.250003,95.450002,97.099999,311019100,12.634775
2013-01-09,522.500023,525.009987,515.990021,517.100006,101901100,67.88324
2014-03-21,531.929985,533.75,526.330017,532.86998,93511600,72.140013
2008-04-11,152.719997,153.299997,146.40,147.140003,302519000,19.146043
2008-04-21,162.210001,168.499998,161.760004,168.160004,259788200,21.881192
2016-05-09,93.00,93.769997,92.589996,92.790001,32936400,91.81863
2015-06-16,127.029999,127.849998,126.370003,127.599998,31494100,123.730704
2007-02-01,86.229998,86.269999,84.739997,84.739997,166085500,11.026476
2012-03-09,544.209999,547.740013,543.110001,545.170021,104729800,70.938213
2011-08-18,370.839996,372.649998,361.370007,366.050007,212858800,47.63089
2012-01-23,422.669994,428.449993,422.299999,427.409996,76515600,55.615129
2014-04-21,525.339981,532.139977,523.959976,531.170021,45637200,71.909872
2009-01-26,88.859998,90.969999,88.299998,89.640002,173059600,11.66407
2016-04-20,106.639999,108.089996,106.059998,107.129997,30611000,105.366989
2016-06-16,96.449997,97.75,96.07,97.550003,31326800,96.528803
2007-10-25,184.869999,185.899996,181.660006,182.780005,243400500,23.783565
2009-03-20,102.09,103.109997,100.569999,101.590002,173896800,13.21902
2007-05-07,101.079997,104.349998,101.010002,103.920002,215389300,13.522202
2009-07-02,141.250002,142.829998,139.789995,140.02,92619800,18.21958
2013-04-25,411.23,413.939995,406.999996,408.380001,96209400,53.923267
2006-12-21,84.700003,85.48,82.199999,82.900002,225899800,10.787053
2011-08-03,390.980003,393.549995,382.23999,392.57,183127000,51.081705
2014-08-20,100.440002,101.089996,99.949997,100.57,52699000,96.315291
2016-10-04,113.059998,114.309998,112.629997,113.00,29736800,112.422796
2011-06-03,343.180004,345.330013,342.009991,343.44001,78312500,44.688849
2010-08-24,242.669987,243.000008,238.650002,239.930004,150641400,31.219996
2013-02-15,468.849983,470.160027,459.920006,460.160011,97936300,60.760397
2015-10-21,114.00,115.580002,113.699997,113.760002,41795200,110.809698
2012-07-11,606.119987,607.659996,597.220024,604.430016,117330500,78.649198
2014-07-08,96.269997,96.800003,93.919998,95.349998,65222000,90.864162
2015-09-29,112.830002,113.510002,107.860001,109.059998,73365400,106.231586
2012-06-05,561.269989,566.470001,558.330002,562.830025,97053600,73.236155
2015-08-20,114.080002,114.349998,111.629997,112.650002,68501600,109.728485
2016-06-24,92.910004,94.660004,92.650002,93.400002,75311400,92.422245
2009-02-04,93.219997,96.25,93.100001,93.549998,202105400,12.172844
2013-03-18,441.449997,457.459976,441.200005,455.720016,151549300,60.174132
2010-03-30,236.599995,237.479988,234.250008,235.849991,131827500,30.689099
2007-11-20,165.67,171.790007,163.530005,168.850006,385910700,21.970976
2012-10-22,612.419998,635.37999,610.759987,634.029999,136682700,82.855007
2012-07-19,611.279999,615.349998,605.999985,614.320015,109215400,79.936098
2010-03-19,224.790005,225.240002,221.230003,222.25,139861400,28.919451
2014-11-25,119.07,119.75,117.449997,117.599998,68840400,113.113186
2008-08-20,174.769995,176.940004,173.609995,175.840006,126737800,22.880524
2016-01-29,94.790001,97.339996,94.349998,97.339996,64416500,95.221398
2011-05-17,331.999989,336.140003,330.73,336.140003,113083600,43.738962
2008-11-17,88.480002,90.550003,87.260001,88.140001,290631600,11.468888
2008-09-23,131.85,135.799997,126.660002,126.840006,320091100,16.504582
2010-04-05,234.980011,238.509998,234.769993,238.489998,171126900,31.03262
2009-12-04,199.700005,199.879995,190.280003,193.320005,206721200,25.155044
2014-11-03,108.220001,110.300003,108.010002,109.400002,52282600,104.771731
2008-01-09,171.299995,179.499996,168.299994,179.399994,453470500,23.343754
2009-06-25,135.749996,140.200005,135.209997,139.859997,147361900,18.19876
2011-06-10,330.549995,331.660007,325.509987,325.900009,108488800,42.406522
2016-07-06,94.599998,95.660004,94.370003,95.529999,30949100,94.529945
2014-04-02,542.379997,543.479996,540.260002,542.549988,45105200,73.450494
2010-04-13,241.860008,242.800003,241.110004,242.430008,76552700,31.545299
2012-11-27,589.549995,590.419975,580.100006,584.780006,133332500,76.768055
2008-07-03,169.589996,172.170002,165.750002,170.119995,130840500,22.136229
2009-04-06,114.940001,118.749994,113.280003,118.450001,164516100,15.412864
2015-02-17,127.489998,128.880005,126.919998,127.830002,63152400,123.438122
2013-11-29,549.480026,558.330002,547.809975,556.069977,79531900,74.8329
2008-07-01,164.229994,174.719994,164.000002,174.680006,277820200,22.729583
2014-12-08,114.099998,114.650002,111.620003,112.400002,57664900,108.111585
2015-03-20,128.25,128.399994,125.160004,125.900002,68695100,121.574431
2011-04-11,334.060009,335.670006,330.019997,330.799988,99736700,43.044113
2014-03-17,527.699982,529.969994,525.850006,526.740013,49886200,71.310137
2013-02-08,474.000008,478.809998,468.250023,474.980003,158289600,62.717257
2015-01-28,117.629997,118.120003,115.309998,115.309998,146477100,110.910555
2014-06-06,649.900002,651.259979,644.470024,645.570023,87484600,87.885505
2011-06-23,318.94001,331.689995,318.119991,331.230011,139939800,43.100068
2015-08-10,116.529999,119.989998,116.529999,119.720001,54951600,116.615128
2010-06-10,244.839996,250.980003,242.199989,250.510006,194089000,32.596679
2009-09-24,187.199999,187.699997,182.770004,183.820002,137720100,23.918891
2009-10-23,205.699995,205.799997,203.230005,203.939995,105196700,26.53693
2015-11-17,114.919998,115.050003,113.32,113.690002,27616900,111.215547
2008-04-10,151.130001,155.420006,150.600002,154.549999,238940800,20.110241
2009-09-21,184.289999,185.160006,181.620005,184.020006,109428900,23.944916
2011-12-15,383.330002,383.739998,378.309994,378.939995,64050000,49.308152
2016-04-14,111.620003,112.389999,111.330002,112.099998,25473900,110.2552
2014-10-22,102.839996,104.110001,102.599998,102.989998,68263100,98.632909
2012-04-19,600.219986,604.729996,584.519974,587.439987,208679800,76.438434
2007-04-11,93.90,93.950001,92.329997,92.590003,137254600,12.047928
2010-11-05,317.990002,319.570011,316.75,317.130009,90313300,41.265358
2009-08-20,164.979998,166.719997,164.610003,166.330002,85507800,21.64307
2007-01-25,87.109998,88.500003,86.03,86.249998,226493400,11.222959
2013-04-26,409.809994,418.770012,408.250011,417.199989,191024400,55.087875
2012-04-10,639.93,644.00,626.000015,628.440018,222431300,81.77341
2008-01-28,128.159996,133.200005,126.449997,130.009998,368711000,16.917065
2008-09-26,124.910002,129.799994,122.999998,128.239998,281612800,16.686751
2008-11-14,93.760003,93.990002,89.999997,90.240003,351316700,11.742143
2009-11-06,192.51,195.189995,192.399998,194.340002,73774400,25.287767
2014-11-17,114.269997,117.279999,113.300003,113.989998,46746700,109.640918
2013-06-17,431.439995,435.700012,430.359997,432.000008,64853600,57.419657
2010-11-11,315.00,318.399998,314.249996,316.649998,90321000,41.202898
2015-07-13,125.029999,125.760002,124.32,125.660004,41440500,121.849537
2010-10-20,308.999996,314.249996,306.869987,310.529991,180406100,40.406555
2012-03-13,557.540024,568.18,555.750023,568.099998,172713800,73.921891
2009-02-26,92.000003,92.919997,88.96,89.189999,157467100,11.605515
2015-12-02,117.339996,118.110001,116.080002,116.279999,33386600,113.749172
2008-05-20,181.819996,186.160002,180.119997,185.899996,242462500,24.189543
2009-08-05,165.750002,167.389999,164.209993,165.110001,105795900,21.484322
2016-04-13,110.800003,112.339996,110.800003,112.040001,33257300,110.19619
2007-11-30,187.340002,187.699997,179.700001,182.220005,296950500,23.710698
2015-09-03,112.489998,112.779999,110.040001,110.370003,53233900,107.507617
2008-04-01,146.299997,149.659994,143.610003,149.530005,258141800,19.457033
2011-09-06,367.37001,380.330013,366.480003,379.740013,127424500,49.412251
2008-06-06,188.000004,189.949995,185.550001,185.640003,241605700,24.155712
2011-06-22,325.159992,328.899998,322.380009,322.610001,97645800,41.978421
2010-07-22,257.679996,259.999996,255.310009,259.02,161329700,33.70401
2012-11-12,554.149986,554.500008,538.649979,542.829994,128950500,71.260991
2012-03-12,548.979988,551.999977,547.000023,551.999977,101820600,71.826935
2015-10-05,109.879997,111.370003,109.07,110.779999,52064700,107.90698
2016-02-25,96.050003,96.760002,95.25,96.760002,27582700,95.16765
2007-12-21,190.119999,193.910006,189.889994,193.910006,248490200,25.231815
2013-07-09,413.599987,423.50,410.379993,422.349987,88146100,56.137017
2007-11-16,165.300005,167.020004,159.330002,166.390003,345873500,21.650878
2010-08-04,262.840008,264.279987,260.30999,262.980011,105093800,34.219292
2015-01-30,118.400002,120.00,116.849998,117.160004,83745500,112.689978
2013-07-17,429.700008,432.220013,428.220001,430.310009,49747600,57.19503
2015-07-09,123.849998,124.059998,119.220001,120.07,77821600,116.429042
2008-03-18,129.180006,133.00,128.669994,132.819996,301280000,17.282706
2012-02-06,458.379997,464.979988,458.20002,463.969978,62353200,60.372361
2011-10-19,401.349987,408.420002,397.799999,398.619991,276014900,51.868938
2013-02-04,453.909988,455.939995,441.999996,442.320004,119279300,58.06636
2009-03-16,96.53,97.389999,94.179999,95.420001,199311000,12.416171
2014-10-20,98.32,99.959999,98.220001,99.760002,77517300,95.539561
2013-10-07,486.559975,492.649994,485.350014,487.750015,78073100,65.257769
2009-04-03,114.189997,116.130001,113.519995,115.989998,159060300,15.092765
2011-07-21,386.950005,390.060009,383.900002,387.290012,131633600,50.394666
2014-01-13,529.910019,542.50,529.880005,535.730019,94623200,72.095658
2016-07-13,97.410004,97.669998,96.839996,96.870003,25892200,95.855921
2010-11-01,302.220001,305.599998,302.200001,304.179993,105972300,39.580285
2010-03-09,218.310003,224.999996,217.889994,223.020004,230064800,29.019645
2008-01-02,199.269995,200.260004,192.550001,194.84,269794700,25.352827
2011-09-27,408.729996,409.250008,398.060005,399.260006,158124400,51.952217
2007-09-05,144.969994,145.84,136.100004,136.760006,582055600,17.795385
2012-08-08,619.389984,623.88002,617.099998,619.860008,61176500,80.656968
2016-09-13,107.510002,108.790001,107.239998,107.949997,62176200,107.398588
2011-09-08,382.399994,388.609989,382.310005,384.140007,104039600,49.984784
2015-12-21,107.279999,107.370003,105.57,107.330002,47590600,104.993971
2011-11-10,397.029995,397.209999,382.150002,385.220005,186188100,50.125314
2012-03-23,600.490005,601.799995,594.399986,596.050011,107622200,77.558781
2011-10-21,398.100006,399.140003,390.750011,392.870007,155311100,51.120742
2009-10-13,190.629997,191.169996,189.700003,190.019997,87005100,24.725642
2014-10-02,99.269997,100.220001,98.040001,99.900002,47757800,95.673637
2013-10-30,519.610023,527.520004,517.020004,524.900024,88540900,70.228197
2009-05-22,124.049995,124.179998,121.749996,122.50,74499600,15.939855
2007-11-12,165.280005,167.700006,150.630003,153.759995,442266300,20.007445
2010-12-29,326.21999,326.450008,325.099991,325.290009,40784800,42.327147
2009-01-05,93.170003,96.179998,92.709999,94.580002,295402100,12.306869
2014-02-07,521.379997,522.929993,517.380013,519.679985,92570100,70.354349
2010-12-28,325.909996,326.66,325.05999,325.470013,43981000,42.35057
2014-06-18,92.269997,92.290001,91.349998,92.18,33514000,87.843299
2008-06-16,171.299995,177.90,169.069998,176.840002,262932600,23.010645
2007-10-08,163.490004,167.909998,162.970005,167.909998,208982200,21.848661
2007-12-27,198.950001,202.959999,197.800001,198.570005,198881900,25.83818
2014-03-20,529.889992,532.669975,527.350014,528.700005,52099600,71.575481
2010-08-12,246.689999,253.099998,246.119999,251.790009,133730100,32.763234
2016-11-04,108.529999,110.25,108.110001,108.839996,30837000,108.839996
2009-12-14,195.369999,197.430006,192.560001,196.979996,123947600,25.631286
2011-07-11,356.340012,359.769997,352.820011,354.000011,110668600,46.062929
2011-10-07,375.780003,377.739994,368.490009,369.799999,133864500,48.118844
2015-04-28,134.460007,134.539993,129.570007,130.559998,118924000,126.074323
2010-01-04,213.429998,214.499996,212.380001,214.009998,123432400,27.847252
2013-07-29,440.799995,449.990005,440.200008,447.790009,62014400,59.518399
2011-07-25,390.350002,399.999996,389.619999,398.499989,147451500,51.853323
2009-03-27,108.23,108.530001,106.399999,106.850002,123218200,13.903457
2009-05-15,122.319996,124.619995,121.610006,122.419998,91891800,15.929445
2012-01-09,425.499992,427.750004,421.349991,421.73,98506100,54.876041
2007-03-30,94.280002,94.679997,92.75,92.909997,150139500,12.089566
2011-09-22,401.030006,409.820007,396.700001,401.820011,242120200,52.285328
2013-11-18,524.990013,527.19001,518.200005,518.629974,61236000,69.794426
2015-03-09,127.959999,129.570007,125.059998,127.139999,88528500,122.771826
2010-10-08,291.709988,294.500011,289.999989,294.069988,164600800,38.264759
2012-06-21,585.439995,588.219978,577.440025,577.669991,81587800,75.16715
2007-01-11,95.94,96.779999,95.10,95.800003,360063200,12.465618
2014-07-31,97.160004,97.449997,95.330002,95.599998,56843000,91.1024
2009-08-04,164.929996,165.569998,164.209993,165.549997,98952700,21.541575
2010-09-24,292.10001,293.530003,290.549988,292.319988,162372000,38.037047
2007-01-22,89.139997,89.159998,85.649998,86.789997,363506500,11.293224
2009-07-31,162.990005,164.999998,162.910004,163.390001,105634200,21.260514
2007-11-06,187.049995,192.000002,185.269995,191.789997,238681800,24.955957
2012-06-11,587.719994,588.499985,570.62999,571.169975,147816200,74.32136
2011-05-12,346.119991,347.119987,342.269997,346.569988,80500000,45.096125
2015-08-24,94.870003,108.800003,92.00,103.120003,162206300,100.445641
2011-03-30,350.639988,350.879993,347.439995,348.630009,82351500,45.364178
2012-03-26,599.790016,607.150024,595.259979,606.97998,148935500,78.981003
2007-05-17,107.150002,109.869998,107.150002,109.440001,183822800,14.240471
2011-09-14,387.019993,392.209991,385.759991,389.299992,133681100,50.656207
2016-05-06,93.370003,93.449997,91.849998,92.720001,43458200,91.749363
2013-01-25,451.690018,456.229988,434.999996,439.880001,302006600,57.746044
2010-05-17,254.700008,256.179989,247.709995,254.219997,190708700,33.079428
2009-02-10,101.330003,102.510003,97.059999,97.830003,212265200,12.729764
2008-01-16,165.230003,169.009996,156.699995,159.639996,553461300,20.772558
2007-11-27,175.220005,175.790005,170.010006,174.809996,329257600,22.746498
2016-01-05,105.75,105.849998,102.410004,102.709999,55791000,100.474523
2012-09-27,664.290024,682.170006,660.350014,681.32,148522500,89.034862
2011-02-04,343.639988,346.700005,343.509998,346.50,80460100,45.087018
2013-01-29,458.50,460.200012,452.119987,458.269981,142789500,60.160222
2016-04-05,109.510002,110.730003,109.419998,109.809998,26578700,108.002885
2016-11-16,106.699997,110.230003,106.599998,109.989998,58702500,109.989998
2012-02-29,541.560005,547.610023,535.700005,542.440025,238002800,70.582982
2011-07-15,361.170002,364.999996,359.17001,364.919994,121116800,47.483851
2009-03-12,92.899997,96.580001,92.000003,96.350002,192114300,12.537184
2007-01-17,97.560003,97.599998,94.820001,94.949997,411565000,12.355014
2007-08-01,133.640001,135.380001,127.77,135.000006,437539200,17.566372
2016-05-12,92.720001,92.779999,89.470001,90.339996,76314700,89.394274
2009-03-17,95.239997,99.689999,95.07,99.659998,196661500,12.967885
2014-02-26,523.610008,525.00,515.599998,517.349998,69054300,70.038915
2009-04-01,104.089999,108.999998,103.890001,108.689998,147343000,14.14288
2016-02-18,98.839996,98.889999,96.089996,96.260002,39021000,94.675878
2008-10-09,93.35,95.800003,86.599999,88.740002,404345900,11.546961
2011-07-13,358.32999,359.999989,356.380013,358.019997,97909700,46.586015
2012-08-28,674.979988,676.100014,670.669983,674.800011,66854200,88.18283
2009-09-04,167.279997,170.699995,167.090006,170.309999,93657200,22.160953
2008-02-05,130.429995,133.999996,128.90,129.359997,285260500,16.832486
2012-06-28,571.670013,574.00,565.610008,569.04998,70709100,74.045503
2007-01-08,85.959998,86.529998,85.280003,85.47,199276700,11.121465
2013-05-01,444.459999,444.929996,434.389996,439.290001,126727300,58.004681
2009-02-19,93.370001,94.250001,90.11,90.639998,230701100,11.794191
2015-12-01,118.75,118.809998,116.860001,117.339996,34852400,114.786099
2011-10-18,421.759987,424.80999,415.990002,422.239998,220400600,54.942403
2013-10-28,529.039986,530.999977,523.209999,529.880005,137610200,70.894486
2015-07-24,125.32,125.739998,123.900002,124.50,42162300,120.724709
2010-12-07,323.799988,323.990005,318.119991,318.210007,97863500,41.405889
2011-11-25,368.419994,371.14999,363.320011,363.570004,63690200,47.308189
2009-07-28,158.880005,160.100006,157.600002,160.000004,90888700,20.819403
2013-10-04,483.859993,484.599983,478.600006,483.030014,64717100,64.626263
2015-10-14,111.290001,111.519997,109.559998,110.209999,44462400,107.351763
2012-11-05,583.520004,587.769981,577.599976,584.620003,132283900,76.398112
2014-03-28,538.319984,538.940025,534.249985,536.859978,50141000,72.680179
2013-11-19,519.029984,523.37999,517.969986,519.549995,52234700,69.918238
2008-02-19,125.99,126.750004,121.440002,122.180006,251261500,15.898217
2009-05-27,131.779999,134.980005,130.910006,133.050001,161605500,17.312634
2008-11-06,101.050003,102.780003,98.00,99.099998,329768600,12.895017
2011-07-29,387.640007,395.150005,384.000004,390.479992,158146100,50.809751
2009-10-05,186.200003,186.860004,184.269999,186.019999,105783300,24.205158
2013-09-03,493.099991,500.599976,487.350006,488.579994,82982200,65.368814
2007-04-18,90.160001,90.850003,89.600001,90.40,116011000,11.762962
2016-03-24,105.470001,106.25,104.889999,105.669998,26133000,103.931016
2008-08-22,175.820005,177.500004,175.57,176.790001,109902800,23.004139
2011-11-03,399.069988,403.399994,395.359997,403.07,110346600,52.447978
2016-03-11,102.239998,102.279999,101.50,102.260002,27408200,100.577138
2007-02-02,84.120003,85.250002,83.70,84.749997,155382500,11.027777
2008-12-19,89.940002,90.939999,88.800003,89.999997,200480000,11.710913
2008-10-27,95.07,97.629998,91.86,92.089998,302192800,11.982867
2015-06-17,127.720001,127.879997,126.739998,127.300003,32918100,123.439806
2009-03-05,90.460001,91.87,88.450002,88.839997,176724800,11.559973
2009-12-07,193.320005,193.770002,188.680006,188.949999,178689700,24.586413
2009-11-19,204.609997,204.609997,199.799994,200.509996,135581600,26.090614
2012-01-24,425.10001,425.10001,419.550003,420.409996,136909500,54.704281
2007-07-03,122.000002,127.400005,121.500004,127.17,290620400,16.547521
2015-01-08,109.230003,112.150002,108.699997,111.889999,59364500,107.621041
2016-05-27,99.440002,100.470001,99.25,100.349998,36229500,99.299486
2008-07-25,160.40,163.000006,158.65,162.119999,158409300,21.095259
2012-09-12,666.849976,669.899979,656.000008,669.790016,178058300,87.528124
2016-04-22,105.010002,106.480003,104.620003,105.68,33683100,103.940854
2008-02-14,129.399998,130.800003,127.009996,127.459993,238524300,16.585256
2013-04-24,393.540009,415.250011,392.500011,405.459988,242412800,53.537703
2013-10-10,491.319977,492.379974,487.039986,489.639992,69650700,65.510635
2014-06-30,92.099998,93.730003,92.089996,92.93,49482300,88.558015
2014-09-25,100.510002,100.709999,97.720001,97.870003,100092000,93.72952
2009-06-29,143.459999,143.949997,141.539995,141.970005,141904000,18.473317
2008-03-05,123.579998,125.139994,122.249994,124.490005,305459000,16.198797
2012-11-14,545.500015,547.45002,536.180016,536.880005,119292600,70.479895
2008-02-12,130.700001,130.999994,123.619999,124.860001,306495000,16.246941
2014-12-11,112.260002,113.800003,111.339996,111.620003,41401700,107.361346
2013-07-18,433.380013,434.870007,430.609989,431.760002,54719700,57.387757
2009-09-02,164.620003,167.610004,164.110004,165.180002,91062300,21.493431
2007-07-26,145.910002,148.499994,136.959997,146.000004,546657300,18.997705
2009-07-13,139.540003,142.34,137.529997,142.34,120875300,18.521461
2016-10-03,112.709999,113.050003,112.279999,112.519997,21701800,111.945245
2008-01-29,131.149998,132.789995,129.050003,131.540007,274995700,17.116152
2011-11-15,380.800011,389.499996,379.449993,388.829994,107702700,50.595051
2012-10-03,664.860023,671.860023,662.630013,671.449974,106070300,87.745048
2012-11-13,538.910011,550.479996,536.359993,542.900009,133237300,71.270182
2014-02-25,529.38002,529.569984,521.000015,522.060013,57988000,70.676558
2013-07-30,449.959991,457.150009,449.229988,453.320015,77355600,60.253425
2007-05-16,108.530001,108.830001,103.419997,107.34,281691900,13.967217
2011-12-22,397.000008,399.12999,396.099987,398.550003,50589700,51.859831
2016-07-26,96.82,97.970001,96.419998,96.669998,56239800,95.65801
2015-03-23,127.120003,127.849998,126.519997,127.209999,37709700,122.839421
2007-03-05,85.890003,88.65,85.76,86.32,209724900,11.232068
2016-07-14,97.389999,98.989998,97.32,98.790001,38919000,97.755819
2015-06-03,130.660004,130.940002,129.899994,130.119995,30889400,126.174285
2008-12-30,87.419998,88.049999,84.720003,86.289999,241900400,11.228164
2015-03-25,126.540001,126.82,123.379997,123.379997,51655200,119.141007
2007-09-14,136.570002,138.980003,136.200006,138.809999,151830000,18.062133
2012-03-15,599.609985,600.009995,578.550011,585.559998,289929500,76.193808
2013-03-28,449.820015,451.820007,441.619987,442.660011,110709900,58.449664
2014-03-04,530.999977,532.640015,527.769997,531.239983,64785000,71.919343
2013-05-02,441.779991,448.589973,440.630005,445.519997,105457100,58.827302
2012-01-17,424.199989,425.98999,422.959988,424.700001,60724300,55.262501
2014-08-08,94.260002,94.82,93.279999,94.739998,41865000,90.731933
2015-10-30,120.989998,121.220001,119.449997,119.50,49365300,116.400832
2013-10-31,525.00,527.48999,521.269981,522.699974,68924100,69.933845
2016-06-17,96.620003,96.650002,95.300003,95.330002,61008200,94.332041
2011-10-26,401.76001,402.549988,393.150013,400.60001,114076200,52.12658
2015-11-06,121.110001,121.809998,120.620003,121.059998,33042300,118.425135
2016-02-16,95.019997,96.849998,94.610001,96.639999,49057900,95.049622
2009-07-27,160.169994,160.879997,157.259995,160.100006,108327800,20.832415
2007-10-04,157.999998,158.08,153.500002,156.239998,164239600,20.330146
2012-12-19,531.470001,533.700012,525.499985,526.30999,112342300,69.092298
2008-11-24,85.210001,94.79,84.839999,92.949998,360564400,12.094771
2012-08-10,618.710022,621.760025,618.699982,621.699997,48734700,81.243723
2010-09-09,265.040005,266.520012,262.92001,263.07,109643800,34.231001
2011-05-11,349.020004,350.00,345.239998,347.230003,84000000,45.182007
2015-03-26,122.760002,124.879997,122.599998,124.239998,47572900,119.971461
2016-03-22,105.25,107.290001,105.209999,106.720001,32444400,104.96374
2008-07-10,174.919998,177.34,171.369997,176.629997,210172200,22.983319
2007-10-15,167.98,169.569996,163.500004,166.980003,269482500,21.727649
2014-02-03,502.610008,507.730019,499.300026,501.529984,100366000,67.493202
2015-09-24,113.25,115.50,112.370003,115.00,50219500,112.017537
2014-02-12,536.95002,539.560013,533.239975,535.919983,77025200,72.552923
2007-05-15,109.569998,110.199999,106.48,107.519998,238628600,13.990638
2011-08-09,361.299992,374.609989,355.000008,374.010002,270645900,48.666655
2013-05-16,423.239994,437.849995,418.900002,434.580013,150801000,57.762581
2008-07-09,180.199999,180.910002,174.139994,174.249996,223944000,22.67363
2008-01-18,161.710003,165.750002,159.609995,161.359995,431085900,20.996367
2016-07-22,99.260002,99.300003,98.309998,98.660004,28313700,97.627183
2009-10-20,200.599998,201.749998,197.850002,198.759996,285259800,25.862902
2010-05-26,250.080009,252.12999,243.750011,244.109993,212663500,31.763901
2012-03-14,578.050026,594.719994,575.399979,589.580009,354711000,76.716897
2013-08-28,486.000015,495.800026,486.000015,490.899994,76902000,65.679215
2011-04-25,350.340008,353.749992,350.300007,353.010002,66636500,45.934108
2009-11-02,189.800005,192.879995,185.570002,189.309994,169745800,24.633256
2009-12-01,202.239996,202.769995,196.830006,196.969995,116440800,25.629985
2007-05-11,107.740003,109.130001,106.780001,108.739999,163424100,14.149386
2016-06-07,99.25,99.870003,98.959999,99.029999,22409500,97.993305
2008-01-23,136.190006,140.00,126.140003,139.070005,843242400,18.095965
2013-10-15,497.510025,502.000008,495.52002,498.679985,80018400,66.720127
2014-06-04,637.44001,647.890022,636.109993,644.819992,83870500,87.783398
2008-01-10,177.580006,181.000004,175.409996,178.020002,370743800,23.164188
2013-10-24,525.00,532.470024,522.449982,531.910011,96191200,71.166088
2008-01-30,131.370003,135.450003,129.999998,132.179995,310762900,17.199428
2015-06-18,127.230003,128.309998,127.220001,127.879997,35407200,124.002212
2014-10-15,97.970001,99.150002,95.18,97.540001,100933600,93.413479
2014-12-16,106.370003,110.160004,106.260002,106.75,60790700,102.677149
2011-05-06,349.690006,350.00,346.210007,346.660004,70033600,45.107838
2016-10-24,117.099998,117.739998,117.00,117.650002,23538700,117.049045
2016-02-02,95.419998,96.040001,94.279999,94.480003,37357200,92.423652
2012-05-01,584.900009,596.759987,581.230019,582.130013,152749800,75.747494
2011-06-02,346.50,347.980007,344.300003,346.099991,84695800,45.034969
2012-08-27,679.989983,680.870003,673.540009,675.679977,106752100,88.297824
2014-10-28,105.400002,106.739998,105.349998,106.739998,48060900,102.224261
2012-12-10,525.00,538.510002,521.580002,529.819977,157621100,69.553077
2008-11-10,100.170003,100.400002,94.50,95.879998,280955500,12.476027
2007-10-30,186.180002,189.369995,184.729996,186.999994,234853500,24.332676
2009-07-23,156.629993,158.439995,155.559996,157.819994,131740700,20.535737
2014-11-20,114.910004,116.860001,114.849998,116.309998,43395500,111.872402
2014-02-21,532.789978,534.569992,524.599991,525.249992,69696200,71.108418
2011-10-27,407.560009,408.999989,401.889999,404.69001,123666200,52.658776
2008-11-04,109.990001,111.790002,106.669998,110.989997,349670300,14.442159
2008-10-30,108.23,112.190004,107.61,111.039998,409522400,14.448665
2009-01-16,84.30,84.380002,80.399998,82.330002,261906400,10.712884
2007-05-22,112.489998,113.75,112.01,113.539995,143102400,14.773968
2007-06-19,124.689997,125.010004,122.909996,123.66,235756500,16.090796
2012-11-16,525.200005,530.000008,505.75,527.680008,316723400,69.272149
2012-02-21,506.880013,514.850021,504.120003,514.850021,151398800,66.992936
2010-04-01,237.41,238.730003,232.75,235.969994,150786300,30.704714
2009-12-02,198.960001,201.420004,195.749994,196.230005,178815000,25.533697
2007-10-12,163.010006,167.279997,161.800005,167.249996,247044000,21.762781
2008-11-11,94.81,97.170001,92.260002,94.77,306134500,12.331592
2015-09-04,108.970001,110.449997,108.510002,109.269997,49996300,106.436139
2016-08-11,108.519997,108.93,107.849998,107.93,27484500,107.378694
2009-02-27,87.930003,91.30,87.669997,89.310001,176664600,11.62113
2016-03-17,105.519997,106.470001,104.959999,105.800003,34420700,104.058882
2008-12-16,93.980001,96.479999,92.75,95.430001,273376600,12.417472
2013-05-07,464.970001,465.749992,453.699997,458.660004,120938300,60.562333
2015-04-17,125.550003,126.139999,124.459999,124.75,51957000,120.463941
2009-03-19,101.850001,103.199999,100.249998,101.620003,125045200,13.222923
2006-12-22,83.460001,84.040001,81.599998,82.199999,153325900,10.695968
2007-11-13,160.849997,170.980001,153.759995,169.960005,434861700,22.115411
2015-10-09,110.00,112.279999,109.489998,112.120003,52766100,109.212231
2013-10-23,519.000023,525.669975,519.000023,524.959999,78430800,70.236222
2010-08-10,259.850006,260.449993,257.550007,259.409996,112980000,33.754757
2010-06-11,248.230007,253.859989,247.369987,253.509995,136439800,32.987041
2010-02-10,195.889997,196.60,194.26,195.120007,92590400,25.389262
2016-10-10,115.019997,116.75,114.720001,116.050003,36236000,115.45722
2016-03-03,100.580002,101.709999,100.449997,101.50,36955700,99.829643
2012-02-17,503.109993,507.77002,500.299995,502.12001,133951300,65.336491
2015-10-01,109.07,109.620003,107.309998,109.580002,63929100,106.738104
2013-03-11,429.749996,439.009995,425.140011,437.869995,118559000,57.817181
2015-12-04,115.290001,119.25,115.110001,119.029999,57777000,116.439319
2011-07-08,353.339996,359.999989,352.199997,359.709995,122408300,46.80592
2015-05-06,126.559998,126.75,123.360001,125.010002,72141000,120.71501
2007-04-25,94.23,95.400001,93.799997,95.349999,296786000,12.407063
2015-10-26,118.080002,118.129997,114.919998,115.279999,66333800,112.290275
2007-01-31,84.86,85.999999,84.350001,85.73,214017300,11.155296
2007-05-23,114.020006,115.000002,112.59,112.889994,227843700,14.689389
2014-09-24,102.160004,102.849998,101.199997,101.75,60171800,97.44537
2010-02-16,201.940002,203.690002,201.520006,203.399996,135934400,26.466665
2007-11-08,186.67,186.900005,167.769995,175.469997,472594500,22.832378
2014-09-16,99.800003,101.260002,98.889999,100.860001,66908100,96.593023
2014-08-01,94.900002,96.620003,94.809998,96.129997,48511000,91.607465
2015-05-19,130.690002,130.880005,129.639999,130.070007,44633200,126.125813
2014-10-29,106.650002,107.370003,106.360001,107.339996,52687900,102.798876
2011-08-25,365.079998,375.450008,364.999996,373.720009,217836500,48.62892
2014-05-29,627.849991,636.87001,627.769989,635.37999,94118500,86.498271
2012-05-10,574.579987,575.87999,568.43998,570.519974,83300000,74.236781
2015-11-11,116.370003,117.419998,115.209999,116.110001,45218000,113.582874
2015-04-24,130.490005,130.630005,129.229996,130.279999,44525900,125.803944
2008-06-20,179.350006,181.000004,175.00,175.270006,222091800,22.806355
2010-06-03,265.180008,265.550003,260.409992,263.119987,162526700,34.237506
2014-01-21,540.990005,550.07,540.420006,549.069977,82131700,73.890878
2012-07-23,594.399986,605.900009,587.710007,603.830002,121993900,78.571124
2015-02-09,118.550003,119.839996,118.43,119.720001,38889800,115.606758
2015-01-02,111.389999,111.440002,107.349998,109.330002,53204600,105.158716
2008-10-21,96.950003,97.899998,91.159997,91.489998,548415000,11.904794
2011-12-02,389.82999,393.629997,388.580002,389.700001,94763900,50.708257
2012-10-08,646.880013,647.559975,636.109993,638.170013,159498500,83.396024
2013-08-07,463.799988,467.000008,461.769981,464.979988,74714500,61.80322
2016-02-03,95.00,96.839996,94.080002,96.349998,45964300,94.252947
2007-03-14,88.599998,89.999997,87.920003,89.999997,199146500,11.710913
2014-08-07,94.93,95.949997,94.099998,94.480003,46711000,90.482937
2009-05-01,125.799995,127.950005,125.799995,127.240002,99379000,16.55663
2008-04-17,154.170004,156.000006,153.349998,154.489998,176066800,20.102434
2012-09-20,699.159981,700.059975,693.619987,698.699997,84142100,91.306079
2010-02-25,197.380005,202.859997,196.889994,202.000004,166281500,26.284496
2014-04-23,529.060013,531.13002,524.449974,524.750008,98735000,71.04073
2015-09-15,115.93,116.529999,114.419998,116.279999,43341200,113.26434
2015-03-27,124.57,124.699997,122.910004,123.25,39546200,119.015476
2009-07-17,149.079994,152.019995,148.629997,151.750002,150538500,19.745902
2007-09-06,135.560005,137.569998,132.709993,135.010006,475315400,17.567673
2013-08-09,458.639977,460.459991,453.650009,454.449974,66716300,60.80244
2010-07-01,254.299999,254.800011,243.220013,248.48,255724000,32.332532
2016-09-26,111.639999,113.389999,111.550003,112.879997,29869400,112.303406
2016-09-06,107.900002,108.300003,107.510002,107.699997,26880400,107.149865
2012-04-03,627.300018,632.209984,622.510002,629.319984,208639900,81.887913
2012-06-06,567.770004,573.849983,565.499992,571.460022,100363900,74.359101
2016-05-19,94.639999,94.639999,93.57,94.199997,30442100,93.213866
2016-04-26,103.910004,105.300003,103.910004,104.349998,56016200,102.632739
2016-04-08,108.910004,109.769997,108.169998,108.660004,23581700,106.871816
2014-01-10,539.829979,540.799988,531.109993,532.939995,76244000,71.720191
2013-12-06,565.789986,566.750008,559.569977,560.019974,86088100,75.364469
2015-12-11,115.190002,115.389999,112.849998,113.18,46886200,110.716645
2010-09-02,251.26001,252.169991,248.569988,252.169991,103856900,32.812678
2011-03-08,354.909992,357.400009,352.250011,355.759998,89079200,46.291941
2011-11-18,378.919994,379.990005,374.880009,374.94001,92984500,48.787668
2012-12-27,513.539978,516.25,504.659988,515.060013,113780100,67.615436
2009-07-22,157.790007,158.730001,156.109995,156.739996,218526000,20.395207
2007-08-09,131.109997,133.00,125.090006,126.389996,281348900,16.446026
2009-06-12,138.809999,139.100006,136.040003,136.969997,140771400,17.822709
2009-09-16,177.990002,182.750004,177.879999,181.869997,188505800,23.665154
2015-06-11,129.179993,130.179993,128.479996,128.589996,35390900,124.690682
2011-09-30,387.119995,388.889996,381.179993,381.319996,136910200,49.61784
2009-10-12,191.020006,191.510004,189.640001,190.810001,72006200,24.828439
2016-01-27,96.040001,96.629997,93.339996,93.419998,133369700,91.386718
2007-01-10,94.749999,97.800002,93.450003,96.999997,738220000,12.621762
2011-12-16,380.360001,384.149994,379.569996,381.019989,105369600,49.578803
2012-06-25,577.299995,579.800026,570.37001,570.77002,76095600,74.269317
2015-10-19,110.800003,111.75,110.110001,111.730003,29759200,108.832346
2010-08-11,255.399998,255.689991,249.80999,250.189999,155013600,32.555039
2016-07-01,95.489998,96.470001,95.330002,95.889999,26026500,94.886177
2008-10-20,99.780001,100.03,93.64,98.439997,387292500,12.809137
2015-08-13,116.040001,116.400002,114.540001,115.150002,48535800,112.163649
2011-10-10,379.090012,388.809994,378.209991,388.809994,110628700,50.592448
2016-07-20,100.00,100.459999,99.739998,99.959999,26276000,98.91357
2012-05-29,570.900009,574.00,565.309975,572.269974,95127200,74.464493
2007-10-03,157.780006,159.179998,157.010002,157.919996,173129600,20.54875
2012-01-12,422.279999,422.900013,418.750011,421.389992,53146800,54.831799
2011-09-07,385.560013,385.599987,382.000011,383.929989,87644200,49.957456
2013-06-13,432.499992,437.139992,428.75,435.959991,71458100,57.946002
2008-11-26,89.920002,95.249997,89.85,94.999998,224959000,12.36152
2012-11-09,540.420006,554.87999,533.719986,547.059998,232478400,71.816292
2015-09-18,112.209999,114.300003,111.870003,113.449997,74285300,110.507733
2010-10-21,312.359993,314.739994,306.799999,309.520008,137865000,40.275135
2007-02-22,90.800002,90.810002,88.529997,89.509999,209556200,11.647154
2013-05-06,455.709976,462.200005,454.309998,460.709984,124160400,60.833016
2009-09-14,170.829998,173.900002,170.249998,173.719997,80502800,22.604666
2014-03-03,523.419991,530.650009,522.80999,527.76001,59695300,71.448224
2010-10-29,304.230007,305.880005,300.87001,300.98,107627800,39.163898
2008-11-12,92.429999,93.239998,90.009997,90.12,294744100,11.726528
2007-03-08,88.589998,88.720001,87.459999,87.999998,127752800,11.450671
2014-06-09,92.699997,93.879997,91.75,93.699997,75415000,89.291786
2015-11-09,120.959999,121.809998,120.050003,120.57,33871400,117.945802
2008-07-18,168.519999,169.649998,164.999998,165.150002,217103600,21.489527
2010-01-27,206.849995,210.58,199.530001,207.880005,430642100,27.049609
2014-03-10,528.360023,533.330017,528.339996,530.919975,44646000,71.876021
2010-06-17,270.599998,272.899998,269.50,271.869987,218213800,35.376067
2015-10-13,110.82,112.449997,110.68,111.790001,33049300,108.890788
2010-02-22,202.339998,202.500002,199.190006,200.419994,97640900,26.078903
2010-07-12,258.530003,261.849998,254.860012,257.290001,140719600,33.4789
2013-08-21,503.590004,507.149979,501.199989,502.360016,83969900,67.212491
2008-12-09,98.040001,103.600001,97.210002,100.06,300874000,13.019934
2009-05-20,127.629997,129.209993,125.299997,125.869997,97146000,16.378363
2015-03-04,129.100006,129.559998,128.320007,128.539993,31666300,124.12372
2011-10-11,392.57,403.179989,391.499989,400.289989,151421900,52.08624
2014-12-12,110.459999,111.870003,109.580002,109.730003,56028100,105.543456
2008-07-14,179.240004,179.300005,173.079996,173.880001,221513600,22.625486
2007-07-30,144.330006,145.450005,139.570004,141.430006,276747100,18.403051
2010-10-22,309.070011,310.039993,306.299988,307.470001,93194500,40.008386
2015-01-29,116.32,119.190002,115.559998,118.900002,84436400,114.363589
2012-05-07,561.500008,572.770012,561.229988,569.480003,115029600,74.101459
2013-02-05,444.050003,459.739975,442.220001,457.840012,143336900,60.103777
2008-04-24,165.340006,169.980005,159.189999,168.939995,424016600,21.982686
2007-07-12,133.850006,134.240002,132.389999,134.069998,176152200,17.445358
2010-08-19,252.839993,253.480007,248.680004,249.880005,106676500,32.514702
2014-11-14,113.150002,114.190002,111.209999,114.18,44063600,109.823671
2015-02-06,120.019997,120.25,118.449997,118.93,43706600,114.8439
2008-09-17,138.490005,138.510006,127.830002,127.830002,300113800,16.633402
2015-07-14,126.040001,126.370003,125.040001,125.610001,31768100,121.80105
2008-08-18,175.57,177.809998,173.82,175.389996,138003600,22.821968
2010-09-17,277.689987,277.960007,273.679989,275.369987,158619300,35.831491
2009-11-27,199.219994,202.959999,198.370001,200.589998,73814300,26.101024
2009-05-19,126.820005,129.309996,125.739994,127.450006,93105600,16.583956
2006-12-07,90.029998,90.500002,86.90,87.040003,251206900,11.325755
2008-06-10,180.510006,186.780003,179.019999,185.640003,285235300,24.155712
2009-04-14,119.57,120.17,117.25,118.309998,113655500,15.394647
2015-11-13,115.199997,115.57,112.269997,112.339996,45812400,109.894924
2010-06-16,261.099995,267.75,260.629997,267.249989,195919500,34.774907
2015-10-12,112.730003,112.75,111.440002,111.599998,30467200,108.705713
2008-11-28,94.699998,94.759999,91.86,92.669998,74443600,12.058337
2006-12-20,86.470003,86.670001,84.739997,84.759997,141922900,11.029078
2012-11-20,571.910019,571.95002,554.580009,560.909981,160688500,73.634474
2016-08-24,108.57,108.75,107.68,108.029999,23675100,107.478182
2011-10-03,380.369987,382.639999,373.17001,374.600002,167274800,48.743426
2016-06-14,97.32,98.480003,96.75,97.459999,31931900,96.439741
2007-01-18,92.099998,92.109999,89.050002,89.070003,591151400,11.589901
2014-12-19,112.260002,113.239998,111.660004,111.779999,88429800,107.515237
2014-11-13,111.800003,113.449997,111.599998,112.82,59522900,108.515559
2013-09-20,477.999992,478.550018,465.999985,467.410004,174825700,62.536408
2011-01-28,344.169987,344.400005,333.53001,336.100002,148014300,43.733758
2007-10-22,170.35,174.899998,169.960005,174.359999,412374900,22.687944
2011-03-17,336.830006,339.609989,330.660011,334.639996,164855600,43.54378
2012-03-20,599.51001,606.899979,591.480026,605.959984,204165500,78.84828
2009-10-09,188.969999,190.699999,188.620005,190.469994,73318000,24.784197
2012-08-15,631.300003,633.999985,627.750015,630.829979,64335600,82.436829
2007-07-31,142.970001,143.48,131.520006,131.759998,440598200,17.144778
2012-11-21,564.249977,567.369995,556.599976,561.700012,93250500,73.738187
2007-10-10,167.550003,167.879997,165.599998,166.789999,166897500,21.702926
2014-08-18,98.489998,99.370003,97.980003,99.160004,47572000,94.964946
2010-04-27,267.269989,267.839989,260.520008,262.039989,177335900,34.096975
2007-08-22,131.219999,132.749994,130.330006,132.510002,265441400,17.242369
2009-11-16,205.480003,207.999994,205.010006,206.630003,121301600,26.886957
2012-02-28,527.960014,535.410011,525.850006,535.410011,150096800,69.668228
2011-03-24,341.849987,345.999989,338.860012,344.970005,101178000,44.887933
2010-11-19,307.970013,308.400009,305.23999,306.730011,96210800,39.912097
2012-11-15,537.530006,539.499985,522.620026,525.619987,197477700,69.001716
2007-08-27,133.389996,134.659998,132.100006,132.249996,176859900,17.208537
2009-08-18,161.630001,164.239994,161.409996,164.000002,107788100,21.339888
2016-10-12,117.349998,117.980003,116.75,117.339996,37586800,116.740624
2016-03-14,101.910004,102.910004,101.779999,102.519997,25076100,100.832853
2007-04-04,94.939997,95.140001,94.129998,94.270001,119196000,12.266532
2010-04-30,269.310009,270.570011,260.999992,261.090008,135615900,33.973362
2015-01-12,112.599998,112.629997,108.800003,109.25,49650800,105.081766
2008-10-28,95.430001,100.499997,92.369998,99.909997,408533300,13.000415
2007-07-24,138.880001,140.999996,134.15,134.890003,448823200,17.552058
2013-05-03,451.309982,453.230026,449.149986,449.980019,90325200,59.416211
2009-06-18,136.110004,137.999994,135.590006,135.879999,106920100,17.680877
2015-03-31,126.089996,126.489998,124.360001,124.43,42090600,120.154935
2009-07-20,153.269997,155.039997,150.889996,152.910002,183881600,19.896843
2010-07-20,242.900005,252.899994,240.010006,251.890011,268737700,32.776247
2012-09-26,668.740005,672.690002,661.20002,665.179977,144125800,86.925685
2013-01-30,456.999992,462.600014,454.500015,456.830002,104288800,59.971186
2009-02-12,95.829997,99.75,95.829997,99.270002,204297100,12.917138
2010-08-26,245.449997,245.750004,240.279999,240.279999,116626300,31.265537
2014-02-14,542.469986,545.980026,541.209984,543.990021,68231100,73.645445
2010-07-16,253.18,254.970001,248.410011,249.900005,259964600,32.517305
2015-09-23,113.629997,114.720001,113.300003,114.32,35756700,111.355172
2016-10-11,117.699997,118.690002,116.199997,116.300003,64041000,115.705943
2008-11-07,99.240002,99.850002,95.720001,98.239999,273813400,12.783113
2009-02-18,95.049999,95.849998,92.719999,94.369997,171194800,12.279543
2014-06-20,91.849998,92.550003,90.900002,90.910004,100898000,86.633051
2010-12-15,320.000008,322.999996,319.190002,320.359989,104328000,41.685647
2013-03-14,432.830013,434.639988,430.450012,432.499992,75968900,57.108116
2013-07-23,426.000004,426.959999,418.710011,418.98999,92348900,55.69042
2015-04-07,127.639999,128.119995,125.980003,126.010002,35012300,121.680653
2007-07-27,146.189995,148.920004,143.780006,143.849995,290274600,18.717943
2014-04-24,568.210014,570.000015,560.730003,567.770004,189977900,76.864783
2011-08-12,378.069988,379.640011,374.230007,376.98999,132244000,49.054414
2007-04-24,93.960001,96.390003,91.30,93.239998,263813200,12.132506
2015-12-07,118.980003,119.860001,117.809998,118.279999,32084200,115.705642
2014-05-20,604.510017,606.399994,600.730011,604.710022,58709000,82.322976
2015-06-23,127.480003,127.610001,126.879997,127.029999,30268900,123.177989
2012-07-30,590.920013,599.439995,587.820023,595.030014,94785600,77.426058
2015-10-08,110.190002,110.190002,108.209999,109.50,61979600,106.660177
2007-11-14,177.159996,177.570005,163.739996,166.109997,362292000,21.614443
2015-11-25,119.209999,119.230003,117.919998,118.029999,21388300,115.461084
2007-08-13,128.32,129.349997,126.499998,127.790001,188227900,16.628197
2009-12-10,199.50,199.700005,196.120003,196.429996,122417400,25.55972
2016-10-31,113.650002,114.230003,113.199997,113.540001,26419400,112.960039
2008-02-07,119.969995,124.779999,117.27,121.239998,520832900,15.775902
2010-02-19,201.860001,203.200005,201.109997,201.669996,103867400,26.241555
2007-02-27,86.299999,87.079997,83.41,83.929998,286453300,10.921078
2015-07-06,124.940002,126.230003,124.849998,126.00,28060400,122.179223
2008-04-07,156.129995,159.689997,155.109999,155.890003,289581600,20.284604
2015-01-20,107.839996,108.970001,106.50,108.720001,49899900,104.571988
2007-10-01,154.630001,157.409998,152.930002,156.34,209267100,20.343159
2007-02-26,89.84,89.999997,87.610003,88.510003,153962200,11.517034
2012-10-16,635.370003,650.300011,631.000023,649.789986,137442900,84.914522
2007-05-18,110.23,110.640002,109.770002,110.020001,155336300,14.315942
2008-08-04,156.600006,157.899996,152.910002,153.229996,148131900,19.938481
2007-08-24,130.529997,135.370001,129.809994,135.299999,227958500,17.605407
2013-02-12,479.509987,482.380013,467.739998,467.900002,152263300,61.7824
2012-06-07,577.290009,577.320023,570.50,571.720001,94941700,74.39293
2007-11-02,189.210005,189.439997,183.489994,187.870001,250528600,24.445882
2013-03-21,450.220024,457.979988,450.100021,452.729988,95813900,59.779323
2009-12-18,193.170002,195.500002,192.600002,195.43,152192600,25.429599
2007-01-26,87.109998,87.369997,84.990003,85.379998,246718500,11.109753
2013-09-09,505.000023,507.919983,503.479988,506.169983,85171800,67.72224
2008-06-23,174.739994,175.879993,171.560001,173.159998,161445200,22.531798
2008-03-11,124.099997,127.479994,122.000002,127.350004,290985800,16.570944
2014-10-13,101.330002,101.779999,99.809998,99.809998,53583400,95.587441
2010-07-28,263.669987,265.990013,260.249989,260.959991,129996300,33.956444
2014-09-23,100.599998,102.940002,100.540001,102.639999,63402200,98.297717
2007-04-12,92.039997,92.310003,90.72,92.190001,164168900,11.99588
2014-10-17,97.50,99.00,96.809998,97.669998,68179700,93.537976
2014-08-26,101.419998,101.50,100.860001,100.889999,33152000,96.621752
2009-01-07,91.809999,92.500001,90.260003,91.01,188262200,11.842336
2011-02-11,354.749989,357.799992,353.540001,356.85001,91893200,46.433775
2016-01-11,98.970001,99.059998,97.339996,98.529999,49739400,96.3855
2016-11-03,110.980003,111.459999,109.550003,109.830002,26932600,109.830002
2013-11-12,517.670006,523.919975,516.999977,520.009979,51069200,69.98014
2014-12-09,110.190002,114.300003,109.349998,114.120003,60208000,109.765963
2015-09-28,113.849998,114.57,112.440002,112.440002,52109000,109.523932
2016-05-18,94.160004,95.209999,93.889999,94.559998,42062400,93.570098
2013-12-03,558.299988,566.380013,557.68,566.319984,112742000,76.212291
2014-08-11,95.269997,96.080002,94.839996,95.989998,36585000,91.92905
2007-03-07,88.049999,88.97,87.449999,87.719998,156571100,11.414237
2010-07-29,260.709999,262.64999,256.099987,258.109993,160951700,33.585599
2012-01-27,444.339996,448.480011,443.769997,447.28001,74927300,58.200641
2012-04-04,624.349991,625.859985,617.000023,624.30999,143245200,81.236006
2007-12-12,193.439995,194.480005,185.760006,190.860003,306415200,24.834945
2016-10-28,113.870003,115.209999,113.449997,113.720001,37861700,113.13912
2015-01-06,106.540001,107.43,104.629997,106.260002,65797100,102.205846
2008-01-14,177.520004,179.419994,175.170004,178.780006,275112600,23.263081
2009-01-06,95.95,97.170001,92.389998,93.02,322327600,12.10388
2008-07-30,157.780006,160.490002,156.079994,159.880001,181295800,20.803788
2010-12-20,321.599991,323.249989,318.230007,322.209991,96402600,41.926372
2008-12-15,95.990001,96.209999,92.999999,94.749999,222939500,12.32899
2012-03-06,523.659996,533.690025,516.219986,530.259987,202559700,68.9981
2015-07-02,126.43,126.690002,125.769997,126.440002,27211000,122.605883
2016-02-26,97.199997,98.019997,96.580002,96.910004,28991100,95.315183
2012-05-31,580.740021,581.499985,571.460022,577.730019,122918600,75.174961
2013-01-08,529.209976,531.889984,521.250008,525.31002,114676800,68.961025
2013-02-27,448.430023,452.439995,440.650005,444.569988,146837600,58.701861
2009-04-27,122.899996,125.000004,122.660004,124.729998,120172500,16.230025
2016-08-09,108.230003,108.940002,108.010002,108.809998,26315200,108.254196
2016-03-02,100.510002,100.889999,99.639999,100.75,33169600,99.091985
2009-03-09,84.179997,87.600002,82.570001,83.11,174574400,10.814378
2010-03-08,220.010002,220.090004,218.250002,219.079994,107472400,28.506966
2010-05-11,251.839996,259.890007,250.499992,256.519997,212226700,33.378706
2008-07-02,175.200005,177.450003,168.180004,168.180004,209379800,21.883795
2006-11-27,92.510001,93.160003,89.499999,89.54,268709000,11.651058
2014-07-18,93.620003,94.739998,93.019997,94.43,49988000,89.987446
2012-07-16,605.120018,611.61998,605.019989,606.910019,75315100,78.971899
2014-11-07,108.75,109.32,108.550003,109.010002,33691500,104.850925
2011-04-18,326.099987,332.230007,320.160011,331.849998,152474700,43.180742
2011-06-07,338.17001,338.219997,331.900013,332.039989,132446300,43.205464
2012-12-06,528.94001,553.31002,518.629974,547.239975,294303100,71.839919
2015-09-11,111.790001,114.209999,111.760002,114.209999,49915500,111.248025
2016-09-09,104.639999,105.720001,103.129997,103.129997,46557000,102.603209
2010-11-29,315.500011,317.480003,311.379997,316.870003,111446300,41.231526
2013-12-26,568.099998,569.499977,563.379997,563.900009,51002000,75.886623
2008-04-22,167.40,168.00,158.09,160.199995,359893100,20.845426
2009-07-15,145.039995,147.00,144.320005,146.879997,121396800,19.112211
2016-08-25,107.389999,107.879997,106.68,107.57,25086200,107.020532
2014-01-30,502.539993,506.499977,496.70002,499.779984,169625400,67.257696
2010-04-22,258.240009,266.750004,256.199989,266.469997,198356200,34.673413
2010-11-02,307.000004,310.19001,307.000004,309.360004,108482500,40.254315
2012-12-05,568.910004,569.249985,538.769981,538.790009,261159500,70.730635
2012-09-11,665.110016,670.099983,656.499992,660.590019,125995800,86.325869
2011-03-14,353.179993,356.479988,351.30999,353.560001,108989300,46.005675
2009-02-06,97.019998,99.999999,96.999997,99.719999,171802400,12.975692
2010-01-22,206.780006,207.499996,197.16,197.75,220441900,25.73148
2015-07-01,126.900002,126.940002,125.989998,126.599998,30238800,122.761028
2012-09-04,665.760017,675.139992,664.500015,674.970001,91973000,88.205045
2007-12-20,185.429998,187.83,183.330004,187.209999,193514300,24.360002
2007-10-09,170.199997,171.110004,166.679996,167.859997,276071600,21.842155
2013-07-11,422.950001,428.249989,421.169987,427.289993,81573100,56.793622
2011-05-04,348.259987,351.830002,346.880009,349.570004,97312600,45.486491
2012-11-01,598.219994,603.000023,594.170021,596.540009,90324500,77.955817
2013-06-28,391.360012,400.269989,388.869995,396.53001,144629100,52.705132
2011-07-26,399.999996,404.499992,399.679989,403.410007,119145600,52.492221
2014-11-12,109.379997,111.43,109.370003,111.25,46942400,107.00546
2009-02-11,96.370003,98.31,95.770002,96.82,168743400,12.598341
2008-02-06,130.830004,131.920002,121.769997,122.000002,393318100,15.874795
2014-07-09,95.440002,95.949997,94.760002,95.389999,36436000,90.902281
2009-10-15,189.630001,190.920004,189.529999,190.559996,93389100,24.795908
2007-03-27,95.710001,96.83,94.999998,95.460002,233013200,12.421376
2010-02-26,202.379999,205.169996,202.000004,204.619997,126865200,26.625413
2012-09-18,699.879997,702.329987,696.419998,701.910004,93375800,91.725563
2008-03-13,124.099997,129.50,122.999998,127.940004,315525700,16.647715
2013-09-05,500.250008,500.679977,493.639977,495.269974,59091900,66.26389
2012-06-14,571.23999,573.500015,567.259979,571.529984,86393300,74.368205
2009-10-30,196.060001,196.800005,188.169994,188.500002,179381300,24.527859
2009-03-03,88.929999,90.740001,87.880002,88.37,181085100,11.498816
2013-11-01,524.020004,524.799995,515.840004,520.030006,68722500,69.576621
2009-08-31,168.160004,168.850006,166.500006,168.210005,77834400,21.887699
2007-04-17,92.000003,92.300003,89.699997,90.349998,187980100,11.756456
2007-06-25,124.189999,125.090006,121.059994,122.339996,241350900,15.919035
2007-02-09,85.880003,86.199997,83.210002,83.270003,215135200,10.835198
2012-08-23,666.109985,669.899979,661.149979,662.630013,105032200,86.592456
2014-02-19,544.749985,546.890007,534.350014,537.370003,78442000,72.749226
2012-05-03,590.499977,591.400024,580.300011,581.819992,97637400,75.707153
2013-12-02,558.000008,564.329979,550.819977,551.230026,118136200,74.181565
2007-10-17,172.690001,173.039995,169.18,172.750002,281903300,22.478449
2011-07-20,396.119987,396.270004,385.999996,386.89999,235335100,50.343916
2014-02-10,518.659988,531.990013,518.00,528.989998,86389800,71.61474
2015-09-22,113.379997,114.18,112.519997,113.400002,50346200,110.459034
2008-07-17,174.100006,174.98,171.389997,171.809994,189381500,22.356134
2012-10-10,639.739983,644.979996,637.00,640.909996,127589000,83.754085
2010-10-27,307.650005,309.89999,305.599998,307.830009,99750700,40.05523
2012-12-12,547.769974,547.999992,536.270004,539.00,121786000,70.758202
2011-02-16,360.800007,364.899994,360.50,363.129993,120289400,47.250934
2012-08-20,650.010017,665.150017,649.900002,665.150017,153346200,86.92177
2012-12-18,525.00,534.899986,520.249985,533.900017,156421300,70.088692
2016-05-23,95.870003,97.190002,95.669998,96.43,38018600,95.420524
2010-01-25,202.510002,204.699999,200.190002,203.070002,266424900,26.423726
2015-03-05,128.580002,128.75,125.760002,126.410004,56517100,122.066911
2010-06-23,274.580009,274.660011,267.89999,270.969994,192114300,35.258958
2008-05-07,186.049999,188.199995,180.540007,182.59,289283400,23.758842
2008-12-01,91.30,92.270002,88.919999,88.929999,230941900,11.571684
2016-05-26,99.68,100.730003,98.639999,100.410004,56331200,99.358863
2011-03-29,347.66,350.959995,346.05999,350.959995,88225200,45.667359
2012-03-27,606.180016,616.280006,606.060013,614.480019,151782400,79.956917
2010-08-17,250.080009,254.629993,249.199989,251.970013,105660100,32.786657
2014-03-25,541.499977,545.750008,539.589973,544.98999,70573300,73.780821
2010-02-02,195.909998,196.319994,193.379993,195.859997,174585600,25.485551
2010-01-26,205.950001,213.710005,202.580004,205.940001,466777500,26.797173
2008-11-19,89.439998,91.58,86.209997,86.289999,292975200,11.228164
2007-01-03,86.289999,86.579999,81.899999,83.800002,309579900,10.904162
2006-12-26,82.149998,82.570001,80.890002,81.510003,122672200,10.606185
2007-02-23,89.159998,90.339998,88.849998,89.070003,129473400,11.589901
2011-11-11,386.609997,388.700005,380.259998,384.619991,163446500,50.04724
2015-02-10,120.169998,122.150002,120.160004,122.019997,62008500,117.827732
2012-10-26,609.430023,614.000008,591.000015,603.999992,254608200,78.930688
2011-07-28,391.619991,396.989994,388.130005,391.819996,148508500,50.984114
2013-06-18,431.559998,434.899994,430.210007,431.769989,48756400,57.389084
2015-07-10,121.940002,123.849998,121.209999,123.279999,61354500,119.541702
2012-07-31,603.229988,611.699982,602.720016,610.759987,115581900,79.472862
2010-05-05,253.03001,258.140007,248.729992,255.989998,220775800,33.309742
2009-04-29,124.85,126.850006,123.830004,125.139994,114527700,16.283374
2009-08-12,162.549995,166.709997,162.459993,165.310005,111267800,21.510347
2012-05-21,534.499977,561.540009,534.04998,561.279976,157776500,73.034461
2009-06-30,142.580006,143.799994,141.800001,142.430002,108556000,18.533172
2010-04-14,245.280006,245.810005,244.069992,245.690002,101019100,31.969494
2007-09-27,153.769995,154.519999,152.320002,154.499998,164549700,20.103735
2007-05-21,110.310001,112.449997,110.050002,111.98,159973100,14.570979
2010-05-12,259.240005,263.130001,258.699993,262.090004,163594900,34.103483
2008-05-16,190.109999,190.300003,186.999994,187.619995,191442300,24.413351
2013-08-23,503.269997,503.349998,499.350014,501.020012,55682900,67.033208
2012-07-09,605.299995,613.899979,604.110008,613.889992,94851400,79.880142
2012-05-23,557.500023,572.800026,553.230019,570.559975,146224400,74.241986
2009-04-28,123.350006,126.210005,123.260004,123.900005,113964200,16.122025
2008-01-08,180.139997,182.459997,170.799997,171.249994,380954000,22.283266
2012-06-20,588.209991,589.250015,580.799995,585.739975,89735800,76.217227
2012-08-14,631.870003,638.610023,630.209991,631.690025,85042300,82.54922
2007-08-23,133.090002,133.339994,129.760006,131.069996,216709500,17.054994
2015-04-27,132.309998,133.130005,131.149994,132.649994,96954200,128.092513
2008-04-08,153.550003,156.450003,152.320002,152.84,253573600,19.887734
2011-11-02,400.090012,400.440006,395.110004,397.410004,81837700,51.711492
2013-11-05,524.580017,528.890022,523.000008,525.449997,66303300,70.30178
2008-05-14,191.229998,192.239994,185.570002,186.260004,229205900,24.236387
2008-04-25,170.699995,171.100004,166.420004,169.73,248118500,22.085482
2015-05-15,129.070007,129.490005,128.210007,128.770004,38208000,124.865231
2008-08-27,173.310001,175.760004,172.190002,174.670006,119445200,22.728282
2009-02-17,96.870001,97.039998,94.280002,94.530001,169559600,12.300363
2013-06-21,418.490005,420.00,408.099995,413.500011,120279600,54.960714
2011-11-28,372.349991,376.719997,370.329998,376.12001,86603300,48.941212
2010-12-01,315.269993,317.749996,315.00,316.400005,115437700,41.170369
2016-10-13,116.790001,117.440002,115.720001,116.980003,35192400,116.38247
2010-04-26,271.880001,272.459988,268.19001,269.50,119767200,35.067681
2015-10-07,111.739998,111.769997,109.410004,110.779999,46765600,107.90698
2014-07-17,95.029999,95.279999,92.57,93.089996,57298000,88.710484
2016-04-18,108.889999,108.949997,106.940002,107.480003,60834000,105.711235
2015-09-21,113.669998,115.370003,113.660004,115.209999,50222000,112.22209
2009-05-06,133.329994,133.499998,130.220003,132.500002,118384700,17.241068
2013-07-10,419.599991,424.800003,418.25,420.730003,70351400,55.921695
2015-01-22,110.260002,112.470001,109.720001,112.400002,53796400,108.111585
2012-09-28,678.750008,681.110008,666.75,667.100021,133777700,87.176596
2015-12-28,107.589996,107.690002,106.18,106.82,26704200,104.495069
2007-12-28,200.589998,201.559994,196.879993,199.829994,174911800,26.002132
2009-12-03,197.420006,198.980001,196.270006,196.479998,112179900,25.566226
2014-05-01,591.999985,594.799995,586.360016,591.480026,61012000,80.074649
2011-11-22,371.02,377.930012,370.939999,376.510006,102255300,48.991958
2009-04-13,120.009996,120.980005,119.00,120.220001,97309100,15.643179
2010-03-04,209.279997,210.919994,208.629995,210.710003,91510300,27.417852
2015-09-10,110.269997,113.279999,109.900002,112.57,62892800,109.650558
2014-03-05,530.919975,534.750023,529.129974,532.360008,50015700,72.070973
2013-11-25,521.019989,525.86998,521.000015,523.739998,57327900,70.482106
2011-07-22,388.319996,395.050003,387.749996,393.300003,129182200,51.176694
2015-11-20,119.199997,119.919998,118.849998,119.300003,34287100,116.703446
2015-10-15,110.93,112.099998,110.489998,111.860001,37673500,108.958972
2007-09-18,139.060005,142.849998,137.830004,140.919994,266022400,18.336688
2006-12-13,87.949997,89.070003,87.149999,89.050002,214263000,11.587299
2011-07-06,348.949989,354.099987,346.709991,351.759987,111156500,45.771455
2010-03-01,205.749996,209.500002,205.450003,208.990004,137523400,27.194044
2012-12-21,512.469994,519.669998,510.239983,519.330017,149067100,68.175989
2014-05-08,588.249992,594.410027,586.400017,587.990013,57574300,80.046776
2012-12-17,508.929993,519.999992,501.230003,518.829979,189401800,68.110346
2013-11-14,522.80999,529.279991,521.869995,528.160019,70604800,71.076928
2008-06-13,171.640003,174.159994,165.310005,172.370007,336489300,22.429003
2016-01-25,101.519997,101.529999,99.209999,99.440002,51794500,97.275697
2012-01-06,419.770008,422.749996,419.220009,422.400002,79573200,54.963223
2015-02-24,132.940002,133.600006,131.169998,132.169998,69228100,127.629008
2009-10-21,199.52,208.709997,199.229994,204.920004,298431700,26.66445
2010-11-04,315.449997,320.180012,315.029987,318.270008,160622000,41.413696
2014-02-04,505.849976,509.459991,502.760025,508.790016,94170300,68.470218
2011-04-20,343.509998,345.749996,341.499992,342.41,175166600,44.554822
2009-05-29,135.390001,135.90,133.850006,135.809998,114133600,17.671769
2014-12-15,110.699997,111.599998,106.349998,108.230003,67218100,104.100685
2008-06-26,174.070005,174.839996,168.01,168.260006,217402500,21.894205
2012-12-14,514.749992,518.12999,505.580009,509.789986,252394800,66.923604
2013-01-04,536.969994,538.630005,525.829979,526.999992,148583400,69.182879
2013-10-08,489.940025,490.640015,480.540024,480.93998,72729300,64.34663
2006-12-05,91.650002,92.329997,90.869997,91.27,165709600,11.876168
2008-05-02,180.189999,181.919998,178.550001,180.940002,251520500,23.544142
2016-07-19,99.559998,100.00,99.339996,99.870003,23779900,98.824515
2007-04-16,90.569997,91.499998,90.250003,91.430003,152258400,11.896988
2010-08-23,251.790009,252.00,245.249992,245.799992,103510400,31.983806
2011-11-17,383.980003,384.57999,375.499996,377.41,119975100,49.109067
2009-12-30,208.83,212.000006,208.310001,211.639997,103021100,27.538864
2007-02-21,85.979999,89.489999,85.959998,89.199999,288828400,11.606817
2015-10-20,111.339996,114.169998,110.82,113.769997,48778800,110.819433
2012-12-24,520.350014,524.250023,518.709976,520.169983,43938300,68.286257
2007-12-04,177.149996,180.900002,176.990005,179.810003,193449900,23.397105
2010-05-14,255.159992,256.479996,249.499996,253.819988,189840700,33.027378
2009-12-16,195.100006,196.499998,194.549994,195.030005,88246200,25.377551
2010-04-12,242.199989,243.069996,241.809994,242.290005,83256600,31.527082
2015-06-04,129.580002,130.580002,128.910004,129.360001,38450100,125.437337
2008-01-11,175.999996,177.849998,170.000006,172.690001,308071400,22.470641
2014-04-03,541.390015,542.50,537.640022,538.790009,40586000,72.941467
2007-11-26,173.589994,177.269999,172.350006,172.539997,326438700,22.451123
2014-11-05,109.099998,109.300003,108.129997,108.860001,37435900,104.254575
2010-08-20,249.390007,253.919991,249.000011,249.639999,96057500,32.483473
2013-08-27,498.000023,502.509979,486.299995,488.589981,106047200,65.370151
2011-03-11,345.330013,352.32,344.999992,351.990005,117770100,45.801385
2014-04-22,528.309982,531.830009,526.500008,531.70002,50640800,71.981623
2010-03-23,225.640011,228.780003,224.100002,228.359993,150607800,29.714491
2011-04-01,351.110012,351.589996,343.300007,344.560009,104665400,44.834584
2009-07-24,156.950001,160.000004,156.500004,159.990004,109590600,20.818102
2009-10-28,197.709999,198.020006,191.099995,192.399998,204596700,25.035331
2010-06-21,277.689987,279.009991,268.729996,270.170002,194122600,35.154862
2013-07-08,420.109989,420.999996,410.650013,415.050007,74534600,55.166733
2016-02-19,96.00,96.760002,95.800003,96.040001,35374200,94.459497
2016-02-11,93.790001,94.720001,92.589996,93.699997,50074700,92.158002
2011-02-02,344.449993,345.250011,343.549999,344.320004,64738800,44.803354
2009-08-14,167.939999,168.230005,165.529997,166.779999,76454000,21.701624
2010-09-13,265.819996,268.279999,265.759995,267.039997,97195000,34.747582
2014-03-07,531.090019,531.980026,526.050011,530.440018,55182400,71.811044
2013-04-08,424.849991,427.500011,422.48999,426.209995,75207300,56.277573
2011-03-23,339.279995,340.21999,335.950012,339.190006,93249100,44.135833
2007-03-23,93.35,94.069997,93.299999,93.519998,112721000,12.16894
2009-02-05,92.77,97.250003,92.619997,96.459998,187311600,12.551497
2012-02-01,458.410011,458.989998,455.550026,456.189987,67511500,59.360018
2011-06-14,329.999996,333.250004,329.309994,332.439999,83642300,43.257513
2011-04-19,333.099987,337.979992,331.709995,337.859989,104844600,43.962769
2016-02-12,94.190002,94.50,93.010002,93.989998,40351400,92.44323
2012-05-04,577.080017,578.359993,565.169998,565.25,132498100,73.551045
2014-05-30,637.979996,644.169991,628.900002,633.000015,141005200,86.17427
2013-07-22,429.460003,429.749996,425.470005,426.309998,51949100,56.663365
2012-12-04,581.800018,581.800018,572.129997,575.849976,139267100,75.595749
2009-09-10,172.059999,173.25,170.809998,172.559998,122783500,22.453725
2016-07-27,104.269997,104.349998,102.75,102.949997,92344800,101.872267
2016-02-29,96.860001,98.230003,96.650002,96.690002,35216300,95.098802
2010-06-04,258.209995,261.900013,254.629993,255.960011,189576100,33.30584
2013-10-17,499.979988,504.779991,499.680008,504.499985,63398300,67.498805
2013-01-03,547.87999,549.669991,540.999992,542.099991,88241300,71.165159
2013-09-27,483.779991,484.669998,480.720001,482.750008,57010100,64.5888
2015-09-25,116.440002,116.690002,114.019997,114.709999,56151900,111.735057
2008-12-12,92.800001,99.000003,92.530002,98.27,260293600,12.787017
