2006-12-08,38.150002,39.389999,37.990002,38.880001,5687500,38.880001
2012-12-06,35.25,35.68,35.00,35.139999,5571900,35.139999
2009-01-07,23.57,24.809999,23.51,24.23,12785700,24.23
2013-11-01,54.610001,54.68,54.139999,54.610001,2720000,54.610001
2011-11-07,29.67,29.99,29.040001,29.92,4303500,29.92
2009-10-20,35.52,35.599998,34.990002,35.41,4357800,35.41
2015-10-20,88.150002,88.650002,86.419998,86.839996,2680500,86.839996
2013-06-13,42.740002,43.360001,42.389999,43.299999,2002400,43.299999
2009-02-02,19.41,19.700001,18.959999,19.58,8305500,19.58
2006-11-30,39.700001,40.689999,39.50,40.16,5205700,40.16
2015-08-13,83.82,84.830002,83.00,84.309998,1963400,84.309998
2014-08-15,70.879997,70.910004,69.580002,70.07,4311600,70.07
2012-12-18,37.419998,37.509998,37.18,37.490002,7652400,37.490002
2008-02-12,33.950001,35.02,33.91,34.380001,9894800,34.380001
2013-05-22,44.119999,44.310001,42.950001,43.169998,3026400,43.169998
2009-03-31,20.93,21.870001,20.83,21.389999,8531000,21.389999
2012-08-09,32.599998,32.939999,32.419998,32.650002,4344400,32.650002
2009-05-26,26.309999,27.950001,26.10,27.889999,6088000,27.889999
2015-10-21,87.220001,87.57,85.870003,86.129997,2883000,86.129997
2011-01-05,31.48,32.240002,31.42,32.220001,7143500,32.220001
2011-12-21,28.290001,28.379999,27.40,27.969999,7383600,27.969999
2014-11-28,73.129997,74.099998,73.050003,73.68,978400,73.68
2016-09-02,103.489998,104.160004,102.949997,103.57,1719300,103.57
2016-09-23,107.209999,108.00,106.790001,107.470001,3087200,107.470001
2013-11-15,57.540001,57.59,56.779999,57.349998,2909900,57.349998
2015-01-28,71.540001,71.839996,70.07,70.25,2281100,70.25
2010-08-30,27.790001,28.10,27.629999,27.790001,4870300,27.790001
2015-04-21,74.309998,74.879997,74.209999,74.620003,1894600,74.620003
2013-03-05,40.759998,41.490002,40.68,41.459999,4236600,41.459999
2011-10-24,27.309999,28.23,27.24,28.200001,6770700,28.200001
2007-05-10,41.099998,41.560001,40.580002,40.66,7098000,40.66
2010-10-26,28.040001,28.77,27.950001,28.139999,12548300,28.139999
2010-07-20,27.18,27.870001,26.940001,27.870001,5690600,27.870001
2008-12-23,21.23,21.42,20.799999,20.969999,4399100,20.969999
2012-01-13,29.110001,29.18,28.450001,28.969999,2903900,28.969999
2011-04-01,33.529999,34.639999,33.34,34.16,10489700,34.16
2013-07-17,48.169998,48.400002,47.779999,48.040001,3135800,48.040001
2008-07-31,40.93,41.93,40.580002,41.349998,6238600,41.349998
2015-12-18,93.730003,93.919998,91.300003,91.309998,5314200,91.309998
2007-05-09,41.200001,41.459999,40.799999,41.259998,8179500,41.259998
2010-04-29,35.27,35.560001,34.540001,34.959999,10958300,34.959999
2008-04-07,36.830002,37.450001,36.799999,36.919998,5811400,36.919998
2008-06-23,40.900002,40.91,40.119999,40.369999,4999200,40.369999
2012-01-25,30.59,31.40,30.51,31.34,5459800,31.34
2008-03-13,32.98,33.59,32.52,33.299999,5875900,33.299999
2014-07-08,72.589996,72.870003,70.870003,71.139999,2789000,71.139999
2009-03-06,17.16,17.43,16.75,17.16,10507400,17.16
2009-12-15,35.580002,36.66,35.50,36.360001,8022900,36.360001
2013-10-11,50.82,52.220001,50.82,52.189999,3410500,52.189999
2012-11-30,34.189999,34.810001,33.849998,34.610001,4935400,34.610001
2013-12-11,55.25,55.599998,54.580002,54.639999,3990000,54.639999
2012-05-22,31.969999,32.25,31.629999,32.009998,3476700,32.009998
2013-08-12,46.869999,47.330002,46.849998,47.200001,1807900,47.200001
2016-06-13,96.870003,98.089996,96.699997,96.959999,2291500,96.959999
2013-06-27,45.900002,46.27,45.59,45.93,2916500,45.93
2013-10-03,51.610001,51.650002,50.540001,50.880001,3862200,50.880001
2015-07-16,82.650002,82.669998,82.199997,82.519997,2058100,82.519997
2011-05-04,33.41,33.580002,33.00,33.220001,3903300,33.220001
2014-09-23,67.110001,68.07,66.849998,67.790001,4414100,67.790001
2012-12-19,37.389999,38.25,37.349998,38.09,5853300,38.09
2016-04-12,93.18,93.669998,92.220001,93.419998,2079000,93.419998
2010-05-20,32.200001,32.549999,31.620001,31.74,8094200,31.74
2008-06-09,42.580002,42.75,41.66,42.470001,4553700,42.470001
2009-03-23,21.200001,22.690001,21.01,22.690001,13186800,22.690001
2007-11-14,41.349998,42.060001,40.59,41.02,13247100,41.02
2011-04-14,33.900002,34.52,33.830002,34.330002,4628700,34.330002
2009-03-19,21.84,22.58,20.889999,21.24,13667100,21.24
2016-01-25,88.389999,89.260002,86.629997,86.769997,3945000,86.769997
2010-02-25,33.799999,34.59,33.540001,34.560001,7735500,34.560001
2010-06-23,32.349998,32.419998,30.18,30.379999,35847400,30.379999
2009-06-22,28.559999,28.780001,27.309999,27.309999,12028200,27.309999
2016-09-09,100.970001,101.279999,99.379997,99.379997,3379300,99.379997
2016-11-18,106.190002,106.800003,104.720001,105.019997,2354500,105.019997
2016-09-01,102.230003,102.970001,101.809998,102.900002,2006600,102.900002
2007-03-20,40.400002,41.119999,40.02,40.740002,8529700,40.740002
2015-06-04,79.860001,80.379997,78.639999,78.75,1659300,78.75
2016-05-03,94.07,94.389999,93.089996,93.660004,1811400,93.660004
2013-01-04,37.880001,38.189999,37.619999,38.130001,3809300,38.130001
2014-12-02,74.00,74.00,73.080002,73.470001,1843600,73.470001
2016-02-23,83.410004,84.489998,82.860001,83.07,2958400,83.07
2009-12-18,37.25,37.470001,37.02,37.34,9331800,37.34
2012-05-23,31.700001,32.209999,31.459999,32.18,4300000,32.18
2008-05-28,43.00,43.00,42.299999,42.84,5750000,42.84
2016-02-05,85.50,85.50,77.830002,79.199997,10644200,79.199997
2009-11-06,34.59,35.189999,34.380001,34.650002,3693900,34.650002
2010-01-26,33.810001,34.290001,33.619999,33.939999,5356300,33.939999
2012-01-06,28.370001,28.790001,28.139999,28.719999,5781700,28.719999
2014-10-16,60.720001,63.720001,60.720001,62.860001,6640000,62.860001
2015-05-29,79.889999,79.989998,78.940002,79.089996,3288000,79.089996
2011-06-09,32.349998,32.48,32.049999,32.220001,3550600,32.220001
2008-07-29,40.240002,41.32,40.169998,41.009998,5805100,41.009998
2013-10-25,54.07,54.200001,53.459999,53.810001,6186100,53.810001
2013-08-07,47.169998,47.48,46.830002,47.099998,2396700,47.099998
2015-07-29,80.07,80.540001,79.559998,80.25,2178000,80.25
2014-09-16,70.010002,70.959999,69.190002,70.730003,5965200,70.730003
2011-10-18,26.299999,26.99,25.860001,26.76,9990500,26.76
2009-12-02,36.529999,36.91,36.360001,36.50,3645700,36.50
2014-06-19,73.169998,73.57,72.239998,72.949997,4413400,72.949997
2007-11-09,43.84,44.130001,43.049999,43.240002,10345700,43.240002
2010-03-19,35.860001,35.950001,34.50,34.669998,16351100,34.669998
2012-03-20,33.380001,33.939999,32.880001,33.16,16394100,33.16
2014-02-19,68.449997,69.43,67.68,67.989998,3994300,67.989998
2009-09-23,33.029999,33.330002,32.68,32.709999,6943000,32.709999
2015-10-01,82.419998,83.769997,81.57,83.75,3407800,83.75
2008-08-12,45.91,46.439999,45.540001,45.619999,8002000,45.619999
2014-01-31,58.150002,59.540001,58.09,59.189999,3112900,59.189999
2012-04-27,33.380001,33.790001,33.209999,33.580002,3277600,33.580002
2009-01-06,23.07,24.450001,23.07,24.219999,7032500,24.219999
2015-10-19,88.150002,88.489998,87.029999,88.400002,3353900,88.400002
2016-08-05,97.360001,99.080002,97.150002,99.040001,1932100,99.040001
2010-06-18,33.119999,34.00,33.040001,33.52,9514000,33.52
2008-11-19,22.540001,23.870001,21.60,21.629999,9298800,21.629999
2014-03-20,67.550003,69.080002,67.440002,68.489998,5280200,68.489998
2011-07-21,29.219999,30.030001,29.17,29.559999,6380700,29.559999
2008-02-07,32.41,33.07,32.080002,32.619999,13594100,32.619999
2011-09-09,24.73,25.10,24.43,24.639999,6805600,24.639999
2008-03-07,32.59,33.279999,32.040001,32.549999,7287400,32.549999
2013-09-06,46.889999,47.299999,46.259998,46.869999,3140900,46.869999
2011-08-19,23.049999,23.68,22.67,22.690001,7304500,22.690001
2009-08-17,31.719999,31.90,31.120001,31.209999,5500600,31.209999
2014-07-31,71.309998,71.540001,69.010002,69.25,3822100,69.25
2013-03-26,42.66,42.950001,42.459999,42.75,2125400,42.75
2011-07-22,29.690001,29.85,29.10,29.719999,5349400,29.719999
2007-07-11,40.27,40.970001,40.200001,40.84,4827400,40.84
2009-10-07,33.740002,33.740002,33.060001,33.259998,4172400,33.259998
2009-01-27,19.74,20.379999,19.530001,20.110001,6385500,20.110001
2010-10-07,25.799999,30.00,25.450001,28.690001,66892700,28.690001
2015-02-05,72.470001,73.18,72.32,73.099998,1438800,73.099998
2015-01-08,71.400002,73.059998,71.309998,72.919998,2624200,72.919998
2010-09-28,26.91,26.92,26.129999,26.280001,25302600,26.280001
2016-05-27,99.519997,100.139999,98.900002,100.139999,1603600,100.139999
2007-01-10,39.150002,39.59,38.73,39.220001,5652600,39.220001
2014-08-12,68.610001,68.989998,68.199997,68.790001,1919200,68.790001
2009-04-08,23.809999,24.17,23.469999,23.92,5991300,23.92
2013-04-19,44.599998,44.810001,44.310001,44.740002,2746900,44.740002
2015-06-10,78.18,79.699997,77.989998,79.559998,1776000,79.559998
2012-05-29,31.879999,32.259998,31.610001,32.049999,3171200,32.049999
2007-05-23,43.599998,43.799999,43.150002,43.23,4334100,43.23
2015-04-10,76.300003,76.629997,76.00,76.529999,1801200,76.529999
2009-12-30,37.029999,37.50,37.029999,37.18,2124100,37.18
2012-05-02,33.630001,33.880001,33.27,33.759998,1612300,33.759998
2011-03-16,32.68,32.799999,31.790001,32.09,8168600,32.09
2013-07-24,48.380001,48.580002,47.650002,47.799999,2407400,47.799999
2010-09-14,32.080002,32.869999,32.080002,32.470001,6011200,32.470001
2014-11-21,72.00,72.550003,71.18,71.32,4554400,71.32
2008-10-23,25.50,25.60,23.41,24.969999,10769700,24.969999
2009-10-05,32.369999,32.720001,32.119999,32.549999,4892100,32.549999
2012-12-03,34.779999,34.849998,34.57,34.700001,3146300,34.700001
2007-06-06,44.189999,44.189999,43.43,43.639999,5220000,43.639999
2016-06-03,99.519997,99.519997,97.889999,98.699997,2415900,98.699997
2010-11-04,29.110001,29.49,29.07,29.459999,6191500,29.459999
2011-08-11,22.98,24.33,22.67,24.00,14533400,24.00
2008-07-22,40.900002,40.959999,39.599998,40.299999,9957200,40.299999
2007-03-09,39.470001,39.48,38.900002,39.169998,3252700,39.169998
2012-06-15,31.75,32.419998,31.440001,32.389999,5442600,32.389999
2009-12-29,37.139999,37.34,36.970001,37.209999,3093200,37.209999
2011-04-20,33.48,34.00,33.299999,33.689999,9636500,33.689999
2007-07-06,41.00,41.200001,40.630001,41.02,4612400,41.02
2009-05-11,24.85,26.360001,24.780001,26.15,7683800,26.15
2010-08-16,27.82,27.84,27.209999,27.360001,6334500,27.360001
2008-09-25,40.029999,40.380001,39.549999,39.830002,5256500,39.830002
2015-04-06,75.129997,76.650002,74.75,76.230003,2556500,76.230003
2008-08-21,43.759998,44.779999,43.439999,44.509998,5308900,44.509998
2013-09-30,51.50,52.150002,51.200001,51.939999,2747000,51.939999
2010-12-09,29.43,29.49,28.48,28.60,10393700,28.60
2010-10-18,27.799999,28.190001,27.48,28.059999,8068200,28.059999
2012-03-29,34.32,34.549999,34.16,34.48,2459000,34.48
2010-07-12,27.27,27.610001,26.940001,27.09,7012700,27.09
2008-01-07,40.389999,40.75,39.68,40.240002,7757600,40.240002
2011-09-14,25.360001,26.10,24.99,25.76,5069300,25.76
2007-05-11,40.91,41.830002,40.669998,41.700001,9704100,41.700001
2012-08-15,32.240002,32.950001,32.119999,32.91,3632300,32.91
2012-06-07,32.060001,32.119999,31.24,31.32,4293100,31.32
2008-02-15,34.93,34.950001,34.209999,34.669998,5665200,34.669998
2014-08-01,69.010002,69.550003,68.519997,68.940002,2109000,68.940002
2009-08-05,33.119999,33.119999,31.48,32.009998,10117400,32.009998
2014-12-10,71.559998,71.970001,69.739998,69.849998,2567900,69.849998
2012-06-11,31.90,31.950001,31.09,31.129999,3811400,31.129999
2010-02-03,32.849998,33.43,32.540001,32.98,6732000,32.98
2015-08-11,84.059998,84.860001,83.050003,83.900002,3103200,83.900002
2011-05-27,34.459999,34.560001,34.080002,34.290001,4040100,34.290001
2007-01-17,40.029999,40.549999,39.799999,40.200001,3588200,40.200001
2014-02-14,67.480003,68.489998,67.00,68.339996,6232000,68.339996
2007-05-02,41.650002,41.849998,41.439999,41.509998,5275200,41.509998
2016-01-06,91.099998,91.50,90.239998,91.019997,1674000,91.019997
2007-09-17,43.709999,43.75,42.549999,43.060001,12499300,43.060001
2015-07-07,80.769997,81.00,78.940002,80.589996,2781900,80.589996
2007-07-25,41.970001,42.119999,41.41,41.720001,5081700,41.720001
2009-09-28,32.200001,33.259998,32.119999,32.93,5849300,32.93
2011-12-06,28.01,28.18,27.84,27.959999,4075400,27.959999
2014-02-24,68.540001,69.279999,68.00,68.769997,2811700,68.769997
2012-04-09,33.02,33.360001,32.77,33.220001,3478300,33.220001
2007-05-25,42.220001,42.59,42.080002,42.380001,3633000,42.380001
2011-10-10,25.74,26.08,25.450001,25.76,4036200,25.76
2015-12-22,91.940002,93.949997,91.629997,93.82,1873600,93.82
2008-08-13,45.619999,46.439999,45.419998,45.889999,5299400,45.889999
2008-11-06,26.77,26.90,24.299999,24.559999,10048800,24.559999
2014-11-17,70.980003,71.25,69.870003,69.970001,3443100,69.970001
2008-08-11,45.150002,46.040001,44.82,45.889999,6081200,45.889999
2012-02-21,32.740002,33.060001,32.470001,32.540001,3655400,32.540001
2010-12-29,30.93,31.120001,30.84,30.969999,2662600,30.969999
2009-10-14,34.869999,35.52,34.810001,35.43,6908100,35.43
2006-12-27,41.759998,41.889999,41.349998,41.790001,2921000,41.790001
2011-09-19,25.219999,25.51,24.84,25.27,7670200,25.27
2014-02-11,64.480003,64.879997,63.66,63.970001,4648000,63.970001
2009-02-18,20.33,20.690001,20.07,20.389999,7409800,20.389999
2014-02-28,70.25,71.110001,67.830002,68.629997,5728600,68.629997
2007-02-09,38.200001,38.34,37.450001,37.68,4413100,37.68
2008-09-17,39.049999,39.689999,36.23,36.23,12494900,36.23
2016-03-30,93.629997,94.480003,92.980003,93.779999,6797200,93.779999
2015-10-05,84.800003,86.309998,84.489998,85.839996,4204800,85.839996
2014-10-10,65.370003,65.580002,63.290001,63.290001,4640900,63.290001
2010-08-13,27.92,28.34,27.860001,28.01,6625500,28.01
2016-04-21,96.209999,97.139999,95.760002,96.370003,2066900,96.370003
2007-02-05,39.040001,39.060001,38.380001,38.439999,3153200,38.439999
2012-05-01,33.59,34.09,33.470001,33.77,2578700,33.77
2008-12-16,22.129999,22.42,20.92,22.32,10799400,22.32
2016-03-22,92.059998,93.419998,92.050003,92.559998,4475800,92.559998
2011-07-19,29.02,29.629999,28.93,29.40,4944300,29.40
2013-11-26,56.869999,56.889999,56.200001,56.700001,2841000,56.700001
2016-09-29,109.50,109.57,107.550003,107.800003,2436900,107.800003
2010-12-06,29.02,29.42,28.860001,29.23,6059700,29.23
2008-04-23,36.50,36.91,36.209999,36.830002,6037300,36.830002
2014-01-07,58.259998,59.049999,58.060001,58.970001,2963600,58.970001
2010-07-15,27.940001,28.299999,27.719999,28.219999,4838200,28.219999
2013-02-21,38.82,38.82,38.299999,38.34,2872700,38.34
2013-01-23,37.939999,38.279999,37.889999,38.25,3309000,38.25
2012-09-24,33.389999,33.759998,33.259998,33.419998,5348300,33.419998
2009-09-10,32.740002,34.130001,32.509998,34.02,10199900,34.02
2016-01-19,90.290001,91.400002,88.370003,89.18,3680600,89.18
2015-07-14,81.669998,82.349998,81.239998,81.889999,4428100,81.889999
2015-06-01,79.50,80.00,78.589996,79.870003,2288400,79.870003
2008-01-15,38.080002,38.419998,37.740002,37.919998,7776000,37.919998
2011-10-26,28.09,28.15,27.25,27.809999,6735200,27.809999
2010-07-22,27.91,28.74,27.799999,28.58,6138500,28.58
2016-05-11,96.260002,97.260002,96.040001,96.099998,1569100,96.099998
2010-12-30,30.92,31.10,30.57,30.57,3435500,30.57
2013-08-08,47.32,47.66,47.029999,47.509998,2974200,47.509998
2008-12-12,21.950001,22.530001,21.33,22.43,6290700,22.43
2015-09-21,81.419998,83.690002,81.419998,83.32,4919700,83.32
2014-02-10,62.73,63.799999,62.52,63.779999,2833400,63.779999
2007-09-21,42.91,43.369999,41.709999,41.950001,13267000,41.950001
2016-01-26,87.260002,87.580002,85.470001,86.889999,2745700,86.889999
2007-04-18,42.830002,43.080002,42.369999,42.970001,5553500,42.970001
2010-05-11,33.950001,34.380001,33.700001,33.799999,6929000,33.799999
2007-08-03,39.470001,39.66,38.700001,38.75,7005100,38.75
2009-05-05,26.74,26.91,26.200001,26.889999,8157400,26.889999
2015-12-03,91.970001,92.760002,89.730003,89.910004,2424500,89.910004
2008-09-02,43.830002,44.16,42.59,42.849998,6307000,42.849998
2014-10-23,65.620003,66.400002,65.169998,65.919998,1783800,65.919998
2009-09-01,31.27,32.080002,30.889999,31.10,7670000,31.10
2013-01-18,37.810001,37.990002,37.360001,37.98,5561400,37.98
2015-09-29,80.519997,80.580002,79.089996,79.830002,3126300,79.830002
2015-02-10,72.940002,73.190002,72.110001,72.760002,1696200,72.760002
2016-07-15,98.389999,98.400002,97.50,97.830002,1530100,97.830002
2009-10-01,32.66,32.779999,31.959999,32.18,7257000,32.18
2016-03-17,88.660004,90.209999,87.25,89.959999,6914600,89.959999
2010-12-14,27.860001,28.18,27.67,28.15,6546500,28.15
2009-03-18,19.41,22.09,19.34,21.35,20855100,21.35
2013-03-04,39.740002,40.470001,39.450001,40.459999,2423600,40.459999
2012-07-11,30.51,30.51,29.969999,30.200001,2611700,30.200001
2011-12-07,27.870001,27.99,27.16,27.860001,5501100,27.860001
2009-07-28,32.450001,32.91,32.040001,32.330002,7579900,32.330002
2015-05-08,75.279999,76.519997,75.050003,76.309998,1585600,76.309998
2016-08-02,97.379997,97.629997,95.419998,96.050003,2352700,96.050003
2016-02-10,74.989998,77.610001,73.900002,75.529999,6465300,75.529999
2007-01-04,39.880001,41.00,39.43,40.82,4503700,40.82
2010-06-10,31.34,31.76,30.83,31.719999,5666800,31.719999
2014-05-01,61.689999,63.099998,61.310001,62.59,2839300,62.59
2007-04-26,42.540001,43.549999,42.389999,43.259998,8179100,43.259998
2012-05-31,31.34,31.379999,30.76,31.049999,4736000,31.049999
2013-09-10,47.619999,48.060001,47.509998,48.02,2831100,48.02
2011-06-27,29.84,31.129999,29.82,30.889999,7080400,30.889999
2009-01-28,20.709999,21.200001,20.34,20.889999,7158500,20.889999
2014-03-28,64.709999,65.610001,64.150002,64.879997,4019800,64.879997
2012-05-15,32.23,32.849998,32.130001,32.330002,2540300,32.330002
2012-05-24,32.169998,32.169998,31.360001,31.540001,4116500,31.540001
2008-12-10,23.26,23.879999,22.780001,23.440001,5825900,23.440001
2010-11-16,29.23,29.49,28.889999,29.02,7979500,29.02
2016-06-28,91.370003,92.650002,91.360001,92.459999,3319200,92.459999
2012-02-14,32.200001,32.439999,32.060001,32.439999,4953200,32.439999
2013-10-01,52.099998,52.48,51.84,52.43,3243300,52.43
2012-10-12,31.780001,32.049999,31.690001,31.940001,3040300,31.940001
2009-01-16,21.110001,21.530001,20.469999,21.059999,8056300,21.059999
2009-07-23,31.209999,32.330002,31.129999,32.310001,7242300,32.310001
2007-03-26,42.939999,43.310001,42.139999,43.16,6614500,43.16
2010-10-29,28.16,28.360001,28.030001,28.15,6211500,28.15
2010-05-19,33.220001,33.66,32.529999,32.880001,6098200,32.880001
2016-06-27,91.360001,92.029999,90.349998,90.849998,3925700,90.849998
2011-09-07,24.10,25.34,24.02,25.299999,7951500,25.299999
2008-04-10,36.080002,37.189999,36.00,37.09,8412500,37.09
2011-08-25,24.290001,24.459999,23.75,23.870001,6834100,23.870001
2009-10-06,32.790001,33.75,32.630001,33.509998,7117600,33.509998
2008-06-10,42.360001,42.360001,41.470001,41.740002,5694400,41.740002
2010-02-12,32.25,32.279999,31.280001,31.450001,21221400,31.450001
2014-07-01,72.089996,73.989998,71.800003,73.010002,4718400,73.010002
2013-05-01,45.139999,45.73,44.610001,44.709999,3817600,44.709999
2015-12-01,92.010002,92.580002,91.099998,92.550003,1545100,92.550003
2013-06-12,43.310001,43.459999,42.610001,42.720001,2124500,42.720001
2014-10-14,62.169998,62.299999,60.689999,60.880001,4189500,60.880001
2009-04-15,23.77,23.92,23.120001,23.639999,6980500,23.639999
2011-10-11,25.73,26.07,25.530001,25.84,4367100,25.84
2007-10-17,45.84,46.32,45.169998,45.970001,7207000,45.970001
2016-07-11,96.980003,97.550003,96.809998,97.139999,1732000,97.139999
2013-07-29,47.509998,47.77,47.110001,47.169998,2352400,47.169998
2011-09-22,23.99,24.40,23.870001,24.309999,11130000,24.309999
2010-03-18,35.720001,35.950001,35.560001,35.75,4227000,35.75
2014-09-11,72.029999,72.57,71.779999,72.419998,1708800,72.419998
2010-07-09,26.860001,27.24,26.709999,27.200001,5317000,27.200001
2015-09-17,80.449997,81.879997,79.699997,80.309998,4892900,80.309998
2007-04-10,42.639999,43.060001,42.599998,43.00,4020000,43.00
2009-10-22,34.529999,35.279999,34.009998,35.169998,4913400,35.169998
2011-06-06,33.200001,33.41,32.82,32.84,3075400,32.84
2014-02-03,59.080002,59.259998,57.32,58.09,6649100,58.09
2009-06-15,29.99,29.99,28.540001,28.82,11226100,28.82
2012-08-20,33.66,33.939999,33.360001,33.919998,3465000,33.919998
2008-03-14,32.810001,33.709999,32.240002,32.610001,7040400,32.610001
2015-01-14,69.879997,70.400002,68.980003,69.989998,1873900,69.989998
2011-02-15,33.68,34.00,33.470001,33.939999,3145600,33.939999
2010-11-19,28.66,29.200001,28.620001,28.860001,6047700,28.860001
2014-03-31,64.870003,65.949997,64.620003,65.739998,3213900,65.739998
2007-01-25,39.720001,39.970001,38.84,39.130001,5774000,39.130001
2015-10-23,89.00,89.440002,87.440002,87.860001,6744100,87.860001
2009-09-02,31.139999,31.27,30.73,31.00,5233100,31.00
2010-11-23,28.799999,28.799999,27.49,28.190001,14184600,28.190001
2011-05-05,33.119999,33.389999,32.75,32.939999,3500000,32.939999
2010-05-14,34.240002,34.400002,33.259998,33.720001,6832100,33.720001
2011-12-02,27.35,27.450001,27.01,27.110001,3752600,27.110001
2012-08-30,31.77,31.85,31.35,31.459999,3174800,31.459999
2016-06-06,99.160004,99.489998,98.470001,99.120003,1395800,99.120003
2012-11-09,33.009998,33.279999,32.889999,32.900002,2581600,32.900002
2014-10-09,67.830002,67.959999,65.480003,65.660004,3376800,65.660004
2013-03-06,41.470001,41.77,41.130001,41.290001,2835600,41.290001
2011-07-05,31.42,31.60,31.24,31.52,3513400,31.52
2015-12-04,90.129997,92.82,90.129997,92.580002,2980800,92.580002
2012-12-26,37.48,37.990002,37.259998,37.549999,2437600,37.549999
2009-01-09,23.99,24.50,23.42,24.01,6928300,24.01
2007-06-25,40.84,41.110001,40.169998,40.34,7579400,40.34
2013-06-26,44.950001,45.919998,44.900002,45.68,5356400,45.68
2009-08-26,32.52,32.759998,32.150002,32.509998,4054800,32.509998
2016-04-14,94.339996,94.709999,94.010002,94.440002,1764000,94.440002
2009-08-24,32.849998,33.23,32.52,32.73,4737200,32.73
2015-11-02,89.029999,90.550003,88.470001,89.910004,2904700,89.910004
2011-03-01,34.73,34.790001,33.669998,33.970001,5908400,33.970001
2012-03-05,33.560001,33.610001,33.040001,33.220001,3307800,33.220001
2015-07-01,81.57,81.919998,80.709999,80.940002,2944300,80.940002
2015-03-09,77.760002,78.239998,77.43,77.93,2010900,77.93
2008-03-05,33.00,33.080002,32.009998,32.419998,10868700,32.419998
2008-10-14,31.33,31.450001,28.860001,29.200001,9929400,29.200001
2008-08-15,45.560001,45.869999,44.650002,45.110001,4432600,45.110001
2009-04-24,24.51,26.49,24.450001,26.42,13798600,26.42
2008-10-02,37.880001,37.900002,35.110001,35.220001,9113000,35.220001
2013-11-07,55.049999,55.169998,53.099998,53.169998,5526600,53.169998
2014-07-21,72.50,72.650002,71.699997,71.959999,1906100,71.959999
2014-07-11,71.730003,72.440002,71.050003,72.260002,1930600,72.260002
2011-09-06,23.459999,23.809999,23.200001,23.74,5579700,23.74
2007-08-29,41.389999,42.360001,41.130001,42.25,7249600,42.25
2014-12-23,74.650002,75.00,74.290001,74.379997,1938400,74.379997
2008-12-15,22.559999,22.719999,20.83,21.360001,8273000,21.360001
2013-09-09,47.110001,47.27,46.990002,47.25,1931700,47.25
2010-12-02,28.48,29.129999,28.360001,29.10,5769700,29.10
2009-02-11,20.43,20.860001,19.90,20.309999,7637800,20.309999
2016-10-25,110.760002,110.769997,108.949997,109.029999,1712900,109.029999
2007-05-30,42.470001,43.220001,42.200001,43.220001,4574500,43.220001
2009-04-27,25.92,26.65,25.700001,26.139999,9240400,26.139999
2014-03-07,69.209999,69.309998,67.970001,68.519997,2500300,68.519997
2008-06-19,40.779999,42.189999,40.34,42.00,5714700,42.00
2012-12-17,37.07,37.43,36.900002,37.419998,8928100,37.419998
2016-03-21,92.690002,93.269997,91.330002,92.50,4657300,92.50
2015-10-13,83.32,84.639999,83.309998,83.650002,1992800,83.650002
2009-06-03,29.049999,29.49,28.299999,29.059999,8572700,29.059999
2011-11-21,26.85,26.860001,26.33,26.629999,6730600,26.629999
2007-06-05,44.330002,44.50,43.950001,44.34,4667300,44.34
2012-08-29,32.139999,32.240002,31.610001,31.959999,4560900,31.959999
2014-12-31,73.400002,74.209999,72.650002,72.699997,1359300,72.699997
2015-03-20,77.669998,77.959999,76.809998,77.360001,3577600,77.360001
2015-07-30,79.900002,81.800003,79.199997,81.290001,2072700,81.290001
2010-12-03,28.91,29.280001,28.91,29.139999,4868200,29.139999
2013-01-22,37.869999,38.02,37.57,37.950001,2475400,37.950001
2010-03-05,35.080002,35.439999,34.93,35.16,8381900,35.16
2013-10-07,51.049999,51.34,50.790001,50.82,2582700,50.82
2013-11-13,55.59,57.59,55.59,57.549999,5168600,57.549999
2010-01-04,36.650002,37.299999,36.650002,37.09,4710200,37.09
2012-10-23,33.189999,33.439999,32.970001,33.310001,3151800,33.310001
2010-09-15,32.259998,32.77,32.139999,32.759998,4407300,32.759998
2016-10-24,109.629997,111.089996,109.349998,110.809998,2014900,110.809998
2007-06-28,40.360001,40.779999,39.990002,40.419998,8004600,40.419998
2009-08-10,32.799999,33.490002,32.650002,32.82,4476300,32.82
2016-07-20,98.160004,98.889999,97.849998,98.400002,1553800,98.400002
2013-10-09,49.619999,49.869999,48.869999,49.450001,4347300,49.450001
2008-07-09,39.490002,39.740002,38.23,38.23,6353000,38.23
2010-12-07,29.50,29.549999,28.889999,29.02,7598300,29.02
2010-10-28,28.27,28.299999,27.950001,28.10,9750800,28.10
2011-06-07,33.00,33.310001,32.669998,33.009998,4301800,33.009998
2006-12-20,42.290001,42.439999,41.599998,41.869999,5123500,41.869999
2011-10-20,26.030001,26.200001,25.50,26.08,8007200,26.08
2013-08-22,45.099998,45.709999,45.09,45.68,1699600,45.68
2008-01-30,35.540001,36.450001,35.209999,35.939999,8767300,35.939999
2014-06-18,73.82,74.690002,72.099998,73.080002,11376700,73.080002
2007-08-02,39.400002,39.799999,39.049999,39.52,6714400,39.52
2014-05-29,64.93,65.82,64.93,65.449997,2061000,65.449997
2010-05-05,32.68,33.580002,32.540001,32.959999,12226200,32.959999
2016-08-25,101.150002,101.790001,100.910004,101.690002,1174100,101.690002
2008-07-10,38.290001,39.759998,38.23,39.610001,7147600,39.610001
2011-05-23,34.720001,34.810001,34.169998,34.43,3605300,34.43
2016-03-04,87.93,87.940002,85.580002,86.18,3002500,86.18
2013-04-10,44.419998,45.400002,44.330002,44.700001,5795400,44.700001
2014-05-30,65.75,65.75,64.169998,64.540001,2444300,64.540001
2008-06-06,43.599998,43.599998,42.299999,42.299999,5927900,42.299999
2007-03-08,39.200001,39.349998,38.959999,39.080002,4564600,39.080002
2008-11-04,27.73,29.280001,27.50,29.16,8840800,29.16
2013-11-20,55.98,56.32,55.799999,55.939999,2931300,55.939999
2011-10-03,23.90,24.219999,23.24,23.26,7995200,23.26
2016-01-04,91.769997,92.00,90.540001,91.970001,2993800,91.970001
2012-05-04,32.990002,33.209999,32.50,32.610001,2991800,32.610001
2007-12-27,43.110001,43.189999,42.25,42.34,4286600,42.34
2011-11-11,28.17,28.790001,28.02,28.43,8354700,28.43
2006-12-06,39.150002,39.43,38.330002,38.540001,4298000,38.540001
2008-10-29,27.389999,27.950001,26.65,26.799999,10320400,26.799999
2015-08-14,83.959999,86.379997,83.959999,86.120003,2610200,86.120003
2011-01-03,30.83,31.48,30.790001,31.290001,6245500,31.290001
2016-05-16,95.910004,97.760002,95.910004,97.230003,1918500,97.230003
2010-04-16,34.540001,34.580002,33.529999,34.00,12718300,34.00
2007-12-06,44.200001,44.639999,43.709999,44.540001,5545300,44.540001
2012-07-13,30.18,30.780001,30.059999,30.65,2719000,30.65
2016-05-26,99.809998,100.330002,99.07,99.370003,1970900,99.370003
2012-11-14,32.599998,32.77,32.16,32.240002,5566500,32.240002
2016-02-12,75.989998,77.360001,75.400002,76.669998,4368700,76.669998
2010-05-06,32.799999,33.740002,30.24,32.490002,14650200,32.490002
2015-04-28,76.339996,77.089996,75.870003,76.019997,1698200,76.019997
2007-01-23,37.650002,37.959999,37.369999,37.52,4659000,37.52
2009-09-24,32.700001,32.860001,32.07,32.32,5947700,32.32
2009-11-10,36.560001,36.75,36.349998,36.599998,5079500,36.599998
2011-03-15,32.450001,33.240002,32.16,33.040001,6682500,33.040001
2013-10-29,54.00,55.119999,53.91,54.860001,5148300,54.860001
2012-02-17,32.959999,33.049999,32.75,32.75,3686400,32.75
2010-08-12,27.799999,28.33,27.76,28.08,7694000,28.08
2012-03-06,32.799999,33.099998,31.90,31.99,7675000,31.99
2007-04-13,42.200001,42.200001,41.169998,41.639999,7802500,41.639999
2011-06-30,31.209999,31.60,31.049999,31.450001,5519700,31.450001
2008-02-14,35.200001,35.209999,34.669998,34.959999,6616600,34.959999
2016-10-11,109.00,109.199997,107.040001,107.370003,1970900,107.370003
2012-05-16,32.439999,32.740002,32.189999,32.360001,4373600,32.360001
2011-11-14,28.35,28.74,28.16,28.24,4715500,28.24
2008-10-16,26.00,28.209999,24.450001,27.690001,11932400,27.690001
2007-03-07,38.700001,39.27,38.580002,38.740002,4392800,38.740002
2008-11-17,21.91,23.41,21.51,22.799999,10717700,22.799999
2014-07-09,71.110001,71.970001,71.110001,71.57,1749500,71.57
2015-05-12,76.260002,76.900002,75.300003,76.57,2082600,76.57
2014-04-14,61.18,61.66,60.549999,61.389999,3234000,61.389999
2008-12-09,22.450001,23.92,22.389999,22.889999,7419300,22.889999
2016-01-21,88.639999,89.93,87.139999,88.00,4298700,88.00
2011-02-11,33.419998,33.68,33.099998,33.669998,3113400,33.669998
2009-03-03,16.15,16.48,15.87,15.98,12539500,15.98
2015-05-07,74.400002,74.839996,74.169998,74.730003,2009500,74.730003
2013-07-31,47.50,47.709999,47.18,47.279999,3813500,47.279999
2014-01-27,58.110001,58.880001,57.860001,58.360001,5258000,58.360001
2014-07-17,72.110001,72.470001,71.309998,71.389999,2032400,71.389999
2009-06-05,29.450001,30.34,28.790001,29.98,8839100,29.98
2007-12-11,44.490002,44.700001,43.00,43.27,7853300,43.27
2013-02-19,38.580002,39.00,38.52,38.990002,2056500,38.990002
2007-06-18,42.650002,42.939999,42.349998,42.669998,5937400,42.669998
2008-05-23,40.880001,41.529999,40.880001,41.25,3645400,41.25
2007-11-01,47.75,47.860001,46.889999,46.919998,5657800,46.919998
2012-02-23,32.209999,33.009998,32.099998,32.970001,3119200,32.970001
2010-01-13,35.830002,36.360001,35.599998,36.279999,3660100,36.279999
2014-08-18,70.440002,71.099998,70.389999,71.059998,1707300,71.059998
2013-09-20,51.869999,52.959999,51.68,52.310001,12323000,52.310001
2014-05-28,65.43,65.480003,64.790001,64.839996,2198400,64.839996
2007-08-20,40.549999,40.849998,39.939999,40.740002,4379900,40.740002
2007-02-26,40.650002,40.990002,40.130001,40.740002,3723600,40.740002
2006-12-07,38.759998,38.849998,37.610001,37.75,5653500,37.75
2013-09-03,46.209999,46.57,45.700001,45.880001,1955500,45.880001
2011-02-03,33.27,33.599998,32.98,33.529999,3043800,33.529999
2016-11-04,105.849998,107.089996,105.599998,106.199997,2587500,106.199997
2008-06-20,41.540001,41.759998,40.330002,40.549999,8423200,40.549999
2013-08-13,47.369999,47.41,46.919998,47.139999,1960300,47.139999
2013-02-05,38.200001,38.57,38.009998,38.509998,2355600,38.509998
2016-02-09,74.760002,77.190002,73.040001,73.849998,6697400,73.849998
2015-07-21,81.800003,82.099998,81.010002,81.190002,3916400,81.190002
2008-04-11,37.00,37.00,35.880001,35.98,7464200,35.98
2015-08-20,84.660004,84.900002,82.690002,82.690002,3108800,82.690002
2014-08-20,71.779999,72.00,70.75,71.019997,3395300,71.019997
2007-04-03,42.060001,42.66,41.900002,42.349998,7131400,42.349998
2014-01-13,59.279999,59.439999,58.41,58.599998,2928700,58.599998
2016-04-22,96.169998,96.239998,93.760002,94.790001,3797900,94.790001
2013-04-08,43.27,43.799999,43.130001,43.790001,2814100,43.790001
2011-05-06,33.32,33.880001,33.09,33.400002,4903100,33.400002
2011-12-15,26.799999,27.01,26.389999,26.459999,5819000,26.459999
2014-10-17,63.459999,65.129997,63.459999,64.519997,6540800,64.519997
2016-01-12,89.889999,91.029999,88.410004,89.82,2370500,89.82
2009-04-16,24.139999,24.59,23.440001,24.379999,9291000,24.379999
2008-04-29,37.00,37.939999,36.93,37.759998,5444500,37.759998
2007-06-21,41.27,41.889999,40.50,41.529999,7481100,41.529999
2011-01-31,32.599998,33.130001,32.57,33.049999,5390600,33.049999
2011-09-21,25.950001,26.299999,24.879999,24.889999,15700200,24.889999
2016-06-22,95.529999,96.50,93.860001,94.010002,10280500,94.010002
2015-11-11,90.68,91.470001,90.25,91.209999,2361500,91.209999
2011-04-13,34.299999,34.439999,33.790001,34.209999,5072100,34.209999
2012-09-05,31.389999,32.259998,31.26,32.259998,6289600,32.259998
2013-02-06,38.360001,38.650002,38.259998,38.400002,2567800,38.400002
2016-11-03,106.540001,108.160004,106.480003,107.169998,3667000,107.169998
2015-05-21,79.540001,80.739998,79.190002,80.559998,2761200,80.559998
2007-12-20,41.939999,42.360001,41.549999,42.169998,6227400,42.169998
2007-05-29,42.34,43.259998,42.34,42.869999,5429900,42.869999
2007-10-19,47.080002,47.52,46.25,46.27,9980200,46.27
2015-07-24,81.00,81.360001,80.540001,80.980003,3575300,80.980003
2016-04-26,95.959999,96.300003,95.220001,96.150002,1419300,96.150002
2012-04-03,34.52,34.610001,33.990002,34.310001,2879500,34.310001
2008-11-14,23.99,24.360001,22.139999,22.34,11111500,22.34
2009-07-31,32.380001,32.860001,32.279999,32.419998,4226300,32.419998
2010-10-08,27.52,27.65,26.860001,26.99,44108800,26.99
2008-06-17,41.830002,42.650002,41.360001,41.400002,9027600,41.400002
2016-07-07,95.010002,95.510002,94.540001,95.139999,1576200,95.139999
2008-08-04,41.439999,41.639999,40.610001,41.290001,3643400,41.290001
2007-07-19,41.310001,42.540001,41.310001,42.200001,9162600,42.200001
2009-06-12,30.60,30.67,29.610001,30.15,5478600,30.15
2014-08-27,71.529999,72.089996,71.370003,71.550003,1705600,71.550003
2010-06-24,30.360001,30.809999,30.10,30.26,20287000,30.26
2015-08-25,77.019997,78.330002,74.470001,74.57,7465400,74.57
2013-07-01,45.23,47.189999,44.880001,46.240002,6341400,46.240002
2010-04-12,35.419998,35.540001,34.91,35.02,5690600,35.02
2015-06-09,77.879997,78.050003,76.949997,77.900002,2100900,77.900002
2015-07-09,80.739998,81.669998,80.410004,80.470001,3067900,80.470001
2016-06-10,96.889999,97.870003,96.75,97.089996,1863800,97.089996
2006-11-28,39.93,40.09,39.470001,39.91,3888400,39.91
2006-12-13,40.599998,40.75,39.529999,40.299999,4541800,40.299999
2007-07-23,41.869999,42.849998,41.790001,42.360001,8853700,42.360001
2014-10-02,67.830002,67.949997,66.150002,67.059998,3936900,67.059998
2011-03-07,35.450001,35.599998,34.25,34.720001,5003600,34.720001
2013-05-07,46.459999,46.68,45.290001,45.599998,6863000,45.599998
2007-01-08,40.41,40.970001,40.130001,40.450001,5234800,40.450001
2006-12-14,40.459999,41.59,40.049999,40.810001,12668000,40.810001
2010-06-14,32.00,32.380001,31.639999,31.700001,5240100,31.700001
2010-12-10,28.629999,28.809999,28.379999,28.709999,5346100,28.709999
2014-02-27,67.900002,70.080002,67.82,69.919998,4724500,69.919998
2007-09-11,43.389999,43.779999,43.32,43.740002,4756100,43.740002
2011-02-07,33.48,33.689999,33.349998,33.560001,3679400,33.560001
2012-03-30,34.689999,34.689999,34.240002,34.310001,5232500,34.310001
2009-11-24,36.150002,36.439999,35.84,35.950001,3790700,35.950001
2015-12-16,94.410004,95.660004,93.610001,95.559998,2613900,95.559998
2008-03-03,33.490002,33.68,32.529999,32.860001,12553200,32.860001
2010-05-26,31.65,31.719999,30.799999,30.940001,8820600,30.940001
2013-05-24,42.32,42.529999,41.91,42.43,3766200,42.43
2008-02-08,32.650002,33.279999,32.18,33.189999,9771200,33.189999
2013-08-01,47.619999,47.82,47.41,47.700001,3497600,47.700001
2015-02-26,78.32,79.07,78.019997,78.959999,1546000,78.959999
2007-01-31,38.880001,39.130001,38.279999,38.869999,4714500,38.869999
2008-11-26,21.629999,23.59,21.629999,23.35,9062200,23.35
2012-07-27,31.26,32.00,31.17,31.90,3312900,31.90
2010-09-13,32.290001,32.549999,31.959999,32.240002,6416700,32.240002
2016-01-14,88.919998,90.300003,87.32,89.800003,4087500,89.800003
2016-05-18,95.779999,97.43,95.50,96.699997,2010400,96.699997
2012-05-14,31.809999,32.52,31.67,32.23,3133400,32.23
2007-09-06,43.91,43.990002,43.50,43.720001,3718100,43.720001
2012-09-04,31.24,31.51,31.01,31.440001,4419800,31.440001
2009-04-29,25.99,26.84,25.59,26.75,9035900,26.75
2009-07-22,31.040001,31.48,31.00,31.34,5624400,31.34
2016-10-31,108.019997,108.290001,107.040001,107.510002,1678400,107.510002
2013-05-14,43.700001,44.099998,43.599998,44.040001,4305000,44.040001
2007-01-12,39.650002,40.200001,39.50,39.959999,3682900,39.959999
2013-05-13,43.98,44.009998,43.490002,43.610001,2768000,43.610001
2008-05-19,42.110001,43.23,42.040001,42.599998,7216300,42.599998
2015-04-14,76.019997,76.599998,75.589996,75.949997,1924800,75.949997
2014-12-30,73.629997,73.860001,72.75,73.080002,1581700,73.080002
2008-08-01,41.779999,41.779999,40.279999,41.220001,5907800,41.220001
2009-01-02,21.110001,23.10,21.07,23.02,6670700,23.02
2012-07-16,30.65,30.65,30.24,30.40,1879600,30.40
2010-01-15,35.919998,36.209999,35.470001,35.869999,6732300,35.869999
2011-11-08,30.16,30.68,30.040001,30.42,6593900,30.42
2011-02-28,34.68,35.00,34.16,34.50,4936900,34.50
2006-12-05,39.619999,39.619999,38.720001,39.150002,3600000,39.150002
2008-12-31,20.85,21.60,20.85,21.290001,4067000,21.290001
2012-11-06,34.419998,34.66,34.240002,34.389999,2678900,34.389999
2014-09-18,67.279999,68.150002,67.099998,67.910004,5173900,67.910004
2013-05-15,44.060001,45.110001,43.950001,45.07,3646000,45.07
2011-06-15,31.74,31.809999,31.07,31.129999,5132500,31.129999
2011-06-24,30.27,30.34,29.73,29.969999,8299100,29.969999
2012-06-18,32.27,32.68,32.080002,32.630001,4579500,32.630001
2011-08-17,24.57,25.15,24.309999,24.559999,5754300,24.559999
2014-07-22,72.129997,72.830002,71.910004,72.260002,1769500,72.260002
2007-09-26,43.09,44.00,42.689999,43.41,10196100,43.41
2008-03-28,36.119999,36.630001,35.200001,35.330002,7229300,35.330002
2010-01-21,36.490002,36.650002,35.459999,35.82,7404400,35.82
2007-12-04,42.220001,43.650002,42.220001,43.32,6540200,43.32
2007-03-19,39.799999,40.57,39.599998,40.240002,4909900,40.240002
2013-03-27,42.599998,42.880001,42.380001,42.66,1707000,42.66
2014-02-05,59.540001,61.02,59.27,61.00,5122600,61.00
2014-07-07,73.07,73.419998,72.580002,72.68,1768300,72.68
2010-12-20,29.01,29.42,28.98,29.18,11973600,29.18
2013-04-02,43.50,43.889999,43.360001,43.849998,3371600,43.849998
2010-11-01,28.290001,28.48,28.00,28.219999,5394700,28.219999
2012-06-27,31.280001,31.549999,31.10,31.41,1960300,31.41
2013-10-23,52.75,53.450001,52.16,53.060001,4386800,53.060001
2013-01-16,38.119999,38.27,37.810001,37.880001,2640700,37.880001
2009-11-12,35.82,36.110001,35.41,35.610001,5872900,35.610001
2011-11-03,29.629999,30.219999,29.49,30.16,5568800,30.16
2007-04-30,42.75,42.970001,41.560001,41.560001,6962200,41.560001
2012-11-26,33.220001,33.330002,33.049999,33.290001,2348500,33.290001
2008-01-31,33.869999,35.130001,33.439999,34.93,16394600,34.93
2016-03-29,91.790001,93.440002,91.760002,93.220001,4248600,93.220001
2010-05-04,33.119999,33.169998,32.220001,33.139999,11030000,33.139999
2013-12-10,55.380001,55.389999,54.650002,55.32,3787300,55.32
2007-08-01,40.290001,40.490002,38.57,39.580002,15048500,39.580002
2012-01-10,28.610001,29.35,28.610001,29.200001,4442700,29.200001
2009-10-27,34.540001,34.91,33.790001,33.950001,4267200,33.950001
2010-12-15,28.059999,28.43,27.68,27.719999,6462500,27.719999
2015-05-11,76.32,77.339996,76.07,76.790001,2139400,76.790001
2010-01-06,37.330002,37.740002,37.200001,37.619999,5336400,37.619999
2009-03-25,22.00,22.440001,21.50,22.10,10774000,22.10
2013-12-09,55.939999,56.049999,55.240002,55.439999,3397700,55.439999
2012-10-09,32.220001,32.25,31.559999,31.690001,3504400,31.690001
2016-05-20,96.099998,97.120003,95.860001,96.879997,2217900,96.879997
2016-04-25,94.379997,96.040001,94.220001,95.800003,2047000,95.800003
2007-02-08,38.18,38.400002,37.93,38.049999,3965100,38.049999
2016-07-13,97.970001,98.379997,97.339996,97.339996,2125700,97.339996
2016-04-28,94.800003,95.739998,93.150002,93.639999,3497700,93.639999
2014-04-02,66.07,66.309998,65.120003,65.480003,2587000,65.480003
2010-06-02,32.27,32.970001,31.790001,32.939999,7213700,32.939999
2010-09-03,29.66,29.91,29.25,29.49,6035600,29.49
2008-09-19,40.650002,41.389999,38.00,40.939999,10298400,40.939999
2016-07-08,95.93,96.860001,95.339996,96.790001,2023900,96.790001
2015-08-06,83.470001,83.629997,82.07,82.190002,2272300,82.190002
2013-10-14,51.900002,52.830002,51.720001,52.630001,4910000,52.630001
2008-09-10,41.349998,41.349998,40.450001,40.73,4945200,40.73
2012-06-06,30.91,31.719999,30.67,31.690001,3092800,31.690001
2008-08-18,44.790001,44.970001,43.75,44.099998,7454200,44.099998
2015-09-28,82.879997,83.00,80.029999,80.519997,3435700,80.519997
2009-08-21,32.439999,32.93,32.00,32.84,5108600,32.84
2011-05-24,34.560001,34.689999,33.990002,34.139999,2807100,34.139999
2008-04-01,36.560001,37.32,36.369999,37.25,9317900,37.25
2011-04-12,34.209999,34.290001,33.869999,34.09,4631700,34.09
2014-05-22,62.290001,63.459999,61.91,63.150002,1814700,63.150002
2011-08-09,24.09,24.85,23.200001,24.809999,12034700,24.809999
2011-02-25,34.150002,34.939999,34.139999,34.630001,5620300,34.630001
2013-01-08,37.779999,38.200001,37.75,38.139999,3080900,38.139999
2015-09-16,79.510002,80.669998,79.32,80.529999,2509800,80.529999
2009-07-15,29.18,29.91,29.00,29.85,11216500,29.85
2015-06-19,79.410004,79.940002,79.059998,79.699997,3155600,79.699997
2010-03-03,34.869999,35.150002,34.610001,34.82,4098900,34.82
2012-03-16,34.060001,34.150002,33.66,33.82,5093300,33.82
2013-06-10,44.299999,44.34,43.84,44.09,1833900,44.09
2010-09-08,29.32,29.620001,29.23,29.309999,5205600,29.309999
2015-02-02,70.440002,71.199997,69.040001,71.110001,2381900,71.110001
2009-09-11,34.110001,34.98,34.049999,34.650002,7586300,34.650002
2010-04-06,35.560001,35.93,35.549999,35.700001,4211400,35.700001
2007-06-15,44.43,44.50,42.43,42.75,21342400,42.75
2011-02-14,33.700001,34.00,33.610001,33.860001,2746300,33.860001
2011-09-28,25.620001,25.799999,25.040001,25.110001,4783900,25.110001
2008-05-27,41.16,42.099998,41.049999,41.990002,4002200,41.990002
2013-05-23,42.66,43.139999,42.57,42.77,3339700,42.77
2013-02-27,38.32,39.75,38.099998,39.599998,5285300,39.599998
2010-05-17,33.98,34.220001,33.18,33.810001,6235300,33.810001
2016-02-18,82.300003,82.82,80.139999,80.529999,3560300,80.529999
2013-10-24,53.060001,54.580002,53.049999,54.209999,5717200,54.209999
2015-10-30,87.989998,89.489998,87.900002,88.660004,2131600,88.660004
2014-04-03,65.50,65.50,62.169998,62.450001,6984500,62.450001
2011-01-06,32.130001,32.290001,31.879999,32.27,6230900,32.27
2014-12-18,75.410004,75.540001,74.599998,74.889999,6913500,74.889999
2015-03-13,77.18,78.059998,76.620003,77.620003,2202800,77.620003
2011-05-19,34.98,35.509998,34.869999,35.41,4252800,35.41
2013-04-24,44.91,45.049999,44.52,44.669998,2223500,44.669998
2007-01-09,40.50,40.509998,39.380001,39.630001,5672900,39.630001
2011-01-12,33.139999,33.740002,33.060001,33.57,7319100,33.57
2015-06-12,79.330002,80.260002,79.059998,79.860001,1794900,79.860001
2011-01-18,33.549999,34.299999,33.540001,34.18,5722100,34.18
2007-11-16,41.400002,42.52,41.130001,42.189999,16459600,42.189999
2011-09-27,25.540001,26.139999,25.360001,25.559999,5871400,25.559999
2016-04-08,94.480003,94.50,93.389999,94.07,2063100,94.07
2016-02-11,74.040001,75.529999,73.580002,74.940002,4984700,74.940002
2015-02-20,77.760002,78.559998,77.199997,78.550003,1626900,78.550003
2015-03-10,77.25,77.290001,75.989998,76.010002,2622000,76.010002
2013-06-19,46.43,46.439999,45.349998,45.779999,12566000,45.779999
2016-04-27,95.720001,95.989998,94.529999,95.639999,2082800,95.639999
2010-04-14,34.630001,35.040001,34.57,35.02,5037400,35.02
2011-10-25,28.049999,28.280001,27.77,27.85,6455700,27.85
2010-04-08,35.029999,35.080002,34.630001,34.939999,5726800,34.939999
2013-05-10,44.119999,44.200001,43.75,44.02,4571200,44.02
2015-07-23,80.800003,81.400002,80.480003,80.639999,2579500,80.639999
2010-03-11,35.07,35.27,35.00,35.220001,4371500,35.220001
2012-03-12,33.50,33.849998,33.27,33.560001,2487300,33.560001
2009-11-17,36.560001,36.950001,36.439999,36.900002,3283300,36.900002
2013-06-14,43.330002,43.57,42.700001,42.84,2320100,42.84
2016-05-09,94.00,95.190002,93.870003,94.610001,1406900,94.610001
2014-08-19,71.089996,72.080002,71.059998,72.050003,1997800,72.050003
2014-06-10,66.690002,67.190002,66.459999,66.959999,1558800,66.959999
2008-09-05,41.369999,41.830002,40.50,40.91,10903200,40.91
2012-02-09,32.09,32.689999,32.09,32.650002,4711900,32.650002
2007-06-19,42.299999,42.75,42.150002,42.48,4917400,42.48
2009-08-04,32.599998,33.259998,32.560001,33.00,4677500,33.00
2009-08-06,32.009998,32.540001,31.870001,32.419998,6419900,32.419998
2014-04-08,60.529999,62.25,60.110001,61.82,6710000,61.82
2011-11-28,26.49,26.879999,26.41,26.620001,5923300,26.620001
2010-03-16,35.459999,35.68,34.93,35.02,5818800,35.02
2011-10-12,26.09,26.280001,25.799999,25.879999,4819100,25.879999
2010-11-26,28.120001,28.790001,27.98,28.719999,2658300,28.719999
2012-08-27,32.470001,32.75,32.299999,32.32,4457400,32.32
2013-11-11,54.849998,56.18,54.490002,56.18,4221800,56.18
2015-08-05,82.779999,84.120003,82.169998,83.379997,1773000,83.379997
2010-08-03,29.48,29.49,28.93,29.120001,5651900,29.120001
2007-08-14,41.009998,41.049999,40.18,40.41,4473000,40.41
2010-03-22,34.610001,35.060001,34.599998,34.950001,4895900,34.950001
2008-02-05,33.990002,34.759998,33.790001,33.959999,7366800,33.959999
2012-03-23,33.709999,33.84,33.50,33.810001,3253200,33.810001
2015-11-17,89.959999,91.290001,89.870003,90.290001,1736500,90.290001
2008-07-02,40.540001,41.299999,39.810001,39.810001,7182600,39.810001
2016-08-22,100.32,100.68,99.919998,100.239998,1000800,100.239998
2012-12-21,37.360001,38.00,37.349998,37.709999,7975900,37.709999
2012-05-21,31.450001,32.07,30.940001,32.009998,3420000,32.009998
2016-08-12,100.980003,101.199997,100.059998,101.040001,1713300,101.040001
2012-09-14,32.93,33.380001,32.740002,33.34,3862300,33.34
2009-06-02,29.17,29.75,29.08,29.59,7365400,29.59
2008-07-28,40.799999,41.049999,39.720001,39.959999,3895800,39.959999
2015-02-13,74.980003,76.620003,74.769997,76.510002,3819300,76.510002
2011-01-14,33.41,33.919998,33.32,33.790001,5767300,33.790001
2009-12-11,35.900002,35.98,35.150002,35.380001,4381500,35.380001
2015-06-03,79.93,80.339996,79.440002,80.129997,1965100,80.129997
2009-03-30,21.33,21.48,20.389999,20.82,9617500,20.82
2011-04-18,34.07,34.139999,33.290001,33.849998,5449000,33.849998
2007-08-08,39.610001,40.669998,39.50,40.23,6291900,40.23
2015-06-17,79.50,80.00,77.739998,77.910004,6464200,77.910004
2016-06-16,96.50,97.300003,95.540001,97.190002,1952000,97.190002
2016-11-14,104.120003,104.489998,101.769997,102.419998,3040500,102.419998
2013-12-23,59.740002,59.889999,59.119999,59.470001,1947900,59.470001
2006-12-28,41.779999,41.84,41.25,41.529999,3036700,41.529999
2014-06-09,66.699997,67.379997,66.589996,66.93,1339800,66.93
2008-09-15,40.400002,40.400002,38.080002,38.080002,9701800,38.080002
2011-01-25,32.98,33.709999,32.98,33.560001,8191400,33.560001
2016-06-20,97.099998,98.75,96.769997,97.989998,4310600,97.989998
2016-02-24,82.220001,83.529999,80.93,83.419998,2667300,83.419998
2016-01-22,89.550003,89.93,88.480003,89.629997,5390100,89.629997
2016-04-05,93.32,94.769997,93.220001,94.169998,2472600,94.169998
2010-08-11,28.83,28.85,28.23,28.25,7505800,28.25
2007-11-08,46.099998,46.189999,44.02,45.029999,11533900,45.029999
2014-02-18,68.620003,69.099998,68.00,68.660004,3757900,68.660004
2016-09-19,99.209999,100.209999,99.019997,99.68,3307500,99.68
2009-05-07,26.58,26.639999,25.379999,25.629999,7950000,25.629999
2011-12-19,28.059999,28.290001,27.40,27.51,6635000,27.51
2014-07-30,72.50,72.699997,71.470001,71.889999,2667600,71.889999
2012-11-12,32.950001,33.029999,32.66,32.700001,1911900,32.700001
2016-04-29,92.889999,94.580002,92.32,94.220001,3163800,94.220001
2010-06-08,31.15,31.26,30.60,31.00,7767400,31.00
2011-06-02,34.07,34.279999,33.720001,34.259998,6012000,34.259998
2008-07-15,39.09,40.529999,37.75,39.830002,10799100,39.830002
2008-07-07,39.790001,40.860001,38.810001,39.720001,8583900,39.720001
2016-03-03,88.50,88.50,85.849998,87.209999,3082100,87.209999
2016-04-18,94.75,96.580002,94.589996,96.550003,2172700,96.550003
2012-12-27,37.490002,37.619999,36.830002,37.299999,3422700,37.299999
2011-08-12,23.879999,24.27,23.780001,24.10,7304800,24.10
2007-05-03,41.599998,41.75,41.09,41.200001,4452600,41.200001
2009-09-17,33.549999,33.59,32.720001,32.84,13828300,32.84
2008-11-20,21.370001,22.790001,20.709999,20.75,10482800,20.75
2007-01-29,39.400002,39.75,38.91,39.349998,3994000,39.349998
2008-05-21,41.59,41.959999,40.799999,40.950001,5445500,40.950001
2015-12-09,91.040001,91.790001,88.949997,89.559998,3333600,89.559998
2010-11-22,28.719999,29.23,28.549999,29.18,4450100,29.18
2012-01-30,30.690001,31.129999,30.549999,31.00,5184400,31.00
2014-02-12,64.209999,65.150002,64.089996,65.139999,3137800,65.139999
2011-11-16,28.24,29.07,28.00,28.540001,6319800,28.540001
2007-04-16,42.830002,42.900002,42.23,42.400002,7416300,42.400002
2011-02-01,33.25,33.860001,33.220001,33.509998,4738000,33.509998
2008-10-06,31.93,33.450001,29.41,30.709999,17982700,30.709999
2015-12-07,92.559998,92.879997,89.220001,89.599998,3958700,89.599998
2008-09-04,43.669998,43.990002,42.189999,42.189999,6416700,42.189999
2009-10-30,33.400002,33.869999,32.860001,32.939999,5810300,32.939999
2010-08-20,27.74,28.040001,27.41,27.92,5253800,27.92
2008-10-20,27.99,29.379999,27.790001,29.309999,5387400,29.309999
2015-03-18,75.50,78.32,74.75,76.889999,10509400,76.889999
2014-05-06,61.150002,61.349998,59.34,59.439999,3913200,59.439999
2016-10-14,108.190002,109.099998,107.82,107.839996,1968000,107.839996
2014-07-16,72.550003,72.870003,72.190002,72.379997,1512600,72.379997
2016-02-22,82.089996,84.160004,82.050003,83.800003,3615500,83.800003
2008-06-02,43.970001,44.240002,42.759998,43.459999,5083100,43.459999
2013-10-31,54.009998,54.560001,53.900002,54.220001,3509500,54.220001
2015-09-15,78.610001,80.110001,78.300003,79.529999,3436300,79.529999
2011-01-13,33.580002,33.720001,33.07,33.380001,7594800,33.380001
2013-07-05,46.689999,47.099998,46.549999,47.00,1614600,47.00
2013-04-01,43.360001,43.779999,43.23,43.380001,3398000,43.380001
2009-04-21,23.35,24.129999,23.25,23.75,7443000,23.75
2008-10-01,39.419998,39.419998,37.91,38.119999,6296600,38.119999
2007-05-31,43.950001,44.919998,43.650002,44.060001,8689800,44.060001
2013-02-15,38.509998,38.759998,38.380001,38.630001,2367900,38.630001
2014-01-21,61.50,61.790001,60.700001,60.849998,3198700,60.849998
2013-07-18,48.040001,48.52,48.009998,48.189999,2641600,48.189999
2010-11-03,29.02,29.09,28.52,28.799999,6423800,28.799999
2007-02-20,40.09,40.759998,39.50,40.740002,5092100,40.740002
2015-09-01,77.07,77.82,75.629997,75.989998,3206400,75.989998
2011-05-13,35.75,35.849998,35.209999,35.330002,4072300,35.330002
2009-02-06,20.93,21.799999,20.809999,21.700001,9851900,21.700001
2013-07-10,47.09,47.330002,46.639999,47.25,2684700,47.25
2014-08-07,68.690002,68.879997,67.57,67.830002,2292500,67.830002
2011-07-18,29.18,29.18,28.34,28.77,5789500,28.77
2007-04-02,41.560001,41.919998,41.029999,41.650002,5393800,41.650002
2016-10-06,108.720001,109.269997,108.139999,108.559998,1590800,108.559998
2008-07-23,40.720001,42.34,40.630001,41.82,10085000,41.82
2015-06-11,79.809998,80.290001,79.419998,79.650002,1918300,79.650002
2010-02-10,33.450001,33.549999,32.57,32.759998,9592000,32.759998
2013-04-09,43.709999,44.259998,43.34,44.169998,2529400,44.169998
2009-05-01,27.08,28.00,27.02,27.459999,9135200,27.459999
2011-12-05,27.43,28.07,27.25,27.91,4979900,27.91
2014-01-22,60.93,61.810001,60.700001,61.77,3594000,61.77
2015-10-08,80.449997,82.480003,80.199997,82.260002,4596000,82.260002
2009-02-23,18.09,18.09,16.90,17.09,14265600,17.09
2014-01-17,61.02,61.599998,60.799999,61.369999,3314500,61.369999
2016-03-23,92.620003,92.940002,91.93,92.160004,2767600,92.160004
2009-10-09,34.080002,34.77,33.98,34.639999,3708700,34.639999
2013-11-12,55.84,56.34,55.599998,56.240002,2929200,56.240002
2012-01-26,31.15,31.77,31.00,31.18,4287800,31.18
2014-03-14,67.699997,67.699997,66.870003,67.190002,3006600,67.190002
2013-08-14,47.139999,47.139999,46.68,46.84,2115100,46.84
2015-06-15,79.169998,79.25,78.349998,78.900002,2459700,78.900002
2011-06-29,30.950001,31.26,30.879999,31.15,5023600,31.15
2012-06-12,31.34,31.780001,31.200001,31.77,3305700,31.77
2015-08-12,83.160004,84.139999,82.080002,83.82,2218500,83.82
2011-08-26,23.82,24.75,23.549999,24.540001,4268400,24.540001
2008-03-20,34.82,35.50,34.25,34.450001,12402200,34.450001
2011-12-30,28.26,28.639999,28.26,28.27,3471900,28.27
2013-11-08,53.419998,54.93,53.330002,54.84,5940900,54.84
2008-09-16,38.509998,39.150002,36.150002,38.139999,11835200,38.139999
2014-09-04,72.629997,73.199997,72.260002,72.459999,1976000,72.459999
2015-09-04,76.989998,78.269997,76.389999,76.889999,2326500,76.889999
2010-12-22,30.85,30.889999,30.299999,30.65,6343500,30.65
2008-04-22,36.73,36.740002,35.610001,36.169998,8197500,36.169998
2012-02-13,32.419998,32.650002,32.00,32.349998,3260800,32.349998
2014-08-11,68.50,69.18,68.279999,68.970001,2196900,68.970001
2008-08-07,43.07,43.950001,42.93,43.220001,5956700,43.220001
2014-07-24,72.300003,72.900002,72.199997,72.800003,2414100,72.800003
2011-07-13,30.52,30.77,29.969999,30.07,5277400,30.07
2013-08-26,46.25,46.610001,46.009998,46.060001,2590500,46.060001
2015-12-17,95.699997,96.419998,94.190002,94.199997,3069700,94.199997
2009-04-09,24.48,24.969999,24.280001,24.870001,8500700,24.870001
2015-01-06,71.949997,72.099998,69.879997,70.529999,2895400,70.529999
2008-10-03,34.830002,36.189999,33.59,33.689999,11062700,33.689999
2015-11-03,89.589996,90.739998,88.919998,90.360001,2102200,90.360001
2015-06-26,84.220001,84.220001,82.269997,82.739998,5914700,82.739998
2014-01-28,57.98,59.459999,57.880001,59.110001,3529500,59.110001
2015-01-09,72.889999,73.129997,71.629997,71.839996,1730300,71.839996
2012-06-29,31.74,32.369999,31.68,32.369999,4451000,32.369999
2009-10-02,31.59,32.540001,31.59,32.349998,5922800,32.349998
2008-07-11,39.099998,40.200001,38.689999,39.240002,6971500,39.240002
2014-12-24,74.489998,74.93,74.370003,74.739998,1204600,74.739998
2009-01-29,20.60,20.91,19.610001,20.049999,7692200,20.049999
2011-02-17,34.48,35.099998,34.419998,34.98,4395700,34.98
2007-09-18,44.509998,44.799999,42.91,43.709999,20897500,43.709999
2015-05-26,79.910004,80.120003,78.839996,79.360001,2080800,79.360001
2015-04-02,75.169998,76.169998,74.610001,75.68,2158400,75.68
2016-07-25,97.75,97.75,96.879997,97.32,1815100,97.32
2011-07-06,31.52,31.790001,31.450001,31.65,2873100,31.65
2015-01-21,71.160004,71.889999,70.370003,71.540001,1787900,71.540001
2010-03-12,35.220001,35.27,35.110001,35.16,6262400,35.16
2007-05-04,41.50,41.700001,41.060001,41.330002,3554500,41.330002
2008-09-24,39.060001,40.009998,39.00,39.450001,4636000,39.450001
2013-02-13,38.900002,39.150002,38.669998,38.810001,2491000,38.810001
2016-06-29,92.910004,94.620003,92.68,94.389999,2965500,94.389999
2016-09-15,98.839996,100.040001,98.489998,99.620003,3095000,99.620003
2011-07-11,31.18,31.33,30.76,30.98,3725400,30.98
2009-11-20,35.720001,36.07,35.490002,35.810001,3344500,35.810001
2015-01-26,72.610001,73.150002,71.68,72.739998,3593700,72.739998
2010-04-26,36.209999,36.349998,35.990002,36.150002,5610500,36.150002
2013-09-18,51.68,52.669998,51.060001,52.580002,15267900,52.580002
2012-08-02,30.459999,30.83,30.25,30.58,2640000,30.58
2010-10-05,25.790001,26.00,25.66,25.77,14809600,25.77
2015-09-03,77.599998,79.550003,77.360001,78.32,3480100,78.32
2010-03-29,35.599998,36.009998,35.599998,35.740002,5055700,35.740002
2010-06-15,31.889999,32.619999,31.780001,32.509998,5930200,32.509998
2009-03-05,18.16,18.190001,16.309999,16.92,26498300,16.92
2012-07-20,31.93,32.049999,31.35,31.379999,4063500,31.379999
2007-10-24,47.549999,48.00,46.709999,48.00,6642000,48.00
2012-10-25,33.529999,33.689999,33.27,33.400002,2868700,33.400002
2008-04-08,36.639999,37.189999,36.509998,36.830002,4615900,36.830002
2008-07-24,41.00,41.27,40.43,40.720001,5533000,40.720001
2014-06-17,67.360001,68.00,66.860001,67.540001,6654100,67.540001
2008-08-25,44.52,44.75,43.50,43.669998,4250700,43.669998
2013-03-21,41.990002,42.630001,41.900002,42.18,5659400,42.18
2008-11-05,28.959999,29.08,27.059999,27.219999,8438400,27.219999
2008-12-17,24.040001,24.040001,21.32,21.690001,15258800,21.690001
2014-11-24,71.519997,71.550003,70.730003,71.220001,1821200,71.220001
2011-11-29,26.690001,26.690001,25.940001,26.07,8097000,26.07
2012-12-13,36.009998,36.50,35.189999,35.529999,7746200,35.529999
2014-02-13,64.839996,67.110001,64.830002,67.040001,3606900,67.040001
2008-11-24,21.84,22.42,21.290001,21.73,12915600,21.73
2013-09-05,46.880001,47.34,46.68,46.73,2379800,46.73
2014-09-09,73.580002,73.580002,72.339996,72.419998,1648300,72.419998
2014-12-12,74.169998,77.559998,73.709999,76.019997,12613700,76.019997
2015-05-19,79.75,79.93,79.370003,79.620003,2065600,79.620003
2016-02-29,86.010002,86.190002,85.089996,85.150002,3156400,85.150002
2015-03-23,77.110001,77.300003,76.339996,76.349998,1754100,76.349998
2013-04-16,44.77,45.349998,44.77,45.279999,2226500,45.279999
2007-02-14,38.439999,38.700001,38.419998,38.599998,10016000,38.599998
2007-10-09,45.00,45.349998,44.41,44.970001,7259300,44.970001
2008-10-15,29.82,29.82,25.940001,25.940001,8377200,25.940001
2016-01-05,92.010002,92.849998,91.410004,92.339996,1821300,92.339996
2016-08-03,96.059998,96.68,95.650002,96.669998,2070700,96.669998
2012-11-29,34.080002,34.169998,33.779999,34.09,3353700,34.09
2010-02-23,33.68,33.82,33.200001,33.439999,7906000,33.439999
2012-07-02,31.860001,32.25,31.860001,32.189999,3895800,32.189999
2010-09-10,32.560001,32.639999,31.860001,32.200001,15942400,32.200001
2008-02-28,35.299999,35.700001,34.970001,35.34,5330500,35.34
2014-12-16,72.870003,73.800003,72.309998,72.32,4051200,72.32
2010-08-04,29.139999,29.75,29.059999,29.700001,6700600,29.700001
2016-11-09,105.550003,108.050003,104.519997,107.860001,3650200,107.860001
2013-08-19,45.439999,45.52,44.880001,44.889999,2185800,44.889999
2015-12-08,89.220001,92.089996,88.959999,91.720001,3372900,91.720001
2014-06-13,66.699997,66.949997,66.25,66.82,2981100,66.82
2008-05-06,40.150002,40.450001,39.529999,40.25,4972300,40.25
2012-06-13,31.65,32.09,31.540001,31.790001,4141000,31.790001
2011-03-23,32.610001,32.720001,30.76,31.68,17689600,31.68
2007-06-11,43.200001,43.529999,42.860001,42.990002,5431500,42.990002
2009-05-21,25.90,26.15,25.700001,26.07,6320700,26.07
2011-12-01,26.93,27.450001,26.90,27.139999,4908200,27.139999
2016-03-10,85.059998,86.519997,83.589996,84.849998,2969700,84.849998
2009-09-09,32.25,32.919998,32.119999,32.799999,5852200,32.799999
2012-09-28,32.650002,32.93,32.389999,32.439999,4017900,32.439999
2013-09-26,52.00,52.380001,51.810001,52.099998,2902900,52.099998
2015-11-27,91.860001,92.57,91.769997,92.169998,633000,92.169998
2012-07-25,30.059999,30.52,29.98,30.33,3003700,30.33
2007-05-17,42.119999,42.889999,41.73,42.419998,8927200,42.419998
2007-07-31,41.02,41.299999,40.110001,40.290001,8404100,40.290001
2009-10-19,35.759998,35.93,35.490002,35.650002,4116500,35.650002
2010-10-27,27.950001,28.23,27.799999,28.17,10814600,28.17
2008-06-30,39.630001,39.990002,39.279999,39.389999,6542300,39.389999
2007-10-22,46.220001,47.16,46.00,47.119999,5481600,47.119999
2010-06-25,30.43,30.57,29.690001,29.85,15030600,29.85
2008-05-30,43.959999,44.380001,43.68,44.060001,5842500,44.060001
2014-06-20,73.040001,73.150002,72.550003,72.610001,3904500,72.610001
2012-03-22,33.310001,33.799999,33.220001,33.709999,5121700,33.709999
2013-11-06,54.900002,55.110001,54.540001,54.880001,3286100,54.880001
2011-08-04,26.91,27.120001,26.120001,26.15,11350400,26.15
2013-03-07,41.400002,41.59,41.200001,41.50,2678600,41.50
2009-04-02,22.790001,23.84,22.610001,23.280001,11062100,23.280001
2015-01-29,70.029999,71.82,69.779999,71.639999,2538100,71.639999
2010-09-07,29.48,29.57,29.10,29.17,4154100,29.17
2011-12-09,27.35,28.15,27.299999,28.040001,4227400,28.040001
2007-03-02,38.799999,39.830002,38.650002,38.66,6431600,38.66
2016-07-26,97.809998,98.419998,97.00,97.910004,2196500,97.910004
2009-08-13,33.32,33.470001,32.759998,33.43,6055200,33.43
2015-03-25,75.50,75.589996,73.120003,73.129997,3444700,73.129997
2014-08-05,68.300003,69.550003,68.290001,68.970001,3456700,68.970001
2012-03-28,34.52,34.75,34.279999,34.459999,4223100,34.459999
2009-07-17,30.90,31.059999,30.389999,31.02,6301300,31.02
2009-09-29,32.880001,33.220001,32.529999,32.68,5013100,32.68
2013-07-30,47.189999,47.50,47.119999,47.360001,2758000,47.360001
2012-02-24,32.91,33.50,32.860001,33.41,3481200,33.41
2015-06-30,82.190002,82.339996,80.949997,81.010002,4086400,81.010002
2013-03-08,41.75,41.91,41.32,41.50,3330300,41.50
2014-11-18,69.860001,71.080002,69.860001,70.830002,2833200,70.830002
2008-09-30,36.720001,39.529999,36.490002,39.470001,10378600,39.470001
2009-07-13,27.559999,28.450001,26.90,28.370001,8030700,28.370001
2009-06-24,27.59,28.379999,27.50,27.74,7141400,27.74
2008-11-13,21.68,24.379999,21.120001,24.299999,11851900,24.299999
2013-05-20,44.549999,44.68,44.150002,44.290001,1491100,44.290001
2014-01-10,59.349998,59.630001,58.950001,59.529999,1829100,59.529999
2007-09-25,41.259998,43.00,41.259998,42.740002,11945900,42.740002
2008-05-09,39.630001,40.169998,39.25,39.889999,2800700,39.889999
2015-01-30,71.32,71.669998,70.059998,70.129997,2331800,70.129997
2010-11-15,29.57,29.82,29.40,29.51,5192200,29.51
2013-10-22,53.470001,53.57,52.990002,53.169998,4375700,53.169998
2012-07-23,30.809999,30.82,30.23,30.639999,2689800,30.639999
2008-12-19,21.40,22.299999,21.129999,22.129999,8235700,22.129999
2011-06-01,34.529999,34.82,34.110001,34.119999,3569400,34.119999
2013-09-13,47.66,47.959999,47.639999,47.759998,2571600,47.759998
2011-04-15,34.41,34.73,34.240002,34.509998,6120900,34.509998
2008-07-16,39.77,41.099998,39.50,41.049999,6940500,41.049999
2010-05-07,32.759998,32.959999,31.68,32.419998,14897300,32.419998
2007-11-30,43.009998,43.139999,41.799999,42.139999,6717000,42.139999
2016-07-29,98.400002,98.550003,97.230003,97.860001,1786600,97.860001
2015-09-25,84.709999,84.720001,82.580002,83.129997,3736900,83.129997
2008-06-03,43.419998,44.209999,43.00,43.529999,5405100,43.529999
2014-02-26,67.730003,68.949997,67.650002,67.82,3066500,67.82
2012-09-06,32.259998,32.98,32.259998,32.790001,4577200,32.790001
2016-09-20,100.160004,100.910004,99.720001,100.620003,4104900,100.620003
2016-01-20,87.690002,88.760002,84.669998,87.940002,3667200,87.940002
2008-07-18,41.169998,42.189999,40.75,41.98,6190500,41.98
2007-04-17,42.529999,43.009998,41.880001,43.00,6449300,43.00
2011-10-21,26.389999,27.41,26.360001,27.299999,7311100,27.299999
2007-11-21,41.869999,42.439999,41.470001,41.84,4771600,41.84
2008-12-02,21.41,22.25,21.01,22.00,7201400,22.00
2012-04-19,33.200001,33.700001,32.689999,32.900002,3452900,32.900002
2015-09-30,80.879997,82.370003,80.379997,82.220001,3653800,82.220001
2007-02-12,37.990002,38.189999,37.470001,38.09,6753800,38.09
2007-03-30,41.369999,41.77,40.889999,41.700001,5511700,41.700001
2015-06-05,78.639999,79.389999,78.379997,78.860001,1325500,78.860001
2012-10-17,33.119999,33.540001,32.919998,33.439999,5146400,33.439999
2008-06-26,41.889999,41.93,40.779999,40.830002,7001400,40.830002
2010-09-16,32.759998,33.130001,32.619999,32.849998,6240400,32.849998
2009-07-21,31.030001,31.35,30.84,31.26,6274000,31.26
2010-10-14,27.85,28.00,27.200001,27.49,7435600,27.49
2008-03-19,33.779999,36.130001,33.759998,34.75,25122000,34.75
2015-11-09,90.239998,90.489998,88.989998,89.800003,1705200,89.800003
2009-01-05,22.52,23.309999,22.50,23.129999,7385500,23.129999
2011-06-22,30.299999,30.77,29.780001,30.01,22453100,30.01
2008-12-04,20.91,21.66,20.00,20.440001,18690600,20.440001
2007-01-22,38.439999,38.630001,37.200001,37.830002,6619400,37.830002
2013-11-18,57.450001,57.490002,56.400002,56.599998,3173600,56.599998
2012-08-07,32.240002,32.580002,32.220001,32.369999,2569000,32.369999
2011-02-23,33.700001,33.740002,32.93,33.380001,4734100,33.380001
2013-09-23,52.07,52.470001,51.619999,51.799999,3183400,51.799999
2010-07-28,29.110001,29.370001,28.59,28.690001,4451700,28.690001
2012-11-02,34.59,34.599998,34.23,34.389999,4006300,34.389999
2007-08-06,38.709999,39.77,38.540001,39.380001,7147600,39.380001
2009-05-04,26.59,26.75,25.879999,26.690001,14574300,26.690001
2016-05-05,93.099998,94.220001,92.919998,93.50,1894800,93.50
2009-06-30,28.76,28.790001,27.940001,28.299999,6104800,28.299999
2011-02-04,33.57,33.720001,33.169998,33.360001,6534800,33.360001
2007-11-06,47.849998,48.27,47.099998,47.630001,5025100,47.630001
2007-08-07,39.080002,39.91,38.610001,39.419998,6868500,39.419998
2013-08-06,47.549999,47.849998,47.369999,47.389999,1642800,47.389999
2009-02-12,19.950001,21.26,19.780001,21.219999,12831000,21.219999
2012-03-01,32.860001,33.290001,32.77,33.099998,2898900,33.099998
2015-12-21,92.160004,92.690002,90.809998,91.620003,2663600,91.620003
2016-08-08,98.860001,98.949997,98.300003,98.489998,1107200,98.489998
2012-09-26,32.91,32.98,32.419998,32.529999,3406100,32.529999
2015-01-12,72.129997,72.260002,70.75,71.120003,1337900,71.120003
2012-08-10,32.57,32.689999,32.43,32.639999,2975800,32.639999
2013-07-11,47.619999,48.00,47.50,47.990002,3293500,47.990002
2011-08-08,24.77,25.209999,23.91,23.91,11923600,23.91
2009-01-23,19.00,20.10,18.700001,19.700001,10483800,19.700001
2013-09-16,48.169998,48.700001,47.970001,48.139999,4474800,48.139999
2015-12-02,92.519997,92.849998,91.68,92.019997,1904500,92.019997
2007-03-29,42.209999,42.209999,40.779999,41.529999,8960300,41.529999
2007-10-23,47.259998,47.810001,47.00,47.75,5460300,47.75
2008-04-09,36.900002,36.939999,35.990002,36.32,4304300,36.32
2016-05-02,94.290001,94.989998,93.809998,94.900002,2330600,94.900002
2007-07-03,40.16,40.759998,40.139999,40.709999,3545700,40.709999
2014-04-23,64.230003,64.580002,63.779999,64.389999,2863700,64.389999
2015-05-22,80.339996,80.699997,79.970001,80.040001,1824800,80.040001
2011-05-17,34.389999,34.970001,34.209999,34.720001,5348600,34.720001
2014-05-13,60.810001,60.970001,60.139999,60.810001,2938400,60.810001
2015-10-16,87.169998,89.040001,86.18,88.669998,5332100,88.669998
2010-08-18,27.790001,28.27,27.49,28.10,4006400,28.10
2013-02-11,38.990002,39.049999,38.529999,38.639999,2333800,38.639999
2009-08-19,31.450001,31.879999,31.17,31.719999,5001200,31.719999
2013-08-23,45.849998,45.880001,45.41,45.77,2410900,45.77
2009-05-27,27.67,28.07,27.15,27.25,5013700,27.25
2009-01-12,24.07,24.35,23.60,23.76,6952400,23.76
2011-09-15,26.030001,26.18,25.690001,26.120001,5478600,26.120001
2015-07-10,81.50,81.50,80.470001,80.589996,3025100,80.589996
2011-11-02,28.879999,29.67,28.83,29.35,9150300,29.35
2014-05-27,64.639999,65.489998,64.610001,65.25,2150600,65.25
2013-10-18,52.150002,52.779999,52.00,52.630001,4210100,52.630001
2012-12-11,35.799999,36.110001,35.470001,35.540001,5912900,35.540001
2012-08-08,32.189999,32.639999,32.189999,32.509998,2156700,32.509998
2016-02-26,87.110001,87.480003,84.099998,86.599998,3723200,86.599998
2012-10-10,31.639999,31.799999,31.33,31.51,2481700,31.51
2015-09-22,81.980003,84.830002,81.769997,84.660004,6336500,84.660004
2015-03-06,78.190002,78.50,77.050003,77.550003,2537100,77.550003
2014-01-14,58.68,60.529999,58.630001,60.369999,4179500,60.369999
2010-11-17,28.969999,29.280001,28.66,28.90,6688200,28.90
2008-05-01,38.34,39.220001,37.900002,39.009998,7222100,39.009998
2008-08-22,44.880001,45.09,44.50,44.91,4088800,44.91
2009-01-13,22.969999,23.219999,21.75,22.10,14001200,22.10
2013-12-24,59.580002,59.779999,59.220001,59.529999,846700,59.529999
2010-03-15,35.150002,35.560001,35.00,35.490002,3933100,35.490002
2006-12-15,43.150002,43.220001,42.220001,42.810001,19193400,42.810001
2016-10-05,108.57,109.330002,108.32,108.800003,1855000,108.800003
2008-06-18,40.810001,41.540001,40.709999,40.939999,6306400,40.939999
2008-07-03,40.279999,40.650002,39.810001,40.389999,3387300,40.389999
2014-06-23,72.739998,73.160004,72.290001,72.889999,2354200,72.889999
2007-12-18,42.169998,43.970001,41.580002,42.029999,17588300,42.029999
2008-04-04,37.00,37.349998,36.630001,36.970001,5143300,36.970001
2007-01-05,40.779999,40.900002,40.119999,40.619999,2730200,40.619999
2014-10-01,69.129997,69.129997,67.510002,67.540001,4650600,67.540001
2011-08-16,24.33,24.76,24.219999,24.629999,7402600,24.629999
2011-08-30,25.200001,25.389999,24.90,25.190001,5029900,25.190001
2010-07-30,28.40,28.84,28.110001,28.719999,4531500,28.719999
2015-08-07,81.870003,82.919998,81.480003,82.690002,1989700,82.690002
2008-11-11,24.77,24.91,23.450001,23.639999,7489100,23.639999
2008-04-30,37.790001,38.099998,37.279999,37.290001,4877400,37.290001
2008-01-24,33.560001,34.700001,33.560001,34.639999,7290400,34.639999
2012-03-27,34.330002,34.709999,34.279999,34.630001,4376000,34.630001
2009-12-14,35.779999,35.84,35.310001,35.779999,5446500,35.779999
2012-10-02,32.82,32.91,32.32,32.57,3381600,32.57
2013-12-13,58.060001,61.09,58.00,60.889999,15848100,60.889999
2011-05-02,33.68,33.950001,33.459999,33.549999,3500800,33.549999
2012-10-22,33.439999,33.549999,33.169998,33.490002,3684900,33.490002
2012-01-23,30.33,30.780001,29.98,30.23,5378200,30.23
2014-01-30,59.119999,59.900002,59.02,59.389999,2768300,59.389999
2015-01-27,71.709999,72.360001,71.059998,71.459999,1798600,71.459999
2008-06-25,41.779999,42.700001,41.50,42.34,6023300,42.34
2012-05-17,32.380001,32.619999,32.009998,32.009998,4762700,32.009998
2012-07-03,32.009998,32.509998,32.009998,32.509998,2107800,32.509998
2016-10-13,107.129997,108.129997,106.529999,108.010002,1588500,108.010002
2014-07-10,70.459999,72.080002,70.309998,71.699997,1853200,71.699997
2016-01-11,88.07,89.800003,87.839996,89.379997,2362200,89.379997
2015-10-28,88.440002,88.830002,87.580002,88.50,3206700,88.50
2011-09-16,25.809999,25.85,25.25,25.52,13048300,25.52
2016-05-31,100.139999,100.559998,99.349998,99.470001,3480500,99.470001
2014-01-02,59.060001,59.529999,58.939999,59.290001,2745900,59.290001
2008-10-24,23.00,24.629999,22.879999,23.889999,10633700,23.889999
2015-03-27,72.720001,73.459999,72.559998,73.309998,2085200,73.309998
2014-09-15,70.629997,70.959999,69.370003,70.269997,3867700,70.269997
2007-12-03,41.869999,43.099998,41.849998,42.689999,9153400,42.689999
2012-08-23,33.66,33.799999,33.349998,33.50,2566700,33.50
2011-05-16,35.130001,35.360001,34.34,34.389999,3879500,34.389999
2009-09-08,32.48,32.560001,32.139999,32.509998,5160700,32.509998
2011-12-22,28.049999,28.25,27.700001,27.889999,5299700,27.889999
2015-04-07,76.07,76.68,75.620003,75.650002,2601300,75.650002
2014-03-21,69.059998,69.059998,66.910004,67.139999,5477200,67.139999
2007-11-26,41.689999,41.990002,40.810001,40.900002,6202200,40.900002
2012-05-25,31.639999,31.90,31.50,31.60,2000300,31.60
2013-06-04,43.669998,44.799999,43.529999,44.389999,5249400,44.389999
2013-12-20,58.419998,59.549999,58.220001,59.259998,5363200,59.259998
2008-04-18,36.990002,36.990002,36.080002,36.27,8839300,36.27
2013-07-16,48.049999,48.130001,47.360001,47.490002,2473100,47.490002
2011-05-18,34.599998,34.950001,34.43,34.869999,2209800,34.869999
2014-08-29,71.769997,72.099998,71.400002,71.900002,1659500,71.900002
2015-06-16,78.93,80.43,78.830002,79.940002,3579400,79.940002
2009-06-04,28.709999,29.549999,28.68,29.440001,7161700,29.440001
2007-03-06,39.049999,39.400002,38.580002,39.040001,6103400,39.040001
2009-02-03,19.690001,19.76,19.129999,19.700001,7938700,19.700001
2009-11-19,36.25,36.48,35.50,36.110001,3754500,36.110001
2012-10-11,31.85,31.91,31.58,31.780001,2854600,31.780001
2012-03-09,33.189999,33.650002,33.080002,33.639999,2910700,33.639999
2014-09-24,67.769997,69.25,67.599998,69.029999,3879800,69.029999
2011-02-18,35.099998,35.84,35.00,35.389999,6779700,35.389999
2007-04-12,42.110001,42.490002,41.860001,42.400002,3639300,42.400002
2011-12-14,26.799999,27.15,26.25,26.52,7277900,26.52
2009-01-21,19.879999,20.969999,19.74,20.959999,9536900,20.959999
2016-09-28,109.480003,109.690002,108.82,109.489998,2739800,109.489998
2010-05-24,31.82,32.169998,31.610001,31.629999,6543800,31.629999
2010-09-23,26.58,26.84,26.290001,26.41,31770800,26.41
2008-08-14,45.48,45.689999,45.009998,45.360001,6526100,45.360001
2015-03-02,79.139999,79.790001,78.720001,79.790001,1497700,79.790001
2015-08-18,86.980003,87.25,86.029999,86.449997,1468300,86.449997
2010-03-31,35.619999,35.700001,35.27,35.369999,4436700,35.369999
2009-05-14,25.200001,26.15,25.200001,25.93,6721000,25.93
2012-04-16,33.220001,33.369999,32.689999,32.849998,3281300,32.849998
2009-07-20,30.74,31.35,30.620001,31.209999,6790700,31.209999
2011-02-10,32.860001,33.57,32.759998,33.57,4010800,33.57
2008-03-04,32.84,33.119999,32.43,33.07,8178800,33.07
2008-12-08,21.85,23.00,21.85,22.60,7912100,22.60
2013-06-11,43.599998,43.849998,43.099998,43.119999,2487100,43.119999
2007-03-13,39.310001,39.599998,38.650002,38.650002,5787100,38.650002
2014-03-25,65.75,66.739998,65.059998,65.809998,4245500,65.809998
2010-07-23,28.60,29.35,28.540001,29.23,7703200,29.23
2009-11-04,33.299999,34.52,32.950001,33.860001,7883400,33.860001
2015-04-23,75.080002,76.800003,75.00,76.519997,1714100,76.519997
2008-01-03,41.549999,42.209999,41.50,41.790001,5186700,41.790001
2011-06-14,31.950001,32.52,31.799999,32.09,4762700,32.09
2009-01-08,24.01,24.379999,23.629999,24.290001,6207400,24.290001
2015-05-28,80.169998,80.419998,79.75,80.019997,1248400,80.019997
2011-04-27,33.139999,33.689999,33.07,33.650002,5092200,33.650002
2012-06-20,30.68,32.490002,30.379999,31.99,18924900,31.99
2014-09-03,72.550003,72.800003,71.989998,72.43,1971400,72.43
2007-09-27,43.50,43.650002,43.110001,43.450001,5023800,43.450001
2011-07-07,31.85,32.349998,31.76,32.07,4938000,32.07
2011-02-24,33.349998,33.630001,32.939999,33.450001,3965500,33.450001
2015-11-24,91.139999,92.220001,90.089996,92.00,2046200,92.00
2011-05-31,34.610001,34.84,34.41,34.630001,3938000,34.630001
2016-08-30,102.089996,102.389999,101.510002,102.00,1325100,102.00
2010-06-09,31.139999,31.52,30.629999,30.73,5808400,30.73
2008-02-20,34.349998,35.279999,34.25,35.049999,6438600,35.049999
2014-06-16,66.800003,67.790001,66.519997,67.620003,4370400,67.620003
2016-02-01,88.160004,90.239998,87.900002,89.610001,2893100,89.610001
2015-06-25,83.82,84.269997,83.489998,83.940002,3052900,83.940002
2009-11-13,35.689999,36.599998,35.689999,36.509998,4988600,36.509998
2013-03-22,42.169998,43.23,42.110001,42.970001,5619500,42.970001
2012-12-31,36.799999,37.700001,36.650002,37.68,4634600,37.68
2007-06-01,44.150002,44.880001,44.119999,44.529999,4932400,44.529999
2014-09-22,66.699997,67.220001,65.790001,67.199997,4122200,67.199997
2015-06-24,83.220001,84.360001,82.970001,83.400002,4311200,83.400002
2015-12-28,93.790001,94.300003,93.230003,94.199997,1027000,94.199997
2007-12-26,43.099998,43.240002,42.709999,43.119999,4655600,43.119999
2012-09-10,32.360001,32.57,32.110001,32.130001,3865300,32.130001
2015-06-23,82.169998,83.769997,82.099998,83.550003,4944400,83.550003
2013-02-14,38.700001,38.919998,38.299999,38.610001,4929700,38.610001
2011-10-31,28.48,29.719999,28.450001,29.41,12805900,29.41
2016-09-12,99.18,100.50,99.00,100.32,2882600,100.32
2010-01-27,33.68,33.68,32.650002,33.139999,9896900,33.139999
2008-07-25,41.07,41.419998,40.599998,40.900002,5147700,40.900002
2015-09-10,78.629997,78.970001,78.010002,78.699997,3541000,78.699997
2013-09-24,51.790001,51.880001,51.07,51.419998,3103300,51.419998
2014-07-14,72.550003,73.260002,72.459999,72.879997,1862500,72.879997
2008-02-29,34.91,34.919998,33.48,33.650002,12307400,33.650002
2014-10-08,66.00,68.089996,65.410004,67.989998,3562500,67.989998
2009-12-17,37.459999,37.52,36.990002,37.009998,6562800,37.009998
2010-02-05,32.43,32.799999,31.85,32.77,11881500,32.77
2009-11-16,36.509998,37.150002,36.110001,36.810001,5263200,36.810001
2008-09-12,40.900002,40.900002,39.900002,40.470001,7959800,40.470001
2013-01-02,37.919998,38.73,37.919998,38.34,6483800,38.34
2012-11-08,33.50,33.57,32.919998,32.98,4247900,32.98
2011-07-12,30.799999,30.799999,30.23,30.35,5665300,30.35
2015-07-13,81.089996,81.660004,80.82,81.440002,4597200,81.440002
2009-04-14,24.379999,24.49,23.84,24.01,6545000,24.01
2011-02-22,34.93,35.130001,33.720001,33.740002,6549600,33.740002
2013-12-19,58.73,58.98,58.07,58.130001,3310500,58.130001
2015-10-27,88.650002,88.849998,87.809998,88.050003,2593600,88.050003
2012-02-02,31.24,31.68,31.209999,31.290001,3803900,31.290001
2009-01-26,19.950001,20.440001,19.67,19.93,6139300,19.93
2011-03-10,34.68,35.16,34.150002,34.860001,5265900,34.860001
2013-01-25,38.049999,38.529999,38.02,38.32,3273000,38.32
2009-07-30,32.540001,33.34,32.169998,32.279999,5653500,32.279999
2010-02-26,34.549999,34.700001,34.060001,34.650002,4792600,34.650002
2011-09-20,25.40,25.40,24.530001,24.639999,11626800,24.639999
2013-08-29,45.50,46.139999,45.349998,45.93,1738900,45.93
2011-06-16,31.09,31.24,30.43,30.799999,5988200,30.799999
2010-12-16,27.809999,28.52,27.51,28.52,7665700,28.52
2015-02-23,78.650002,78.690002,77.790001,78.099998,1455800,78.099998
2016-08-10,99.129997,100.989998,99.089996,100.620003,2670200,100.620003
2010-09-01,28.139999,28.90,27.889999,28.85,6116300,28.85
2007-05-21,43.939999,44.00,43.029999,43.25,6628600,43.25
2016-07-28,97.919998,98.610001,97.57,98.440002,1666000,98.440002
2015-12-15,93.980003,95.790001,93.720001,94.019997,4099800,94.019997
2014-10-29,68.209999,68.809998,67.519997,67.93,2054400,67.93
2014-07-02,72.650002,73.239998,72.599998,72.760002,2682100,72.760002
2008-10-13,29.379999,30.73,28.68,30.379999,12510200,30.379999
2009-11-27,35.009998,35.66,34.630001,35.380001,2049600,35.380001
2013-08-15,46.369999,46.389999,45.700001,45.869999,2616800,45.869999
2015-11-04,90.339996,91.339996,90.209999,91.010002,1873700,91.010002
2009-05-28,27.25,27.639999,26.57,27.540001,7651000,27.540001
2014-04-28,61.84,62.169998,59.619999,60.400002,4375800,60.400002
2009-04-30,27.10,27.709999,26.73,27.35,9140100,27.35
2010-04-23,35.84,36.290001,35.720001,36.25,6528500,36.25
2010-04-30,34.970001,34.990002,33.560001,33.599998,12735800,33.599998
2013-08-09,47.380001,47.77,47.09,47.18,1891300,47.18
2013-02-26,38.139999,38.66,38.09,38.59,2925000,38.59
2007-03-16,38.200001,39.560001,38.200001,39.169998,7545200,39.169998
2010-04-27,35.91,36.00,35.189999,35.34,6938700,35.34
2014-07-03,72.949997,73.709999,72.68,73.57,1396100,73.57
2010-08-19,27.870001,28.139999,27.27,27.690001,5126700,27.690001
2015-08-27,78.410004,79.279999,77.389999,78.910004,5197200,78.910004
2011-11-01,28.52,28.85,28.129999,28.59,12232200,28.59
2015-01-22,71.900002,73.650002,70.900002,73.480003,2178500,73.480003
2015-11-23,91.82,92.370003,91.269997,91.959999,1570400,91.959999
2016-05-04,93.18,93.589996,92.550003,92.940002,1710700,92.940002
2013-07-25,47.799999,47.959999,47.450001,47.790001,2242800,47.790001
2013-10-17,51.869999,52.310001,51.700001,52.07,3776600,52.07
2012-05-03,33.77,33.939999,33.240002,33.32,2670300,33.32
2007-04-25,42.650002,42.830002,42.16,42.709999,4254800,42.709999
2009-07-14,28.09,28.450001,27.93,28.299999,8136800,28.299999
2009-05-15,25.969999,26.35,25.52,25.92,4806500,25.92
2014-07-23,72.339996,72.550003,71.480003,72.040001,1873800,72.040001
2007-04-09,42.75,42.959999,42.34,42.700001,3474400,42.700001
2007-12-17,41.790001,41.939999,40.59,40.900002,12301900,40.900002
2016-08-04,96.50,97.279999,96.190002,97.089996,1282600,97.089996
2016-11-21,105.559998,106.139999,105.139999,105.650002,1804400,105.650002
2015-03-26,72.43,73.360001,72.120003,72.970001,2965300,72.970001
2015-02-12,73.599998,74.760002,73.309998,74.589996,2243500,74.589996
2013-07-15,48.25,48.459999,48.099998,48.119999,2122800,48.119999
2007-09-20,43.639999,44.00,42.439999,42.799999,12614200,42.799999
